{
  "E": {
    "translation": "EDI",
    "limit": 50,
    "context": "EDI"
  },
  "I": {
    "translation": "Entrega do fornecedor",
    "limit": 50,
    "context": "Supplier Turn In"
  },
  "M": {
    "translation": "Telemóvel",
    "limit": 50,
    "context": "Mobile"
  },
  "S": {
    "translation": "Permanente",
    "limit": 50,
    "context": "Standing"
  },
  "T": {
    "translation": "Televenda",
    "limit": 50,
    "context": "Telesale"
  },
  "W": {
    "translation": "Rede",
    "limit": 50,
    "context": "Web"
  }
}