{
  "E": {
    "translation": "EDI",
    "limit": 50,
    "context": "EDI"
  },
  "I": {
    "translation": "Leverancier komt binnen",
    "limit": 50,
    "context": "Supplier Turn In"
  },
  "M": {
    "translation": "mobiel",
    "limit": 50,
    "context": "Mobile"
  },
  "S": {
    "translation": "Standing",
    "limit": 50,
    "context": "Standing"
  },
  "T": {
    "translation": "Telesale",
    "limit": 50,
    "context": "Telesale"
  },
  "W": {
    "translation": "Web",
    "limit": 50,
    "context": "Web"
  }
}