{
  "A": {
    "translation": "Activo",
    "context": "Active"
  },
  "D": {
    "translation": "Eliminado",
    "context": "Deleted"
  },
  "E": {
    "translation": "Correo electrónico N/A",
    "context": "Email N/A"
  },
  "S": {
    "translation": "Enviado",
    "context": "Sent"
  },
  "U": {
    "translation": "Fallido",
    "context": "Unsuccessed"
  },
  "X": {
    "translation": "Expired",
    "context": "Expired"
  }
}