{
  "A": {
    "translation": "Active",
    "context": "Active"
  },
  "D": {
    "translation": "Deleted",
    "context": "Deleted"
  },
  "E": {
    "translation": "Email N/A",
    "context": "Email N/A"
  },
  "S": {
    "translation": "Sent",
    "context": "Sent"
  },
  "U": {
    "translation": "Unsuccessful",
    "context": "Unsuccessed"
  },
  "X": {
    "translation": "Expired",
    "context": "Expired"
  }
}