{
  "E": {
    "translation": "EDI Users",
    "limit": 50,
    "context": "EDI Users"
  },
  "F": {
    "translation": "{{Shop}} Users",
    "limit": 50,
    "context": "Shop Users"
  },
  "L": {
    "translation": "Supplier Users",
    "limit": 50,
    "context": "Supplier Users"
  },
  "P": {
    "translation": "Admin Users",
    "limit": 50,
    "context": "Admin Users"
  },
  "S": {
    "translation": "Shadow Users",
    "limit": 50,
    "context": "Shadow Users"
  }
}