{
  "A": {
    "Description": {
      "translation": "Disponível",
      "limit": 255
    },
    "Warning": {
      "translation": "*",
      "limit": 255
    }
  },
  "B3": {
    "Description": {
      "translation": "Produto em estoque limitado - a quantidade do seu pedido pode ser ajustada de acordo com o estoque",
      "limit": 255
    },
    "Warning": {
      "translation": "*"
    }
  },
  "B": {
    "Description": {
      "translation": "Comprado por encomenda. Permitir entrega em 2 dias",
      "limit": 255
    },
    "Warning": {
      "translation": "*"
    }
  },
  "B_SG": {
    "Description": {
      "translation": "Indent",
      "limit": 255
    },
    "Warning": {
      "translation": "*"
    }
  },
  "B_au": {
    "Description": {
      "translation": "Produto disponível para pedidos em espera",
      "limit": 255
    },
    "Warning": {
      "translation": "*"
    }
  },
  "B_bme": {
    "Description": {
      "translation": "Artigo de pré-encomenda, sujeito a disponibilidade",
      "limit": 255
    },
    "Warning": {
      "translation": "*"
    }
  },
  "B_fsuk": {
    "Description": {
      "translation": "Sujeito a confirmação",
      "limit": 255
    },
    "Warning": {
      "translation": "*"
    }
  },
  "B_hrc": {
    "Description": {
      "translation": "Comprado por encomenda",
      "limit": 255
    },
    "Warning": {
      "translation": "Pedido em espera"
    }
  },
  "B_nz": {
    "Description": {
      "translation": "Comprado por encomenda"
    },
    "Warning": {
      "translation": "*"
    }
  },
  "C": {
    "Description": {
      "translation": "Sujeito a confirmação",
      "limit": 255
    },
    "Warning": {
      "translation": "*"
    }
  },
  "C_bme": {
    "Description": {
      "translation": "Liquidação de stock",
      "limit": 255
    },
    "Warning": {
      "translation": "*"
    }
  },
  "C_lv": {
    "Description": {
      "translation": "Stock Clearance",
      "limit": 255
    },
    "Warning": {
      "translation": "*"
    }
  },
  "D": {
    "Description": {
      "translation": "Será entregue pelo Correio/Fornecedor",
      "limit": 255
    },
    "Warning": {
      "translation": "*"
    }
  },
  "D_SG": {
    "Description": {
      "translation": "Delisted",
      "limit": 255
    },
    "Warning": {
      "translation": "*"
    }
  },
  "D_fsuk": {
    "Description": {
      "translation": "Será entregue pelo Correio/Fornecedor",
      "limit": 255
    },
    "Warning": {
      "translation": "*"
    }
  },
  "E": {
    "Description": {
      "translation": "Experimental",
      "limit": 255
    },
    "Warning": {
      "translation": "*"
    }
  },
  "F": {
    "Description": {
      "translation": "Disponível",
      "limit": 255
    },
    "Warning": {
      "translation": "*"
    }
  },
  "FB": {
    "Description": {
      "translation": "Disponível conforme lead time",
      "limit": 255
    },
    "Warning": {
      "translation": "*"
    }
  },
  "FS": {
    "Description": {
      "translation": "Marisco fresco",
      "limit": 255
    },
    "Warning": {
      "translation": "*"
    }
  },
  "H": {
    "Description": {
      "translation": "Será entregue pelo Correio/Fornecedor",
      "limit": 255
    },
    "Warning": {
      "translation": "*"
    }
  },
  "L2": {
    "Description": {
      "translation": "Produto tem um prazo de entrega de dois dias",
      "limit": 255
    },
    "Warning": {
      "translation": "*"
    }
  },
  "L": {
    "Description": {
      "translation": "Produto com stock limitado - a quantidade do seu pedido pode ser ajustada de acordo com o stock disponível",
      "limit": 255
    },
    "Warning": {
      "translation": "*"
    }
  },
  "L_bme": {
    "Description": {
      "translation": "Baixo stock",
      "limit": 255
    },
    "Warning": {
      "translation": "*"
    }
  },
  "L_hrc": {
    "Description": {
      "translation": "Disponibilidade limitada",
      "limit": 255
    },
    "Warning": {
      "translation": "*"
    }
  },
  "M": {
    "Description": {
      "translation": "Fornecedor não tem stock",
      "limit": 255
    },
    "Warning": {
      "translation": "*"
    }
  },
  "N": {
    "Description": {
      "translation": "Fim da Linha",
      "limit": 255
    },
    "Warning": {
      "translation": "*"
    }
  },
  "O": {
    "Description": {
      "translation": "Congelado de fresco",
      "limit": 255
    },
    "Warning": {
      "translation": "*"
    }
  },
  "O_bme": {
    "Description": {
      "translation": "*",
      "limit": 255
    },
    "Warning": {
      "translation": "*"
    }
  },
  "O_hrc": {
    "Description": {
      "translation": "Indisponível",
      "limit": 255
    },
    "Warning": {
      "translation": "*"
    }
  },
  "P": {
    "Description": {
      "translation": "Pre order",
      "limit": 255
    },
    "Warning": {
      "translation": "*",
      "limit": 255
    }
  },
  "PC": {
    "Description": {
      "translation": "Available",
      "limit": 255
    },
    "Warning": {
      "translation": "*"
    }
  },
  "PC_eli": {
    "Description": {
      "translation": "Cut off time:12pm for next day delivery",
      "limit": 255
    },
    "Warning": {
      "translation": "*"
    }
  },
  "R1": {
    "Description": {
      "translation": "Produto com stock limitado - a quantidade do seu pedido pode ser ajustada de acordo com o stock",
      "limit": 255
    },
    "Warning": {
      "translation": "*"
    }
  },
  "R": {
    "Description": {
      "translation": "Mediante reserva",
      "limit": 255
    },
    "Warning": {
      "translation": "*",
      "limit": 255
    }
  },
  "RW": {
    "Description": {
      "translation": "Peso variável",
      "limit": 255
    },
    "Warning": {
      "translation": "*"
    }
  },
  "RWB": {
    "Description": {
      "translation": "Peso variável com data de entrega a ser informada",
      "limit": 255
    },
    "Warning": {
      "translation": "*"
    }
  },
  "RWB_za": {
    "Description": {
      "translation": "Peso Variável: Unidades entregues = Kgs pedidos / Tamanho da embalagem: peso médio. Permitir entrega em 3 dias",
      "limit": 255
    },
    "Warning": {
      "translation": "*"
    }
  },
  "RW_za": {
    "Description": {
      "translation": "Peso Variável: Unidades entregues = Kgs pedidos / Tamanho da embalagem: peso médio.",
      "limit": 255
    },
    "Warning": {
      "translation": "*"
    }
  },
  "S": {
    "Description": {
      "translation": "Limitado",
      "limit": 255
    },
    "Warning": {
      "translation": "*"
    }
  },
  "T": {
    "Description": {
      "translation": "Temporary Unavailable",
      "limit": 255
    },
    "Warning": {
      "translation": "*"
    }
  },
  "TBA": {
    "Description": {
      "translation": "Encomendado com data de entrega a ser informada",
      "limit": 255
    },
    "Warning": {
      "translation": "*"
    }
  },
  "T_SG": {
    "Description": {
      "translation": "Temporary Unavailable",
      "limit": 255
    },
    "Warning": {
      "translation": "*"
    }
  },
  "U": {
    "Description": {
      "translation": "Indisponível",
      "limit": 255
    },
    "Warning": {
      "translation": "*"
    }
  },
  "X": {
    "Description": {
      "translation": "Fim da linha",
      "limit": 255
    },
    "Warning": {
      "translation": "*"
    }
  }
}