{
  "D": {
    "translation": "Diena",
    "limit": 50,
    "context": "Day"
  },
  "M": {
    "translation": "Mėnuo",
    "limit": 50,
    "context": "Month"
  },
  "W": {
    "translation": "Savaitė",
    "limit": 50,
    "context": "Week"
  },
  "X": {
    "translation": "Pagal pareikalavimą",
    "limit": 50,
    "context": "On Request"
  }
}