{
  "D": {
    "translation": "Tag",
    "limit": 50,
    "context": "Day"
  },
  "M": {
    "translation": "Monat",
    "limit": 50,
    "context": "Month"
  },
  "W": {
    "translation": "Woche",
    "limit": 50,
    "context": "Week"
  },
  "X": {
    "translation": "Auf Anfrage",
    "limit": 50,
    "context": "On Request"
  }
}