{
  "D": {
    "translation": "Día ",
    "limit": 50,
    "context": "Day"
  },
  "M": {
    "translation": "Mes",
    "limit": 50,
    "context": "Month"
  },
  "W": {
    "translation": "Semana",
    "limit": 50,
    "context": "Week"
  },
  "X": {
    "translation": "Bajo pedido",
    "limit": 50,
    "context": "On Request"
  }
}