{
  "D": {
    "translation": "Dia",
    "limit": 50,
    "context": "Day"
  },
  "M": {
    "translation": "Mês",
    "limit": 50,
    "context": "Month"
  },
  "W": {
    "translation": "Semana",
    "limit": 50,
    "context": "Week"
  },
  "X": {
    "translation": "A pedido",
    "limit": 50,
    "context": "On Request"
  }
}