{
  "1": {
    "translation": "Baking Powder",
    "limit": 255,
    "context": "Baking Powder"
  },
  "2": {
    "translation": "Baking Soda",
    "limit": 255,
    "context": "Baking Soda"
  },
  "3": {
    "translation": "Breadcrumbs (Fresh)",
    "limit": 255,
    "context": "Breadcrumbs (Fresh)"
  },
  "4": {
    "translation": "Butter",
    "limit": 255,
    "context": "Butter"
  },
  "5": {
    "translation": "Cheese (Grated, Firmly Packed)",
    "limit": 255,
    "context": "Cheese (Grated, Firmly Packed)"
  },
  "6": {
    "translation": "Cocoa",
    "limit": 255,
    "context": "Cocoa"
  },
  "7": {
    "translation": "Coconut",
    "limit": 255,
    "context": "Coconut"
  },
  "8": {
    "translation": "Cornflour",
    "limit": 255,
    "context": "Cornflour"
  },
  "9": {
    "translation": "Cream",
    "limit": 255,
    "context": "Cream"
  },
  "10": {
    "translation": "Dried Fruit (Currants, Sultanas, Raisins, Dates)",
    "limit": 255,
    "context": "Dried Fruit (Currants, Sultanas, Raisins, Dates)"
  },
  "11": {
    "translation": "Dried Herbs",
    "limit": 255,
    "context": "Dried Herbs"
  },
  "12": {
    "translation": "Eggs, Standard Size 6",
    "limit": 255,
    "context": "Eggs, Standard Size 6"
  },
  "13": {
    "translation": "Flour",
    "limit": 255,
    "context": "Flour"
  },
  "14": {
    "translation": "Flour, Wholemeal",
    "limit": 255,
    "context": "Flour, Wholemeal"
  },
  "15": {
    "translation": "Gelatine",
    "limit": 255,
    "context": "Gelatine"
  },
  "16": {
    "translation": "Golden Syrup",
    "limit": 255,
    "context": "Golden Syrup"
  },
  "17": {
    "translation": "Milk",
    "limit": 255,
    "context": "Milk"
  },
  "18": {
    "translation": "Nuts",
    "limit": 255,
    "context": "Nuts"
  },
  "19": {
    "translation": "Oil",
    "limit": 255,
    "context": "Oil"
  },
  "20": {
    "translation": "Rice, Sago",
    "limit": 255,
    "context": "Rice, Sago"
  },
  "21": {
    "translation": "Salt",
    "limit": 255,
    "context": "Salt"
  },
  "22": {
    "translation": "Sour Cream",
    "limit": 255,
    "context": "Sour Cream"
  },
  "23": {
    "translation": "Sugar, White",
    "limit": 255,
    "context": "Sugar, White"
  },
  "24": {
    "translation": "Sugar, Brown (Firmly Packed)",
    "limit": 255,
    "context": "Sugar, Brown (Firmly Packed)"
  },
  "25": {
    "translation": "Sugar, Brown (Loosely Packed)",
    "limit": 255,
    "context": "Sugar, Brown (Loosely Packed)"
  },
  "26": {
    "translation": "Sugar, Icing",
    "limit": 255,
    "context": "Sugar, Icing"
  },
  "27": {
    "translation": "Standard Liquid Qty",
    "limit": 255,
    "context": "Standard Liquid Qty"
  }
}