{
  "HRC_NumberOfPieces": {
    "translation": "Peso por pieza",
    "limit": 255,
    "context": "NumberOfPieces"
  },
  "NumberOfPieces": {
    "translation": "Numero de piezas",
    "limit": 255,
    "context": "NumberOfPieces"
  },
  "PortionPerPack": {
    "translation": "Porción por paquete",
    "limit": 255,
    "context": "PortionPerPack"
  },
  "PortionPerWeightPerPiece": {
    "translation": "Peso de la porción por pieza",
    "limit": 255,
    "context": "PortionPerWeightPerPiece"
  },
  "VacuumPacked": {
    "translation": "Al vacío",
    "limit": 255,
    "context": "VacuumPacked"
  }
}