{
  "HRC_NumberOfPieces": {
    "translation": "Grams per piece",
    "limit": 255,
    "context": "NumberOfPieces"
  },
  "NumberOfPieces": {
    "translation": "Number of pieces",
    "limit": 255,
    "context": "NumberOfPieces"
  },
  "PortionPerPack": {
    "translation": "Portion per pack",
    "limit": 255,
    "context": "PortionPerPack"
  },
  "PortionPerWeightPerPiece": {
    "translation": "Portion per weight per piece",
    "limit": 255,
    "context": "PortionPerWeightPerPiece"
  },
  "VacuumPacked": {
    "translation": "Sous-vide",
    "limit": 255,
    "context": "VacuumPacked"
  }
}