{
  "-9999": {
    "translation": "DO NOT DELETE OR MODIFY - temporary Lokalise bug fix",
    "limit": 100,
    "context": "DO NOT DELETE OR MODIFY - temporary Lokalise bug fix"
  },
  "0": {
    "translation": "Betaling",
    "limit": 100,
    "context": "Payment"
  },
  "1": {
    "translation": "Pre-autorisatie",
    "limit": 100,
    "context": "Pre-Authorisation"
  },
  "2": {
    "translation": "Vervullen",
    "limit": 100,
    "context": "Fulfil"
  },
  "3": {
    "translation": "Ogenblik",
    "limit": 100,
    "context": "Instant"
  }
}