{
  "-9999": {
    "translation": "DO NOT DELETE OR MODIFY - temporary Lokalise bug fix",
    "limit": 100,
    "context": "DO NOT DELETE OR MODIFY - temporary Lokalise bug fix"
  },
  "0": {
    "translation": "Apmokėjimas",
    "limit": 100,
    "context": "Payment"
  },
  "1": {
    "translation": "Pre-Authorisation",
    "limit": 100,
    "context": "Pre-Authorisation"
  },
  "2": {
    "translation": "Fulfil",
    "limit": 100,
    "context": "Fulfil"
  },
  "3": {
    "translation": "Instant",
    "limit": 100,
    "context": "Instant"
  }
}