{
  "1": {
    "translation": "System error when updating result from ERP",
    "limit": 500,
    "context": "System error when updating result from ERP"
  },
  "2": {
    "translation": "System error when deserializing the message returned from ERP.",
    "limit": 500,
    "context": "System error when deserializing the message returned from ERP."
  },
  "3": {
    "translation": "Live Sync Service is off.",
    "limit": 500,
    "context": "Live Sync Service is off."
  },
  "4": {
    "translation": "CommunicationProtocol(=Unknown) is not set correctly.",
    "limit": 500,
    "context": "CommunicationProtocol(=Unknown) is not set correctly."
  },
  "5": {
    "translation": "Account details successfully retrieved, the account will be updated shortly",
    "limit": 500,
    "context": "Account details successfully retrieved, the account will be updated shortly"
  },
  "6": {
    "translation": "Invalid Account Code.",
    "limit": 500,
    "context": "Invalid Account Code."
  },
  "7": {
    "translation": "General Error occurred.",
    "limit": 500,
    "context": "General Error occurred."
  },
  "1000": {
    "translation": "Unknown approval record",
    "limit": 500,
    "context": "Unknown approval record"
  },
  "1001": {
    "translation": "Basket already approved",
    "limit": 500,
    "context": "Basket already approved"
  },
  "1002": {
    "translation": "Basket already declined",
    "limit": 500,
    "context": "Basket already declined"
  },
  "1003": {
    "translation": "Basket locked for editing",
    "limit": 500,
    "context": "Basket locked for editing"
  },
  "1004": {
    "translation": "Basket already approved by user",
    "limit": 500,
    "context": "Basket already approved by user"
  },
  "1005": {
    "translation": "Basket approved but requires additional approval(s)",
    "limit": 500,
    "context": "Basket approved but requires additional approval(s)"
  },
  "1006": {
    "translation": "Basket fully approved and order created",
    "limit": 500,
    "context": "Basket fully approved and order created"
  },
  "1007": {
    "translation": "Basket no longer locked",
    "limit": 500,
    "context": "Basket no longer locked"
  },
  "1008": {
    "translation": "Basket successfully unlocked",
    "limit": 500,
    "context": "Basket successfully unlocked"
  },
  "1009": {
    "translation": "Basket declined",
    "limit": 500,
    "context": "Basket declined"
  },
  "1010": {
    "translation": "Basket has already been edited and only one change allowed",
    "limit": 500,
    "context": "Basket has already been edited and only one change allowed"
  },
  "1011": {
    "translation": "Basket successfully locked for editing",
    "limit": 500,
    "context": "Basket successfully locked for editing"
  },
  "1012": {
    "translation": "Failed to create shadow user",
    "limit": 500,
    "context": "Failed to create shadow user"
  },
  "1013": {
    "translation": "Failed to create copy of basket for shadow user",
    "limit": 500,
    "context": "Failed to create copy of basket for shadow user"
  },
  "1014": {
    "translation": "Approval group cannot be deleted because it is being referenced by one or more accounts and/or users",
    "limit": 500,
    "context": "Approval group cannot be deleted because it is being referenced by one or more accounts and/or users"
  },
  "1015": {
    "translation": "Approval scheme cannot be deleted because it contains one or more approval groups",
    "limit": 500,
    "context": "Approval scheme cannot be deleted because it contains one or more approval groups"
  },
  "1016": {
    "translation": "Basket successfully saved",
    "limit": 500,
    "context": "Basket successfully saved"
  },
  "1017": {
    "translation": "Cannot remove approval group that has one or more children",
    "limit": 500,
    "context": "Cannot remove approval group that has one or more children"
  },
  "1018": {
    "translation": "Your approval limit is insufficient to approve order value",
    "limit": 500,
    "context": "Your approval limit is insufficient to approve order value"
  },
  "1019": {
    "translation": "Your spend limit is <currency symbol><spend limit> for an order. Orders equal or above that will be submitted for approval.",
    "limit": 500,
    "context": "Your spend limit is <currency symbol><spend limit> for an order. Orders equal or above that will be submitted for approval."
  },
  "1020": {
    "translation": "Your spend limit for this <period> is <currency symbol><spend limit>. With your purchase this <period> you have less than <currency symbol><balance> to spend before it is submitted for approval.",
    "limit": 500,
    "context": "Your spend limit for this <period> is <currency symbol><spend limit>. With your purchase this <period> you have less than <currency symbol><balance> to spend before it is submitted for approval."
  },
  "1021": {
    "translation": "You have reached your spend limit for this <period>. Your order will be submitted for approval.",
    "limit": 500,
    "context": "You have reached your spend limit for this <period>. Your order will be submitted for approval."
  },
  "1022": {
    "translation": "Approval scheme can not be deleted because the user does not have access to do so or the scheme no longer exists",
    "limit": 500,
    "context": "Approval scheme can not be deleted because the user does not have access to do so or the scheme no longer exists"
  },
  "1023": {
    "translation": "Approval group can not be deleted because the user does not have access to do so or the group no longer exists",
    "limit": 500,
    "context": "Approval group can not be deleted because the user does not have access to do so or the group no longer exists"
  },
  "1024": {
    "translation": "Spend limits are inclusive of tax.",
    "limit": 500,
    "context": "Spend limits are inclusive of tax."
  },
  "1025": {
    "translation": "Spend limits are exclusive of tax.",
    "limit": 500,
    "context": "Spend limits are exclusive of tax."
  },
  "1026": {
    "translation": "Approval group can not be deleted because there are pending orders.",
    "limit": 500,
    "context": "Approval group can not be deleted because there are pending orders."
  },
  "1027": {
    "translation": "Approval group cannot be deleted because it is being referenced by these customer groups:",
    "limit": 500,
    "context": "Approval group cannot be deleted because it is being referenced by these customer groups:"
  },
  "1028": {
    "translation": "Approval group cannot be deleted because it is being referenced by these accounts:",
    "limit": 500,
    "context": "Approval group cannot be deleted because it is being referenced by these accounts:"
  },
  "1029": {
    "translation": "Approval group cannot be deleted because it is being referenced by these users:",
    "limit": 500,
    "context": "Approval group cannot be deleted because it is being referenced by these users:"
  },
  "2000": {
    "translation": "Your limit is <currency symbol><spend limit> per payment. Payments equal or above that will be submitted for approval.",
    "limit": 500,
    "context": "Your limit is <currency symbol><spend limit> per payment. Payments equal or above that will be submitted for approval."
  },
  "2001": {
    "translation": "Payment already approved",
    "limit": 500,
    "context": "Payment already approved"
  },
  "2002": {
    "translation": "Payment already declined",
    "limit": 500,
    "context": "Payment already declined"
  },
  "2003": {
    "translation": "Payment already approved by user",
    "limit": 500,
    "context": "Payment already approved by user"
  },
  "2004": {
    "translation": "Your approval limit is insufficient to approve payment value",
    "limit": 500,
    "context": "Your approval limit is insufficient to approve payment value"
  },
  "2005": {
    "translation": "Payment approved but requires additional approval(s)",
    "limit": 500,
    "context": "Payment approved but requires additional approval(s)"
  },
  "2006": {
    "translation": "Payment fully approved and payment can be made",
    "limit": 500,
    "context": "Payment fully approved and payment can be made"
  },
  "2007": {
    "translation": "Payment declined",
    "limit": 500,
    "context": "Payment declined"
  }
}