{
  "1": {
    "translation": "Verificado",
    "limit": 50,
    "context": "Verified"
  },
  "2": {
    "translation": "Cuenta no encontrada",
    "limit": 50,
    "context": "Account Not Found"
  },
  "3": {
    "translation": "Cuenta no disponible",
    "limit": 50,
    "context": "Account Not Available"
  },
  "4": {
    "translation": "A la espera de subir",
    "limit": 50,
    "context": "Awaiting Upload"
  }
}