{
  "1": {
    "translation": "Verificado",
    "limit": 50,
    "context": "Verified"
  },
  "2": {
    "translation": "Cuenta No Encontrada",
    "limit": 50,
    "context": "Account Not Found"
  },
  "3": {
    "translation": "Cuenta No Disponible",
    "limit": 50,
    "context": "Account Not Available"
  },
  "4": {
    "translation": "Aguardando Carga",
    "limit": 50,
    "context": "Awaiting Upload"
  }
}