{
  "1": {
    "translation": "Verifiziert",
    "limit": 50,
    "context": "Verified"
  },
  "2": {
    "translation": "Konto nicht gefunden",
    "limit": 50,
    "context": "Account Not Found"
  },
  "3": {
    "translation": "Konto nicht verfügbar",
    "limit": 50,
    "context": "Account Not Available"
  },
  "4": {
    "translation": "Warten auf den Upload",
    "limit": 50,
    "context": "Awaiting Upload"
  }
}