{
  "1": {
    "translation": "geverifieerd",
    "limit": 50,
    "context": "Verified"
  },
  "2": {
    "translation": "Account niet gevonden",
    "limit": 50,
    "context": "Account Not Found"
  },
  "3": {
    "translation": "Account niet beschikbaar",
    "limit": 50,
    "context": "Account Not Available"
  },
  "4": {
    "translation": "In afwachting van uploaden",
    "limit": 50,
    "context": "Awaiting Upload"
  }
}