{
  "profiles": {
    "TranslationExtractor": {
      "commandName": "Project",
      "commandLineArgs": "-si=[{\\\"siteCode\\\":\\\"AU\\\",\\\"cultureCodes\\\":[\\\"en\\\"]},{\\\"siteCode\\\":\\\"AIV\\\",\\\"cultureCodes\\\":[\\\"en\\\"]},{\\\"siteCode\\\":\\\"ZA\\\",\\\"cultureCodes\\\":[\\\"en\\\"]},{\\\"siteCode\\\":\\\"SG\\\",\\\"cultureCodes\\\":[\\\"en\\\"]},{\\\"siteCode\\\":\\\"FSUK\\\",\\\"cultureCodes\\\":[\\\"en\\\"]},{\\\"siteCode\\\":\\\"LUK\\\",\\\"cultureCodes\\\":[\\\"en\\\"]},{\\\"siteCode\\\":\\\"CFG\\\",\\\"cultureCodes\\\":[\\\"en\\\"]},{\\\"siteCode\\\":\\\"BME\\\",\\\"cultureCodes\\\":[\\\"en\\\"]},{\\\"siteCode\\\":\\\"IB\\\",\\\"cultureCodes\\\":[\\\"es_ES\\\"]},{\\\"siteCode\\\":\\\"ANCN\\\",\\\"cultureCodes\\\":[\\\"zh_CN\\\"]},{\\\"siteCode\\\":\\\"HRC\\\",\\\"cultureCodes\\\":[\\\"fr_BE\\\",\\\"nl_BE\\\"]},{\\\"siteCode\\\":\\\"BS\\\",\\\"cultureCodes\\\":[\\\"lt_LT\\\"]},{\\\"siteCode\\\":\\\"LV\\\",\\\"cultureCodes\\\":[\\\"lv_LV\\\"]},{\\\"siteCode\\\":\\\"\\\",\\\"cultureCodes\\\":[\\\"de_DE\\\"]},{\\\"siteCode\\\":\\\"TR\\\",\\\"cultureCodes\\\":[\\\"tr_TR\\\"]},{\\\"siteCode\\\":\\\"BR\\\",\\\"cultureCodes\\\":[\\\"pt_BR\\\"]},{\\\"siteCode\\\":\\\"CL\\\",\\\"cultureCodes\\\":[\\\"es_CL\\\"]}] -s=C:\\Bidone\\Projects\\bdirect-translations\\adminv5\\Angular\\ -d=C:\\Temp\\adminv5\\ -dsub=\\",
      "environmentVariables": {
        "DEBUGMODE": "true"
      }
    }
  }
}