{
  "10_10_1000": {
    "Aggregate": {
      "translation": ""
    },
    "ReportColumnName": {
      "translation": "CategoriaVenta"
    }
  },
  "10_10_1002": {
    "Aggregate": {
      "translation": ""
    },
    "ReportColumnName": {
      "translation": "LíneaProducto"
    }
  },
  "10_10_1005": {
    "Aggregate": {
      "translation": ""
    },
    "ReportColumnName": {
      "translation": "Marca"
    }
  },
  "10_10_1007": {
    "Aggregate": {
      "translation": ""
    },
    "ReportColumnName": {
      "translation": "Descripción"
    }
  },
  "10_10_1008": {
    "Aggregate": {
      "translation": ""
    },
    "ReportColumnName": {
      "translation": "TamañoPaquete"
    }
  },
  "10_10_1009": {
    "Aggregate": {
      "translation": ""
    },
    "ReportColumnName": {
      "translation": "CtnCantidad"
    }
  },
  "10_10_1010": {
    "Aggregate": {
      "translation": ""
    },
    "ReportColumnName": {
      "translation": "UDM"
    }
  },
  "10_10_1011": {
    "Aggregate": {
      "translation": ""
    },
    "ReportColumnName": {
      "translation": "MayorPrecioPedido"
    }
  },
  "10_10_1013": {
    "Aggregate": {
      "translation": ""
    },
    "ReportColumnName": {
      "translation": "RegistroFecha"
    }
  },
  "10_10_1014": {
    "Aggregate": {
      "translation": ""
    },
    "ReportColumnName": {
      "translation": "CustCode1"
    }
  },
  "10_10_1015": {
    "Aggregate": {
      "translation": ""
    },
    "ReportColumnName": {
      "translation": "CustCode2"
    }
  },
  "10_10_1016": {
    "Aggregate": {
      "translation": ""
    },
    "ReportColumnName": {
      "translation": "CustCode3"
    }
  },
  "10_10_1017": {
    "Aggregate": {
      "translation": ""
    },
    "ReportColumnName": {
      "translation": "CustCode4"
    }
  },
  "10_10_1018": {
    "Aggregate": {
      "translation": ""
    },
    "ReportColumnName": {
      "translation": "Código de cuenta"
    }
  },
  "10_10_1019": {
    "Aggregate": {
      "translation": ""
    },
    "ReportColumnName": {
      "translation": "Nombre de la cuenta"
    }
  },
  "10_10_1020": {
    "Aggregate": {
      "translation": ""
    },
    "ReportColumnName": {
      "translation": "CódigoProducto"
    }
  },
  "10_10_1021": {
    "Aggregate": {
      "translation": ""
    },
    "ReportColumnName": {
      "translation": "Preferido"
    }
  },
  "10_10_1022": {
    "Aggregate": {
      "translation": ""
    },
    "ReportColumnName": {
      "translation": "CustomerItemCode"
    }
  },
  "11_11_1101": {
    "Aggregate": {
      "translation": ""
    },
    "ReportColumnName": {
      "translation": "Código de cuenta"
    }
  },
  "11_11_1102": {
    "Aggregate": {
      "translation": ""
    },
    "ReportColumnName": {
      "translation": "Nombre de la cuenta"
    }
  },
  "11_11_1103": {
    "Aggregate": {
      "translation": ""
    },
    "ReportColumnName": {
      "translation": "CodigoAlmacen"
    }
  },
  "11_11_1106": {
    "Aggregate": {
      "translation": ""
    },
    "ReportColumnName": {
      "translation": "CódigoProducto"
    }
  },
  "11_11_1107": {
    "Aggregate": {
      "translation": ""
    },
    "ReportColumnName": {
      "translation": "DescripciónProducto"
    }
  },
  "11_11_1108": {
    "Aggregate": {
      "translation": ""
    },
    "ReportColumnName": {
      "translation": "TamañoPaquete"
    }
  },
  "11_11_1109": {
    "Aggregate": {
      "translation": ""
    },
    "ReportColumnName": {
      "translation": "LíneaProducto"
    }
  },
  "11_11_1111": {
    "Aggregate": {
      "translation": ""
    },
    "ReportColumnName": {
      "translation": "Marca"
    }
  },
  "11_11_1113": {
    "Aggregate": {
      "translation": ""
    },
    "ReportColumnName": {
      "translation": "UnidadUDM"
    }
  },
  "11_11_1114": {
    "Aggregate": {
      "translation": ""
    },
    "ReportColumnName": {
      "translation": "CtnUDM"
    }
  },
  "11_11_1115": {
    "Aggregate": {
      "translation": ""
    },
    "ReportColumnName": {
      "translation": "AltCodigoItem"
    }
  },
  "11_11_1116": {
    "Aggregate": {
      "translation": ""
    },
    "ReportColumnName": {
      "translation": "MarcaAlternativa"
    }
  },
  "11_11_1118": {
    "Aggregate": {
      "translation": ""
    },
    "ReportColumnName": {
      "translation": "AltCodigoProducto"
    }
  },
  "11_11_1119": {
    "Aggregate": {
      "translation": ""
    },
    "ReportColumnName": {
      "translation": "AltDescripcionProducto"
    }
  },
  "11_11_1120": {
    "Aggregate": {
      "translation": ""
    },
    "ReportColumnName": {
      "translation": "AltTamañoPaquete"
    }
  },
  "11_11_1121": {
    "Aggregate": {
      "translation": ""
    },
    "ReportColumnName": {
      "translation": "AltTasaImpuesto"
    }
  },
  "11_11_1122": {
    "Aggregate": {
      "translation": ""
    },
    "ReportColumnName": {
      "translation": "AltLineaProducto"
    }
  },
  "11_11_1124": {
    "Aggregate": {
      "translation": ""
    },
    "ReportColumnName": {
      "translation": "AltUnidadUDM"
    }
  },
  "11_11_1125": {
    "Aggregate": {
      "translation": ""
    },
    "ReportColumnName": {
      "translation": "AltCtnUDM"
    }
  },
  "11_11_1126": {
    "Aggregate": {
      "translation": ""
    },
    "ReportColumnName": {
      "translation": "TasaImpuesto"
    }
  },
  "11_11_1127": {
    "Aggregate": {
      "translation": ""
    },
    "ReportColumnName": {
      "translation": "UsuarioID"
    }
  },
  "12_12_1201": {
    "Aggregate": {
      "translation": ""
    },
    "ReportColumnName": {
      "translation": "Código de cuenta"
    }
  },
  "12_12_1202": {
    "Aggregate": {
      "translation": ""
    },
    "ReportColumnName": {
      "translation": "Nombre de la cuenta"
    }
  },
  "12_12_1204": {
    "Aggregate": {
      "translation": ""
    },
    "ReportColumnName": {
      "translation": "CodigoAlmacen"
    }
  },
  "12_12_1207": {
    "Aggregate": {
      "translation": ""
    },
    "ReportColumnName": {
      "translation": "CódigoProducto"
    }
  },
  "12_12_1208": {
    "Aggregate": {
      "translation": ""
    },
    "ReportColumnName": {
      "translation": "DescripciónProducto"
    }
  },
  "12_12_1209": {
    "Aggregate": {
      "translation": ""
    },
    "ReportColumnName": {
      "translation": "TamañoPaquete"
    }
  },
  "12_12_1210": {
    "Aggregate": {
      "translation": ""
    },
    "ReportColumnName": {
      "translation": "LíneaProducto"
    }
  },
  "12_12_1212": {
    "Aggregate": {
      "translation": ""
    },
    "ReportColumnName": {
      "translation": "Marca"
    }
  },
  "12_12_1214": {
    "Aggregate": {
      "translation": ""
    },
    "ReportColumnName": {
      "translation": "UnidadUDM"
    }
  },
  "12_12_1215": {
    "Aggregate": {
      "translation": ""
    },
    "ReportColumnName": {
      "translation": "CtnUDM"
    }
  },
  "12_12_1216": {
    "Aggregate": {
      "translation": ""
    },
    "ReportColumnName": {
      "translation": "CtnCantidad"
    }
  },
  "12_12_1217": {
    "Aggregate": {
      "translation": ""
    },
    "ReportColumnName": {
      "translation": "PrecioUnitario"
    }
  },
  "12_12_1218": {
    "Aggregate": {
      "translation": ""
    },
    "ReportColumnName": {
      "translation": "CtnPrice"
    }
  },
  "12_12_1219": {
    "Aggregate": {
      "translation": ""
    },
    "ReportColumnName": {
      "translation": "Fecha de expiración"
    }
  },
  "12_12_1220": {
    "Aggregate": {
      "translation": ""
    },
    "ReportColumnName": {
      "translation": "TasaImpuesto"
    }
  },
  "12_12_1221": {
    "Aggregate": {
      "translation": ""
    },
    "ReportColumnName": {
      "translation": "UsuarioID"
    }
  },
  "1_1_101": {
    "Aggregate": {
      "translation": "",
      "limit": 10
    },
    "ReportColumnName": {
      "translation": "MPINCode",
      "limit": 50
    }
  },
  "1_1_103": {
    "Aggregate": {
      "translation": ""
    },
    "ReportColumnName": {
      "translation": "DescripciónProducto"
    }
  },
  "1_1_104": {
    "Aggregate": {
      "translation": ""
    },
    "ReportColumnName": {
      "translation": "CodigoItemCodigo"
    }
  },
  "1_1_105": {
    "Aggregate": {
      "translation": ""
    },
    "ReportColumnName": {
      "translation": "LíneaProducto"
    }
  },
  "1_1_107": {
    "Aggregate": {
      "translation": ""
    },
    "ReportColumnName": {
      "translation": "Marca"
    }
  },
  "1_1_109": {
    "Aggregate": {
      "translation": ""
    },
    "ReportColumnName": {
      "translation": "TamañoPaquete"
    }
  },
  "1_1_110": {
    "Aggregate": {
      "translation": ""
    },
    "ReportColumnName": {
      "translation": "UnidadUDM"
    }
  },
  "1_1_111": {
    "Aggregate": {
      "translation": ""
    },
    "ReportColumnName": {
      "translation": "PrecioUnitario"
    }
  },
  "1_1_112": {
    "Aggregate": {
      "translation": ""
    },
    "ReportColumnName": {
      "translation": "CtnUDM"
    }
  },
  "1_1_113": {
    "Aggregate": {
      "translation": ""
    },
    "ReportColumnName": {
      "translation": "CtnPrice"
    }
  },
  "1_1_114": {
    "Aggregate": {
      "translation": ""
    },
    "ReportColumnName": {
      "translation": "CantidadComprada"
    }
  },
  "1_1_115": {
    "Aggregate": {
      "translation": ""
    },
    "ReportColumnName": {
      "translation": "CódigoProducto"
    }
  },
  "1_1_116": {
    "Aggregate": {
      "translation": ""
    },
    "ReportColumnName": {
      "translation": "Código de cuenta"
    }
  },
  "1_1_117": {
    "Aggregate": {
      "translation": ""
    },
    "ReportColumnName": {
      "translation": "Nombre de la cuenta"
    }
  },
  "1_1_118": {
    "Aggregate": {
      "translation": ""
    },
    "ReportColumnName": {
      "translation": "UsuarioID"
    }
  },
  "2_2_200": {
    "Aggregate": {
      "translation": ""
    },
    "ReportColumnName": {
      "translation": "N º de pedido"
    }
  },
  "2_2_201": {
    "Aggregate": {
      "translation": ""
    },
    "ReportColumnName": {
      "translation": "FechaOrden"
    }
  },
  "2_2_202": {
    "Aggregate": {
      "translation": ""
    },
    "ReportColumnName": {
      "translation": "ConfirmarNo"
    }
  },
  "2_2_204": {
    "Aggregate": {
      "translation": ""
    },
    "ReportColumnName": {
      "translation": "Nombre de la cuenta"
    }
  },
  "2_2_205": {
    "Aggregate": {
      "translation": ""
    },
    "ReportColumnName": {
      "translation": "Estado"
    }
  },
  "2_2_206": {
    "Aggregate": {
      "translation": ""
    },
    "ReportColumnName": {
      "translation": "Estado de Orden"
    }
  },
  "2_2_207": {
    "Aggregate": {
      "translation": ""
    },
    "ReportColumnName": {
      "translation": "InvToL1"
    }
  },
  "2_2_208": {
    "Aggregate": {
      "translation": ""
    },
    "ReportColumnName": {
      "translation": "InvToL2"
    }
  },
  "2_2_209": {
    "Aggregate": {
      "translation": ""
    },
    "ReportColumnName": {
      "translation": "InvToL3"
    }
  },
  "2_2_210": {
    "Aggregate": {
      "translation": ""
    },
    "ReportColumnName": {
      "translation": "InvToL4"
    }
  },
  "2_2_211": {
    "Aggregate": {
      "translation": ""
    },
    "ReportColumnName": {
      "translation": "DelToL1"
    }
  },
  "2_2_212": {
    "Aggregate": {
      "translation": ""
    },
    "ReportColumnName": {
      "translation": "DelToL2"
    }
  },
  "2_2_213": {
    "Aggregate": {
      "translation": ""
    },
    "ReportColumnName": {
      "translation": "DelToL3"
    }
  },
  "2_2_214": {
    "Aggregate": {
      "translation": ""
    },
    "ReportColumnName": {
      "translation": "DelToL4"
    }
  },
  "2_2_215": {
    "Aggregate": {
      "translation": ""
    },
    "ReportColumnName": {
      "translation": "CusRef"
    }
  },
  "2_2_216": {
    "Aggregate": {
      "translation": ""
    },
    "ReportColumnName": {
      "translation": "NuestraReferencia"
    }
  },
  "2_2_218": {
    "Aggregate": {
      "translation": ""
    },
    "ReportColumnName": {
      "translation": "NombreAlmacen"
    }
  },
  "2_2_219": {
    "Aggregate": {
      "translation": ""
    },
    "ReportColumnName": {
      "translation": "NroFax"
    }
  },
  "2_2_220": {
    "Aggregate": {
      "translation": ""
    },
    "ReportColumnName": {
      "translation": "NroDeItems"
    }
  },
  "2_2_221": {
    "Aggregate": {
      "translation": ""
    },
    "ReportColumnName": {
      "translation": "Descuento"
    }
  },
  "2_2_222": {
    "Aggregate": {
      "translation": ""
    },
    "ReportColumnName": {
      "translation": "Flete"
    }
  },
  "2_2_223": {
    "Aggregate": {
      "translation": ""
    },
    "ReportColumnName": {
      "translation": "OtrosCargos"
    }
  },
  "2_2_224": {
    "Aggregate": {
      "translation": ""
    },
    "ReportColumnName": {
      "translation": "Impuesto"
    }
  },
  "2_2_225": {
    "Aggregate": {
      "translation": ""
    },
    "ReportColumnName": {
      "translation": "Total del pedido"
    }
  },
  "2_2_226": {
    "Aggregate": {
      "translation": ""
    },
    "ReportColumnName": {
      "translation": "EnvioCompletado"
    }
  },
  "2_2_227": {
    "Aggregate": {
      "translation": ""
    },
    "ReportColumnName": {
      "translation": "NroLineaOrden"
    }
  },
  "2_2_229": {
    "Aggregate": {
      "translation": ""
    },
    "ReportColumnName": {
      "translation": "Descripción"
    }
  },
  "2_2_230": {
    "Aggregate": {
      "translation": ""
    },
    "ReportColumnName": {
      "translation": "InventarioUDM"
    }
  },
  "2_2_231": {
    "Aggregate": {
      "translation": ""
    },
    "ReportColumnName": {
      "translation": "UDMDescripcion"
    }
  },
  "2_2_232": {
    "Aggregate": {
      "translation": ""
    },
    "ReportColumnName": {
      "translation": "CantidadOrdenada"
    }
  },
  "2_2_233": {
    "Aggregate": {
      "translation": ""
    },
    "ReportColumnName": {
      "translation": "CantidadenOrdenenEspera"
    }
  },
  "2_2_234": {
    "Aggregate": {
      "translation": ""
    },
    "ReportColumnName": {
      "translation": "CantidadEntregada"
    }
  },
  "2_2_235": {
    "Aggregate": {
      "translation": ""
    },
    "ReportColumnName": {
      "translation": "PrecioUnitario"
    }
  },
  "2_2_236": {
    "Aggregate": {
      "translation": ""
    },
    "ReportColumnName": {
      "translation": "PrecioAmpliado"
    }
  },
  "2_2_237": {
    "Aggregate": {
      "translation": ""
    },
    "ReportColumnName": {
      "translation": "LineImp"
    }
  },
  "2_2_238": {
    "Aggregate": {
      "translation": ""
    },
    "ReportColumnName": {
      "translation": "EstadoLínea"
    }
  },
  "2_2_239": {
    "Aggregate": {
      "translation": ""
    },
    "ReportColumnName": {
      "translation": "Marca"
    }
  },
  "2_2_240": {
    "Aggregate": {
      "translation": ""
    },
    "ReportColumnName": {
      "translation": "TamañoPaquete"
    }
  },
  "2_2_241": {
    "Aggregate": {
      "translation": ""
    },
    "ReportColumnName": {
      "translation": "FechaOrden"
    }
  },
  "2_2_242": {
    "Aggregate": {
      "translation": ""
    },
    "ReportColumnName": {
      "translation": "Preferido"
    }
  },
  "2_2_243": {
    "Aggregate": {
      "translation": ""
    },
    "ReportColumnName": {
      "translation": "Custcode1"
    }
  },
  "2_2_244": {
    "Aggregate": {
      "translation": ""
    },
    "ReportColumnName": {
      "translation": "Custcode2"
    }
  },
  "2_2_245": {
    "Aggregate": {
      "translation": ""
    },
    "ReportColumnName": {
      "translation": "Custcode3"
    }
  },
  "2_2_246": {
    "Aggregate": {
      "translation": ""
    },
    "ReportColumnName": {
      "translation": "Custcode4"
    }
  },
  "2_2_247": {
    "Aggregate": {
      "translation": ""
    },
    "ReportColumnName": {
      "translation": "NroOrdencompra"
    }
  },
  "2_2_248": {
    "Aggregate": {
      "translation": ""
    },
    "ReportColumnName": {
      "translation": "CentroCosto"
    }
  },
  "2_2_249": {
    "Aggregate": {
      "translation": ""
    },
    "ReportColumnName": {
      "translation": "CódigoPropósitoEspecial"
    }
  },
  "2_2_250": {
    "Aggregate": {
      "translation": ""
    },
    "ReportColumnName": {
      "translation": "Código de cuenta"
    }
  },
  "2_2_251": {
    "Aggregate": {
      "translation": ""
    },
    "ReportColumnName": {
      "translation": "CódigoProducto"
    }
  },
  "2_2_252": {
    "Aggregate": {
      "translation": ""
    },
    "ReportColumnName": {
      "translation": "CodigoAlmacen"
    }
  },
  "2_2_253": {
    "Aggregate": {
      "translation": ""
    },
    "ReportColumnName": {
      "translation": "FechaEntregaRequerida"
    }
  },
  "2_2_254": {
    "Aggregate": {
      "translation": ""
    },
    "ReportColumnName": {
      "translation": "CustomerItemCode"
    }
  },
  "3_3_300": {
    "Aggregate": {
      "translation": ""
    },
    "ReportColumnName": {
      "translation": "FacturaNro"
    }
  },
  "3_3_301": {
    "Aggregate": {
      "translation": ""
    },
    "ReportColumnName": {
      "translation": "FechaFactura"
    }
  },
  "3_3_302": {
    "Aggregate": {
      "translation": ""
    },
    "ReportColumnName": {
      "translation": "FechaInv"
    }
  },
  "3_3_304": {
    "Aggregate": {
      "translation": ""
    },
    "ReportColumnName": {
      "translation": "Nombre de la cuenta"
    }
  },
  "3_3_305": {
    "Aggregate": {
      "translation": ""
    },
    "ReportColumnName": {
      "translation": "InvToL1"
    }
  },
  "3_3_306": {
    "Aggregate": {
      "translation": ""
    },
    "ReportColumnName": {
      "translation": "InvToL2"
    }
  },
  "3_3_307": {
    "Aggregate": {
      "translation": ""
    },
    "ReportColumnName": {
      "translation": "InvToL3"
    }
  },
  "3_3_308": {
    "Aggregate": {
      "translation": ""
    },
    "ReportColumnName": {
      "translation": "InvToL4"
    }
  },
  "3_3_309": {
    "Aggregate": {
      "translation": ""
    },
    "ReportColumnName": {
      "translation": "DelToL1"
    }
  },
  "3_3_310": {
    "Aggregate": {
      "translation": ""
    },
    "ReportColumnName": {
      "translation": "DelToL2"
    }
  },
  "3_3_311": {
    "Aggregate": {
      "translation": ""
    },
    "ReportColumnName": {
      "translation": "DelToL3"
    }
  },
  "3_3_312": {
    "Aggregate": {
      "translation": ""
    },
    "ReportColumnName": {
      "translation": "DelToL4"
    }
  },
  "3_3_313": {
    "Aggregate": {
      "translation": ""
    },
    "ReportColumnName": {
      "translation": "Condiciones"
    }
  },
  "3_3_314": {
    "Aggregate": {
      "translation": ""
    },
    "ReportColumnName": {
      "translation": "CusRef"
    }
  },
  "3_3_315": {
    "Aggregate": {
      "translation": ""
    },
    "ReportColumnName": {
      "translation": "NuestraReferencia"
    }
  },
  "3_3_317": {
    "Aggregate": {
      "translation": ""
    },
    "ReportColumnName": {
      "translation": "NombreAlmacen"
    }
  },
  "3_3_318": {
    "Aggregate": {
      "translation": ""
    },
    "ReportColumnName": {
      "translation": "NroDeItems"
    }
  },
  "3_3_319": {
    "Aggregate": {
      "translation": ""
    },
    "ReportColumnName": {
      "translation": "Flete"
    }
  },
  "3_3_320": {
    "Aggregate": {
      "translation": ""
    },
    "ReportColumnName": {
      "translation": "OtrosCargos"
    }
  },
  "3_3_321": {
    "Aggregate": {
      "translation": ""
    },
    "ReportColumnName": {
      "translation": "Impuesto"
    }
  },
  "3_3_322": {
    "Aggregate": {
      "translation": ""
    },
    "ReportColumnName": {
      "translation": "TotalFactura"
    }
  },
  "3_3_323": {
    "Aggregate": {
      "translation": ""
    },
    "ReportColumnName": {
      "translation": "Descuento"
    }
  },
  "3_3_324": {
    "Aggregate": {
      "translation": ""
    },
    "ReportColumnName": {
      "translation": "NroLineaInv"
    }
  },
  "3_3_326": {
    "Aggregate": {
      "translation": ""
    },
    "ReportColumnName": {
      "translation": "Descripción"
    }
  },
  "3_3_327": {
    "Aggregate": {
      "translation": ""
    },
    "ReportColumnName": {
      "translation": "FacturaUDM"
    }
  },
  "3_3_328": {
    "Aggregate": {
      "translation": ""
    },
    "ReportColumnName": {
      "translation": "PedidoUDM"
    }
  },
  "3_3_329": {
    "Aggregate": {
      "translation": ""
    },
    "ReportColumnName": {
      "translation": "UDMDescripcion"
    }
  },
  "3_3_330": {
    "Aggregate": {
      "translation": ""
    },
    "ReportColumnName": {
      "translation": "CantidadOrdenada"
    }
  },
  "3_3_331": {
    "Aggregate": {
      "translation": ""
    },
    "ReportColumnName": {
      "translation": "CantidadenOrdenenEspera"
    }
  },
  "3_3_332": {
    "Aggregate": {
      "translation": ""
    },
    "ReportColumnName": {
      "translation": "CantidadFacturada"
    }
  },
  "3_3_333": {
    "Aggregate": {
      "translation": ""
    },
    "ReportColumnName": {
      "translation": "CantidadFacturadaenOrderenUDM"
    }
  },
  "3_3_334": {
    "Aggregate": {
      "translation": ""
    },
    "ReportColumnName": {
      "translation": "PrecioUnitarioOrdenUDM"
    }
  },
  "3_3_335": {
    "Aggregate": {
      "translation": ""
    },
    "ReportColumnName": {
      "translation": "PrecioUnitario"
    }
  },
  "3_3_336": {
    "Aggregate": {
      "translation": ""
    },
    "ReportColumnName": {
      "translation": "PrecioAmpliado"
    }
  },
  "3_3_337": {
    "Aggregate": {
      "translation": ""
    },
    "ReportColumnName": {
      "translation": "LineImp"
    }
  },
  "3_3_338": {
    "Aggregate": {
      "translation": ""
    },
    "ReportColumnName": {
      "translation": "Marca"
    }
  },
  "3_3_339": {
    "Aggregate": {
      "translation": ""
    },
    "ReportColumnName": {
      "translation": "TamañoPaquete"
    }
  },
  "3_3_340": {
    "Aggregate": {
      "translation": ""
    },
    "ReportColumnName": {
      "translation": "Preferido"
    }
  },
  "3_3_341": {
    "Aggregate": {
      "translation": ""
    },
    "ReportColumnName": {
      "translation": "CustCode1"
    }
  },
  "3_3_342": {
    "Aggregate": {
      "translation": ""
    },
    "ReportColumnName": {
      "translation": "CustCode2"
    }
  },
  "3_3_343": {
    "Aggregate": {
      "translation": ""
    },
    "ReportColumnName": {
      "translation": "CustCode3"
    }
  },
  "3_3_344": {
    "Aggregate": {
      "translation": ""
    },
    "ReportColumnName": {
      "translation": "CustCode4"
    }
  },
  "3_3_345": {
    "Aggregate": {
      "translation": ""
    },
    "ReportColumnName": {
      "translation": "NroOrdencompra"
    }
  },
  "3_3_346": {
    "Aggregate": {
      "translation": ""
    },
    "ReportColumnName": {
      "translation": "CentroCosto"
    }
  },
  "3_3_347": {
    "Aggregate": {
      "translation": ""
    },
    "ReportColumnName": {
      "translation": "CódigoPropósitoEspecial"
    }
  },
  "3_3_348": {
    "Aggregate": {
      "translation": ""
    },
    "ReportColumnName": {
      "translation": "Código de cuenta"
    }
  },
  "3_3_349": {
    "Aggregate": {
      "translation": ""
    },
    "ReportColumnName": {
      "translation": "CódigoProducto"
    }
  },
  "3_3_350": {
    "Aggregate": {
      "translation": ""
    },
    "ReportColumnName": {
      "translation": "CodigoAlmacen"
    }
  },
  "3_3_351": {
    "Aggregate": {
      "translation": ""
    },
    "ReportColumnName": {
      "translation": "LíneaProducto"
    }
  },
  "3_3_352": {
    "Aggregate": {
      "translation": ""
    },
    "ReportColumnName": {
      "translation": "CustomerItemCode"
    }
  },
  "4_4_400": {
    "Aggregate": {
      "translation": ""
    },
    "ReportColumnName": {
      "translation": "NroCredito"
    }
  },
  "4_4_402": {
    "Aggregate": {
      "translation": ""
    },
    "ReportColumnName": {
      "translation": "FechaCrédito"
    }
  },
  "4_4_404": {
    "Aggregate": {
      "translation": ""
    },
    "ReportColumnName": {
      "translation": "Nombre de la cuenta"
    }
  },
  "4_4_405": {
    "Aggregate": {
      "translation": ""
    },
    "ReportColumnName": {
      "translation": "AccountRef"
    }
  },
  "4_4_406": {
    "Aggregate": {
      "translation": ""
    },
    "ReportColumnName": {
      "translation": "CreToL1"
    }
  },
  "4_4_407": {
    "Aggregate": {
      "translation": ""
    },
    "ReportColumnName": {
      "translation": "CreToL2"
    }
  },
  "4_4_408": {
    "Aggregate": {
      "translation": ""
    },
    "ReportColumnName": {
      "translation": "CreToL3"
    }
  },
  "4_4_409": {
    "Aggregate": {
      "translation": ""
    },
    "ReportColumnName": {
      "translation": "CreToL4"
    }
  },
  "4_4_410": {
    "Aggregate": {
      "translation": ""
    },
    "ReportColumnName": {
      "translation": "DelToL1"
    }
  },
  "4_4_411": {
    "Aggregate": {
      "translation": ""
    },
    "ReportColumnName": {
      "translation": "DelToL2"
    }
  },
  "4_4_412": {
    "Aggregate": {
      "translation": ""
    },
    "ReportColumnName": {
      "translation": "DelToL3"
    }
  },
  "4_4_413": {
    "Aggregate": {
      "translation": ""
    },
    "ReportColumnName": {
      "translation": "DelToL4"
    }
  },
  "4_4_414": {
    "Aggregate": {
      "translation": ""
    },
    "ReportColumnName": {
      "translation": "Condiciones"
    }
  },
  "4_4_415": {
    "Aggregate": {
      "translation": ""
    },
    "ReportColumnName": {
      "translation": "Comentarios"
    }
  },
  "4_4_416": {
    "Aggregate": {
      "translation": ""
    },
    "ReportColumnName": {
      "translation": "CusRef"
    }
  },
  "4_4_417": {
    "Aggregate": {
      "translation": ""
    },
    "ReportColumnName": {
      "translation": "NuestraReferencia"
    }
  },
  "4_4_418": {
    "Aggregate": {
      "translation": ""
    },
    "ReportColumnName": {
      "translation": "FacturaNro"
    }
  },
  "4_4_420": {
    "Aggregate": {
      "translation": ""
    },
    "ReportColumnName": {
      "translation": "NombreAlmacen"
    }
  },
  "4_4_421": {
    "Aggregate": {
      "translation": ""
    },
    "ReportColumnName": {
      "translation": "NroDeItems"
    }
  },
  "4_4_422": {
    "Aggregate": {
      "translation": ""
    },
    "ReportColumnName": {
      "translation": "Flete"
    }
  },
  "4_4_423": {
    "Aggregate": {
      "translation": ""
    },
    "ReportColumnName": {
      "translation": "OtrosCargos"
    }
  },
  "4_4_424": {
    "Aggregate": {
      "translation": ""
    },
    "ReportColumnName": {
      "translation": "Impuesto"
    }
  },
  "4_4_425": {
    "Aggregate": {
      "translation": ""
    },
    "ReportColumnName": {
      "translation": "Total"
    }
  },
  "4_4_426": {
    "Aggregate": {
      "translation": ""
    },
    "ReportColumnName": {
      "translation": "Descuento"
    }
  },
  "4_4_427": {
    "Aggregate": {
      "translation": ""
    },
    "ReportColumnName": {
      "translation": "CreLineNo"
    }
  },
  "4_4_429": {
    "Aggregate": {
      "translation": ""
    },
    "ReportColumnName": {
      "translation": "Descripción"
    }
  },
  "4_4_430": {
    "Aggregate": {
      "translation": ""
    },
    "ReportColumnName": {
      "translation": "InventarioUDM"
    }
  },
  "4_4_431": {
    "Aggregate": {
      "translation": ""
    },
    "ReportColumnName": {
      "translation": "UDMDescripcion"
    }
  },
  "4_4_432": {
    "Aggregate": {
      "translation": ""
    },
    "ReportColumnName": {
      "translation": "CantidadOrdenada"
    }
  },
  "4_4_433": {
    "Aggregate": {
      "translation": ""
    },
    "ReportColumnName": {
      "translation": "CantidadenOrdenenEspera"
    }
  },
  "4_4_434": {
    "Aggregate": {
      "translation": ""
    },
    "ReportColumnName": {
      "translation": "CantidadFacturada"
    }
  },
  "4_4_435": {
    "Aggregate": {
      "translation": ""
    },
    "ReportColumnName": {
      "translation": "PrecioUnitario"
    }
  },
  "4_4_436": {
    "Aggregate": {
      "translation": ""
    },
    "ReportColumnName": {
      "translation": "PrecioAmpliado"
    }
  },
  "4_4_437": {
    "Aggregate": {
      "translation": ""
    },
    "ReportColumnName": {
      "translation": "LineImp"
    }
  },
  "4_4_438": {
    "Aggregate": {
      "translation": ""
    },
    "ReportColumnName": {
      "translation": "Marca"
    }
  },
  "4_4_439": {
    "Aggregate": {
      "translation": ""
    },
    "ReportColumnName": {
      "translation": "TamañoPaquete"
    }
  },
  "4_4_440": {
    "Aggregate": {
      "translation": ""
    },
    "ReportColumnName": {
      "translation": "Preferido"
    }
  },
  "4_4_441": {
    "Aggregate": {
      "translation": ""
    },
    "ReportColumnName": {
      "translation": "CustCode1"
    }
  },
  "4_4_442": {
    "Aggregate": {
      "translation": ""
    },
    "ReportColumnName": {
      "translation": "CustCode2"
    }
  },
  "4_4_443": {
    "Aggregate": {
      "translation": ""
    },
    "ReportColumnName": {
      "translation": "CustCode3"
    }
  },
  "4_4_444": {
    "Aggregate": {
      "translation": ""
    },
    "ReportColumnName": {
      "translation": "CustCode4"
    }
  },
  "4_4_445": {
    "Aggregate": {
      "translation": ""
    },
    "ReportColumnName": {
      "translation": "Código de cuenta"
    }
  },
  "4_4_446": {
    "Aggregate": {
      "translation": ""
    },
    "ReportColumnName": {
      "translation": "CódigoProducto"
    }
  },
  "4_4_447": {
    "Aggregate": {
      "translation": ""
    },
    "ReportColumnName": {
      "translation": "CodigoAlmacen"
    }
  },
  "4_4_448": {
    "Aggregate": {
      "translation": ""
    },
    "ReportColumnName": {
      "translation": "LíneaProducto"
    }
  },
  "4_4_449": {
    "Aggregate": {
      "translation": ""
    },
    "ReportColumnName": {
      "translation": "CustomerItemCode"
    }
  },
  "5_5_500": {
    "Aggregate": {
      "translation": ""
    },
    "ReportColumnName": {
      "translation": "FechaDeclaración"
    }
  },
  "5_5_502": {
    "Aggregate": {
      "translation": ""
    },
    "ReportColumnName": {
      "translation": "Código de cuenta"
    }
  },
  "5_5_503": {
    "Aggregate": {
      "translation": ""
    },
    "ReportColumnName": {
      "translation": "NombreCliente"
    }
  },
  "5_5_504": {
    "Aggregate": {
      "translation": ""
    },
    "ReportColumnName": {
      "translation": "Dirección 1"
    }
  },
  "5_5_505": {
    "Aggregate": {
      "translation": ""
    },
    "ReportColumnName": {
      "translation": "Dirección 2"
    }
  },
  "5_5_506": {
    "Aggregate": {
      "translation": ""
    },
    "ReportColumnName": {
      "translation": "Dirección3"
    }
  },
  "5_5_507": {
    "Aggregate": {
      "translation": ""
    },
    "ReportColumnName": {
      "translation": "Condiciones"
    }
  },
  "5_5_508": {
    "Aggregate": {
      "translation": ""
    },
    "ReportColumnName": {
      "translation": "Mensaje"
    }
  },
  "5_5_509": {
    "Aggregate": {
      "translation": ""
    },
    "ReportColumnName": {
      "translation": "Controlador de crédito"
    }
  },
  "5_5_510": {
    "Aggregate": {
      "translation": ""
    },
    "ReportColumnName": {
      "translation": "EdadActual"
    }
  },
  "5_5_511": {
    "Aggregate": {
      "translation": ""
    },
    "ReportColumnName": {
      "translation": "Edad 30"
    }
  },
  "5_5_512": {
    "Aggregate": {
      "translation": ""
    },
    "ReportColumnName": {
      "translation": "Edad 60"
    }
  },
  "5_5_513": {
    "Aggregate": {
      "translation": ""
    },
    "ReportColumnName": {
      "translation": "Edad 90"
    }
  },
  "5_5_514": {
    "Aggregate": {
      "translation": ""
    },
    "ReportColumnName": {
      "translation": "NroTransacción"
    }
  },
  "5_5_515": {
    "Aggregate": {
      "translation": ""
    },
    "ReportColumnName": {
      "translation": "FechaTransacción"
    }
  },
  "5_5_516": {
    "Aggregate": {
      "translation": ""
    },
    "ReportColumnName": {
      "translation": "TipoTransacción"
    }
  },
  "5_5_517": {
    "Aggregate": {
      "translation": ""
    },
    "ReportColumnName": {
      "translation": "Referencia"
    }
  },
  "5_5_518": {
    "Aggregate": {
      "translation": ""
    },
    "ReportColumnName": {
      "translation": "CustomerRef"
    }
  },
  "5_5_519": {
    "Aggregate": {
      "translation": ""
    },
    "ReportColumnName": {
      "translation": "Cantidad de Dr"
    }
  },
  "5_5_520": {
    "Aggregate": {
      "translation": ""
    },
    "ReportColumnName": {
      "translation": "CrCantidad"
    }
  },
  "5_5_521": {
    "Aggregate": {
      "translation": ""
    },
    "ReportColumnName": {
      "translation": "Equilibrar"
    }
  },
  "5_5_522": {
    "Aggregate": {
      "translation": ""
    },
    "ReportColumnName": {
      "translation": "CumBalance"
    }
  },
  "5_5_523": {
    "Aggregate": {
      "translation": ""
    },
    "ReportColumnName": {
      "translation": "FechaSta"
    }
  },
  "5_5_524": {
    "Aggregate": {
      "translation": ""
    },
    "ReportColumnName": {
      "translation": "Nombre de la cuenta"
    }
  },
  "6_6_601": {
    "Aggregate": {
      "translation": ""
    },
    "ReportColumnName": {
      "translation": "NombreAlmacen"
    }
  },
  "6_6_603": {
    "Aggregate": {
      "translation": ""
    },
    "ReportColumnName": {
      "translation": "Marca"
    }
  },
  "6_6_605": {
    "Aggregate": {
      "translation": ""
    },
    "ReportColumnName": {
      "translation": "DescripciónProducto"
    }
  },
  "6_6_606": {
    "Aggregate": {
      "translation": ""
    },
    "ReportColumnName": {
      "translation": "LíneaProducto"
    }
  },
  "6_6_607": {
    "Aggregate": {
      "translation": ""
    },
    "ReportColumnName": {
      "translation": "TamañoPaquete"
    }
  },
  "6_6_608": {
    "Aggregate": {
      "translation": ""
    },
    "ReportColumnName": {
      "translation": "TasaImpuesto"
    }
  },
  "6_6_609": {
    "Aggregate": {
      "translation": ""
    },
    "ReportColumnName": {
      "translation": "UnidadUDM"
    }
  },
  "6_6_610": {
    "Aggregate": {
      "translation": ""
    },
    "ReportColumnName": {
      "translation": "CtnUDM"
    }
  },
  "6_6_611": {
    "Aggregate": {
      "translation": ""
    },
    "ReportColumnName": {
      "translation": "CtnCantidad"
    }
  },
  "6_6_612": {
    "Aggregate": {
      "translation": ""
    },
    "ReportColumnName": {
      "translation": "PrecioUnitario"
    }
  },
  "6_6_613": {
    "Aggregate": {
      "translation": ""
    },
    "ReportColumnName": {
      "translation": "CantidadEnMano"
    }
  },
  "6_6_614": {
    "Aggregate": {
      "translation": ""
    },
    "ReportColumnName": {
      "translation": "CategoriaProductoVenta"
    }
  },
  "6_6_616": {
    "Aggregate": {
      "translation": ""
    },
    "ReportColumnName": {
      "translation": "Sucursal"
    }
  },
  "6_6_617": {
    "Aggregate": {
      "translation": ""
    },
    "ReportColumnName": {
      "translation": "GrupoClientes"
    }
  },
  "6_6_618": {
    "Aggregate": {
      "translation": ""
    },
    "ReportColumnName": {
      "translation": "GroupoVACIO"
    }
  },
  "6_6_619": {
    "Aggregate": {
      "translation": ""
    },
    "ReportColumnName": {
      "translation": "Preferido"
    }
  },
  "6_6_620": {
    "Aggregate": {
      "translation": ""
    },
    "ReportColumnName": {
      "translation": "Código de cuenta"
    }
  },
  "6_6_621": {
    "Aggregate": {
      "translation": ""
    },
    "ReportColumnName": {
      "translation": "CódigoProducto"
    }
  },
  "6_6_622": {
    "Aggregate": {
      "translation": ""
    },
    "ReportColumnName": {
      "translation": "Vendedor"
    }
  },
  "6_6_623": {
    "Aggregate": {
      "translation": ""
    },
    "ReportColumnName": {
      "translation": "CodigoAlmacen"
    }
  },
  "6_6_624": {
    "Aggregate": {
      "translation": ""
    },
    "ReportColumnName": {
      "translation": "CtnPrice"
    }
  },
  "6_6_625": {
    "Aggregate": {
      "translation": ""
    },
    "ReportColumnName": {
      "translation": "Nombre de la cuenta"
    }
  },
  "7_7_700": {
    "Aggregate": {
      "translation": ""
    },
    "ReportColumnName": {
      "translation": "Invoice/Credit Number"
    }
  },
  "7_7_701": {
    "Aggregate": {
      "translation": ""
    },
    "ReportColumnName": {
      "translation": "Fecha de la transacción"
    }
  },
  "7_7_702": {
    "Aggregate": {
      "translation": "Vacío"
    },
    "ReportColumnName": {
      "translation": "Fecha de la transacción"
    }
  },
  "7_7_703": {
    "Aggregate": {
      "translation": "Vacío"
    },
    "ReportColumnName": {
      "translation": "Cuenta"
    }
  },
  "7_7_704": {
    "Aggregate": {
      "translation": "Vacío"
    },
    "ReportColumnName": {
      "translation": "Nombre de la cuenta"
    }
  },
  "7_7_705": {
    "Aggregate": {
      "translation": "Vacío"
    },
    "ReportColumnName": {
      "translation": "Código del sitio propio del cliente"
    }
  },
  "7_7_706": {
    "Aggregate": {
      "translation": "Vacío"
    },
    "ReportColumnName": {
      "translation": "Dirección Línea 1"
    }
  },
  "7_7_707": {
    "Aggregate": {
      "translation": "Vacío"
    },
    "ReportColumnName": {
      "translation": "Dirección Línea 2"
    }
  },
  "7_7_708": {
    "Aggregate": {
      "translation": "Vacío"
    },
    "ReportColumnName": {
      "translation": "Dirección Línea 3"
    }
  },
  "7_7_709": {
    "Aggregate": {
      "translation": "Vacío"
    },
    "ReportColumnName": {
      "translation": "Dirección Línea 4"
    }
  },
  "7_7_710": {
    "Aggregate": {
      "translation": "Vacío"
    },
    "ReportColumnName": {
      "translation": "Dirección de entrega Línea 1"
    }
  },
  "7_7_711": {
    "Aggregate": {
      "translation": "Vacío"
    },
    "ReportColumnName": {
      "translation": "Dirección de entrega Línea 2"
    }
  },
  "7_7_712": {
    "Aggregate": {
      "translation": "Vacío"
    },
    "ReportColumnName": {
      "translation": "Dirección de entrega Línea 3"
    }
  },
  "7_7_713": {
    "Aggregate": {
      "translation": "Vacío"
    },
    "ReportColumnName": {
      "translation": "Dirección de entrega Línea 4"
    }
  },
  "7_7_714": {
    "Aggregate": {
      "translation": "Vacío"
    },
    "ReportColumnName": {
      "translation": "Términos"
    }
  },
  "7_7_715": {
    "Aggregate": {
      "translation": "Vacío"
    },
    "ReportColumnName": {
      "translation": "Comentarios"
    }
  },
  "7_7_716": {
    "Aggregate": {
      "translation": "Vacío"
    },
    "ReportColumnName": {
      "translation": "Your Order Reference"
    }
  },
  "7_7_717": {
    "Aggregate": {
      "translation": ""
    },
    "ReportColumnName": {
      "translation": "Web Order Reference"
    }
  },
  "7_7_718": {
    "Aggregate": {
      "translation": ""
    },
    "ReportColumnName": {
      "translation": "Credited Invoice Number"
    }
  },
  "7_7_719": {
    "Aggregate": {
      "translation": ""
    },
    "ReportColumnName": {
      "translation": "Warehouse"
    }
  },
  "7_7_720": {
    "Aggregate": {
      "translation": ""
    },
    "ReportColumnName": {
      "translation": "Warehouse Name"
    }
  },
  "7_7_721": {
    "Aggregate": {
      "translation": ""
    },
    "ReportColumnName": {
      "translation": "Number of Items"
    }
  },
  "7_7_722": {
    "Aggregate": {
      "translation": ""
    },
    "ReportColumnName": {
      "translation": "Freight Charge"
    }
  },
  "7_7_723": {
    "Aggregate": {
      "translation": ""
    },
    "ReportColumnName": {
      "translation": "Other Charges"
    }
  },
  "7_7_724": {
    "Aggregate": {
      "translation": "Vacío"
    },
    "ReportColumnName": {
      "translation": "Impuesto"
    }
  },
  "7_7_725": {
    "Aggregate": {
      "translation": "Vacío"
    },
    "ReportColumnName": {
      "translation": "Total"
    }
  },
  "7_7_726": {
    "Aggregate": {
      "translation": "Vacío"
    },
    "ReportColumnName": {
      "translation": "Descuento"
    }
  },
  "7_7_727": {
    "Aggregate": {
      "translation": "Vacío"
    },
    "ReportColumnName": {
      "translation": "Número de línea de transacción"
    }
  },
  "7_7_728": {
    "Aggregate": {
      "translation": "Vacío"
    },
    "ReportColumnName": {
      "translation": "Código del artículo"
    }
  },
  "7_7_729": {
    "Aggregate": {
      "translation": "Vacío"
    },
    "ReportColumnName": {
      "translation": "Descripción del producto"
    }
  },
  "7_7_730": {
    "Aggregate": {
      "translation": "Vacío"
    },
    "ReportColumnName": {
      "translation": "Unidad de medida"
    }
  },
  "7_7_731": {
    "Aggregate": {
      "translation": "Vacío"
    },
    "ReportColumnName": {
      "translation": "Unidad de medida"
    }
  },
  "7_7_732": {
    "Aggregate": {
      "translation": "Vacío"
    },
    "ReportColumnName": {
      "translation": "Cantidad pedida"
    }
  },
  "7_7_733": {
    "Aggregate": {
      "translation": "Vacío"
    },
    "ReportColumnName": {
      "translation": "Cantidad de pedidos pendientes"
    }
  },
  "7_7_734": {
    "Aggregate": {
      "translation": "Vacío"
    },
    "ReportColumnName": {
      "translation": "Cantidad facturada"
    }
  },
  "7_7_735": {
    "Aggregate": {
      "translation": "Vacío"
    },
    "ReportColumnName": {
      "translation": "Precio unitario"
    }
  },
  "7_7_736": {
    "Aggregate": {
      "translation": "Vacío"
    },
    "ReportColumnName": {
      "translation": "Precio ampliado"
    }
  },
  "7_7_737": {
    "Aggregate": {
      "translation": "Vacío"
    },
    "ReportColumnName": {
      "translation": "Total de unidades del pedido"
    }
  },
  "7_7_738": {
    "Aggregate": {
      "translation": "Vacío"
    },
    "ReportColumnName": {
      "translation": "Marca"
    }
  },
  "7_7_739": {
    "Aggregate": {
      "translation": ""
    },
    "ReportColumnName": {
      "translation": "Pack Size"
    }
  },
  "7_7_740": {
    "Aggregate": {
      "translation": ""
    },
    "ReportColumnName": {
      "translation": "Preferred Product"
    }
  },
  "7_7_741": {
    "Aggregate": {
      "translation": ""
    },
    "ReportColumnName": {
      "translation": "Customer Product Data 1"
    }
  },
  "7_7_742": {
    "Aggregate": {
      "translation": ""
    },
    "ReportColumnName": {
      "translation": "Customer Product Data 2"
    }
  },
  "7_7_743": {
    "Aggregate": {
      "translation": ""
    },
    "ReportColumnName": {
      "translation": "Customer Product Data 3"
    }
  },
  "7_7_744": {
    "Aggregate": {
      "translation": "Vacío"
    },
    "ReportColumnName": {
      "translation": "Datos de producto del cliente 4"
    }
  },
  "7_7_745": {
    "Aggregate": {
      "translation": "Vacío"
    },
    "ReportColumnName": {
      "translation": "Número de pedido del cliente1"
    }
  },
  "7_7_746": {
    "Aggregate": {
      "translation": "Vacío"
    },
    "ReportColumnName": {
      "translation": "Número de pedido del cliente"
    }
  },
  "7_7_747": {
    "Aggregate": {
      "translation": "Vacío"
    },
    "ReportColumnName": {
      "translation": "Centro de costos del cliente"
    }
  },
  "7_7_748": {
    "Aggregate": {
      "translation": "Vacío"
    },
    "ReportColumnName": {
      "translation": "Código especial"
    }
  },
  "7_7_749": {
    "Aggregate": {
      "translation": "Vacío"
    },
    "ReportColumnName": {
      "translation": "Número de cuenta"
    }
  },
  "7_7_750": {
    "Aggregate": {
      "translation": "Vacío"
    },
    "ReportColumnName": {
      "translation": "Código de producto"
    }
  },
  "7_7_751": {
    "Aggregate": {
      "translation": "Vacío"
    },
    "ReportColumnName": {
      "translation": "Código de almacén"
    }
  },
  "7_7_752": {
    "Aggregate": {
      "translation": "Vacío"
    },
    "ReportColumnName": {
      "translation": "Subcategoría"
    }
  },
  "7_7_753": {
    "Aggregate": {
      "translation": "Vacío"
    },
    "ReportColumnName": {
      "translation": "Código de artículo del cliente"
    }
  },
  "8_8_800": {
    "Aggregate": {
      "translation": ""
    },
    "ReportColumnName": {
      "translation": "Código de cuenta"
    }
  },
  "8_8_801": {
    "Aggregate": {
      "translation": ""
    },
    "ReportColumnName": {
      "translation": "Nombre de la cuenta"
    }
  },
  "8_8_803": {
    "Aggregate": {
      "translation": ""
    },
    "ReportColumnName": {
      "translation": "Fecha"
    }
  },
  "8_8_804": {
    "Aggregate": {
      "translation": ""
    },
    "ReportColumnName": {
      "translation": "FechaCréditoInv"
    }
  },
  "8_8_805": {
    "Aggregate": {
      "translation": ""
    },
    "ReportColumnName": {
      "translation": "CategoriaVenta"
    }
  },
  "8_8_807": {
    "Aggregate": {
      "translation": ""
    },
    "ReportColumnName": {
      "translation": "LíneaProducto"
    }
  },
  "8_8_810": {
    "Aggregate": {
      "translation": ""
    },
    "ReportColumnName": {
      "translation": "Marca"
    }
  },
  "8_8_811": {
    "Aggregate": {
      "translation": ""
    },
    "ReportColumnName": {
      "translation": "Descripción"
    }
  },
  "8_8_812": {
    "Aggregate": {
      "translation": ""
    },
    "ReportColumnName": {
      "translation": "TamañoPaquete"
    }
  },
  "8_8_813": {
    "Aggregate": {
      "translation": ""
    },
    "ReportColumnName": {
      "translation": "CtnCantidad"
    }
  },
  "8_8_814": {
    "Aggregate": {
      "translation": ""
    },
    "ReportColumnName": {
      "translation": "UDM"
    }
  },
  "8_8_815": {
    "Aggregate": {
      "translation": ""
    },
    "ReportColumnName": {
      "translation": "PrecioUnitario"
    }
  },
  "8_8_816": {
    "Aggregate": {
      "translation": ""
    },
    "ReportColumnName": {
      "translation": "Preferido"
    }
  },
  "8_8_817": {
    "Aggregate": {
      "translation": ""
    },
    "ReportColumnName": {
      "translation": "CustCode1"
    }
  },
  "8_8_818": {
    "Aggregate": {
      "translation": ""
    },
    "ReportColumnName": {
      "translation": "CustCode2"
    }
  },
  "8_8_819": {
    "Aggregate": {
      "translation": ""
    },
    "ReportColumnName": {
      "translation": "CustCode3"
    }
  },
  "8_8_820": {
    "Aggregate": {
      "translation": ""
    },
    "ReportColumnName": {
      "translation": "CustCode4"
    }
  },
  "8_8_821": {
    "Aggregate": {
      "translation": ""
    },
    "ReportColumnName": {
      "translation": "CódigoProducto"
    }
  },
  "8_8_822": {
    "Aggregate": {
      "translation": "sum"
    },
    "ReportColumnName": {
      "translation": "Cantidad"
    }
  },
  "8_8_823": {
    "Aggregate": {
      "translation": "sum"
    },
    "ReportColumnName": {
      "translation": "Impuesto"
    }
  },
  "8_8_824": {
    "Aggregate": {
      "translation": "sum"
    },
    "ReportColumnName": {
      "translation": "Precio ext"
    }
  },
  "8_8_825": {
    "Aggregate": {
      "translation": ""
    },
    "ReportColumnName": {
      "translation": "CustomerItemCode"
    }
  },
  "9_9_901": {
    "Aggregate": {
      "translation": ""
    },
    "ReportColumnName": {
      "translation": "Código de cuenta"
    }
  },
  "9_9_902": {
    "Aggregate": {
      "translation": ""
    },
    "ReportColumnName": {
      "translation": "Nombre de la cuenta"
    }
  },
  "9_9_904": {
    "Aggregate": {
      "translation": ""
    },
    "ReportColumnName": {
      "translation": "CodigoAlmacen"
    }
  },
  "9_9_905": {
    "Aggregate": {
      "translation": ""
    },
    "ReportColumnName": {
      "translation": "NombreAlmacen"
    }
  },
  "9_9_907": {
    "Aggregate": {
      "translation": ""
    },
    "ReportColumnName": {
      "translation": "CódigoProducto"
    }
  },
  "9_9_908": {
    "Aggregate": {
      "translation": ""
    },
    "ReportColumnName": {
      "translation": "DescripciónProducto"
    }
  },
  "9_9_909": {
    "Aggregate": {
      "translation": ""
    },
    "ReportColumnName": {
      "translation": "TamañoPaquete"
    }
  },
  "9_9_910": {
    "Aggregate": {
      "translation": ""
    },
    "ReportColumnName": {
      "translation": "LíneaProducto"
    }
  },
  "9_9_912": {
    "Aggregate": {
      "translation": ""
    },
    "ReportColumnName": {
      "translation": "Marca"
    }
  },
  "9_9_914": {
    "Aggregate": {
      "translation": ""
    },
    "ReportColumnName": {
      "translation": "UnidadUDM"
    }
  },
  "9_9_915": {
    "Aggregate": {
      "translation": ""
    },
    "ReportColumnName": {
      "translation": "CtnUDM"
    }
  },
  "9_9_916": {
    "Aggregate": {
      "translation": ""
    },
    "ReportColumnName": {
      "translation": "PrecioUnitario"
    }
  },
  "9_9_917": {
    "Aggregate": {
      "translation": ""
    },
    "ReportColumnName": {
      "translation": "CtnPrice"
    }
  },
  "9_9_918": {
    "Aggregate": {
      "translation": ""
    },
    "ReportColumnName": {
      "translation": "CtnCantidad"
    }
  },
  "9_9_919": {
    "Aggregate": {
      "translation": ""
    },
    "ReportColumnName": {
      "translation": "CantidadEnMano"
    }
  },
  "9_9_920": {
    "Aggregate": {
      "translation": ""
    },
    "ReportColumnName": {
      "translation": "Vendedor"
    }
  },
  "9_9_921": {
    "Aggregate": {
      "translation": ""
    },
    "ReportColumnName": {
      "translation": "TasaImpuesto"
    }
  },
  "9_9_922": {
    "Aggregate": {
      "translation": ""
    },
    "ReportColumnName": {
      "translation": "Preferido"
    }
  },
  "9_9_923": {
    "Aggregate": {
      "translation": ""
    },
    "ReportColumnName": {
      "translation": "CustomerItemCode"
    }
  }
}