{
  "10001_10001_10": {
    "translation": "Group/Menu Name",
    "limit": 4000,
    "context": "Group/Menu Name"
  },
  "10002_10002_10": {
    "translation": "Menu Name",
    "limit": 4000,
    "context": "Menu Name"
  },
  "1001_1001_1": {
    "translation": "Percentage",
    "limit": 4000,
    "context": "Percentage"
  },
  "1002_1002_1": {
    "translation": "Factor",
    "limit": 4000,
    "context": "Factor"
  },
  "11001_11001_11": {
    "translation": "Default",
    "limit": 4000,
    "context": "Default"
  },
  "11002_11002_11": {
    "translation": "Category/Product Description",
    "limit": 4000,
    "context": "Category/Product Description"
  },
  "11003_11003_11": {
    "translation": "Product Description",
    "limit": 4000,
    "context": "Product Description"
  },
  "11004_11004_11": {
    "translation": "Category/Line/Product Description",
    "limit": 4000,
    "context": "Category/Line/Product Description"
  },
  "11005_11005_11": {
    "translation": "Line/Product Description",
    "limit": 4000,
    "context": "Line/Product Description"
  },
  "11006_11006_11": {
    "translation": "Manual/Product Description",
    "limit": 4000,
    "context": "Manual/Product Description"
  },
  "11007_11007_11": {
    "translation": "Product Code",
    "limit": 4000,
    "context": "Product Code"
  },
  "12001_12001_12": {
    "translation": "Data Incomplete",
    "limit": 4000,
    "context": "Data Incomplete"
  },
  "12002_12002_12": {
    "translation": "Contains",
    "limit": 4000,
    "context": "Contains"
  },
  "12003_12003_12": {
    "translation": "May Contain",
    "limit": 4000,
    "context": "May Contain"
  },
  "12004_12004_12": {
    "translation": "Does NOT Contain",
    "limit": 4000,
    "context": "Does NOT Contain"
  },
  "3001_3001_3": {
    "translation": "Category/Line/Product Description",
    "limit": 4000,
    "context": "Category/Line/Product Description"
  },
  "3002_3002_3": {
    "translation": "Category/Product Description",
    "limit": 4000,
    "context": "Category/Product Description"
  },
  "3003_3003_3": {
    "translation": "Line/Product Description",
    "limit": 4000,
    "context": "Line/Product Description"
  },
  "3004_3004_3": {
    "translation": "Manual/Product Description",
    "limit": 4000,
    "context": "Manual/Product Description"
  },
  "3005_3005_3": {
    "translation": "Product Code",
    "limit": 4000,
    "context": "Product Code"
  },
  "3006_3006_3": {
    "translation": "Product Description",
    "limit": 4000,
    "context": "Product Description"
  },
  "4002_4002_4": {
    "translation": "Grams",
    "limit": 4000,
    "context": "Grams"
  },
  "4003_4003_4": {
    "translation": "Millilitres",
    "limit": 4000,
    "context": "Millilitres"
  },
  "4004_4004_4": {
    "translation": "Pieces",
    "limit": 4000,
    "context": "Pieces"
  },
  "5001_5001_5": {
    "translation": "Category/Recipe Name",
    "limit": 4000,
    "context": "Category/Recipe Name"
  },
  "5002_5002_5": {
    "translation": "Category/Group/Recipe Name",
    "limit": 4000,
    "context": "Category/Group/Recipe Name"
  },
  "5003_5003_5": {
    "translation": "Recipe Name",
    "limit": 4000,
    "context": "Recipe Name"
  },
  "5004_5004_5": {
    "translation": "Manual/Recipe Name",
    "limit": 4000,
    "context": "Manual/Recipe Name"
  },
  "6001_6001_6": {
    "translation": "Product description",
    "limit": 4000,
    "context": "Product description"
  },
  "7001_7001_7": {
    "translation": "Category/Recipe Name",
    "limit": 4000,
    "context": "Category/Recipe Name"
  },
  "7002_7002_7": {
    "translation": "Recipe Name",
    "limit": 4000,
    "context": "Recipe Name"
  },
  "7003_7003_7": {
    "translation": "Manual/Recipe Name",
    "limit": 4000,
    "context": "Manual/Recipe Name"
  },
  "8001_8001_8": {
    "translation": "Name",
    "limit": 4000,
    "context": "Name"
  },
  "8002_8002_8": {
    "translation": "Type",
    "limit": 4000,
    "context": "Type"
  },
  "9001_9001_9": {
    "translation": "Category/Line/Product Description",
    "limit": 4000,
    "context": "Category/Line/Product Description"
  },
  "9002_9002_9": {
    "translation": "Category/Product Description",
    "limit": 4000,
    "context": "Category/Product Description"
  },
  "9003_9003_9": {
    "translation": "Line/Product Description",
    "limit": 4000,
    "context": "Line/Product Description"
  },
  "9004_9004_9": {
    "translation": "Product Code",
    "limit": 4000,
    "context": "Product Code"
  },
  "9005_9005_9": {
    "translation": "Product Description",
    "limit": 4000,
    "context": "Product Description"
  }
}