{
  "1": {
    "translation": "Value",
    "limit": 50,
    "context": "Value"
  },
  "2": {
    "translation": "Volume",
    "limit": 50,
    "context": "Volume"
  },
  "3": {
    "translation": "Frequency",
    "limit": 50,
    "context": "Frequency"
  }
}