{
  "1": {
    "translation": "Diariamente",
    "limit": 36,
    "context": "Daily"
  },
  "2": {
    "translation": "Semanalmente",
    "limit": 36,
    "context": "Weekly"
  },
  "3": {
    "translation": "Quinzenalmente",
    "limit": 36,
    "context": "Fortnightly"
  },
  "4": {
    "translation": "Mensalmente",
    "limit": 36,
    "context": "Monthly"
  }
}