{
  "1": {
    "translation": "Quotidien",
    "limit": 36,
    "context": "Daily"
  },
  "2": {
    "translation": "Hebdomadaire",
    "limit": 36,
    "context": "Weekly"
  },
  "3": {
    "translation": "Tous les deux jours",
    "limit": 36,
    "context": "Fortnightly"
  },
  "4": {
    "translation": "Mensuel",
    "limit": 36,
    "context": "Monthly"
  }
}