{
  "1": {
    "translation": "Último día de cada mes",
    "limit": 50,
    "context": "Last Day Of Every Month"
  },
  "2": {
    "translation": "Primer día de cada mes",
    "limit": 50,
    "context": "First Day Of Every Month"
  },
  "3": {
    "translation": "El mismo día cada mes desde la fecha de inicio",
    "limit": 50,
    "context": "Same Day Each Month As Start Date"
  }
}