{
  "1": {
    "translation": "آخر يوم من كل شهر",
    "limit": 50,
    "context": "Last Day Of Every Month"
  },
  "2": {
    "translation": "أول يوم من كل شهر",
    "limit": 50,
    "context": "First Day Of Every Month"
  },
  "3": {
    "translation": "نفس اليوم من كل شهر كتاريخ البدء",
    "limit": 50,
    "context": "Same Day Each Month As Start Date"
  }
}