{
  "1": {
    "translation": "Tarjeta de crédito",
    "limit": 100,
    "context": "Credit Card"
  },
  "2": {
    "translation": "Débito directo",
    "limit": 100,
    "context": "Direct Debit"
  }
}