{
  "1_1": {
    "Label": {
      "translation": "Energy (kj)",
      "limit": 500,
      "context": "Energy (kj)"
    },
    "Unit": {
      "translation": "kj",
      "limit": 10,
      "context": "kj"
    }
  },
  "28_10": {
    "Label": {
      "translation": "Dietary Fibre, Total",
      "limit": 500,
      "context": "Dietary Fibre, Total"
    },
    "Unit": {
      "translation": "g",
      "limit": 10,
      "context": "g"
    }
  },
  "2_2": {
    "Label": {
      "translation": "Energy (kcal)",
      "limit": 500,
      "context": "Energy (kcal)"
    },
    "Unit": {
      "translation": "kcal",
      "limit": 10,
      "context": "kcal"
    }
  },
  "3_3": {
    "Label": {
      "translation": "Protein",
      "limit": 500,
      "context": "Protein"
    },
    "Unit": {
      "translation": "g",
      "limit": 10,
      "context": "g"
    }
  },
  "4_4": {
    "Label": {
      "translation": "Fat Total",
      "limit": 500,
      "context": "Fat Total"
    },
    "Unit": {
      "translation": "g",
      "limit": 10,
      "context": "g"
    }
  },
  "5_5": {
    "Label": {
      "translation": "Fat - Saturated",
      "limit": 500,
      "context": "Fat - Saturated"
    },
    "Unit": {
      "translation": "g",
      "limit": 10,
      "context": "g"
    }
  },
  "5_5_fsuk": {
    "Label": {
      "translation": "Saturates",
      "limit": 500,
      "context": "Fat - Saturated"
    },
    "Unit": {
      "translation": "g",
      "limit": 10,
      "context": "g"
    }
  },
  "6_6": {
    "Label": {
      "translation": "Carbohydrate",
      "limit": 500,
      "context": "Carbohydrate"
    },
    "Unit": {
      "translation": "g",
      "limit": 10,
      "context": "g"
    }
  },
  "7_7": {
    "Label": {
      "translation": "Carbohydrate - Sugars",
      "limit": 500,
      "context": "Carbohydrate - Sugars"
    },
    "Unit": {
      "translation": "g",
      "limit": 10,
      "context": "g"
    }
  },
  "8_8": {
    "Label": {
      "translation": "Salt",
      "limit": 500,
      "context": "Salt"
    },
    "Unit": {
      "translation": "g",
      "limit": 10,
      "context": "g"
    }
  },
  "9_9": {
    "Label": {
      "translation": "Sodium",
      "limit": 500,
      "context": "Sodium"
    },
    "Unit": {
      "translation": "mg",
      "limit": 10,
      "context": "mg"
    }
  }
}