{
  "CSV": {
    "translation": "CSV",
    "limit": 20,
    "context": "CSV"
  },
  "X": {
    "translation": "XLSX",
    "limit": 20,
    "context": "XLSX (Excel)"
  },
  "tab": {
    "translation": "Tab",
    "limit": 20,
    "context": "Tab"
  },
  "|": {
    "translation": "Pipe",
    "limit": 20,
    "context": "Pipe"
  }
}