{
  "CSV": {
    "translation": "csv",
    "limit": 20,
    "context": "CSV"
  },
  "X": {
    "translation": "xlsx (Excel)",
    "limit": 20,
    "context": "XLSX (Excel)"
  },
  "tab": {
    "translation": "Tab",
    "limit": 20,
    "context": "Tab"
  },
  "|": {
    "translation": "Séparateur \"pipe\"",
    "limit": 20,
    "context": "Pipe"
  }
}