{
  "CSV": {
    "translation": "CSV",
    "limit": 20,
    "context": "CSV"
  },
  "X": {
    "translation": "XLSX (Excel)",
    "limit": 20,
    "context": "XLSX (Excel)"
  },
  "tab": {
    "translation": "Pestana",
    "limit": 20,
    "context": "Tab"
  },
  "|": {
    "translation": "Tubo",
    "limit": 20,
    "context": "Pipe"
  }
}