{
  "C": {
    "translation": "Condensado",
    "limit": 50,
    "context": "Condensed"
  },
  "G": {
    "translation": "Grelha",
    "limit": 50,
    "context": "Grid"
  },
  "L": {
    "translation": "Lista",
    "limit": 50,
    "context": "List"
  }
}