{
  "C": {
    "translation": "精简的",
    "limit": 50,
    "context": "Condensed"
  },
  "G": {
    "translation": "格子",
    "limit": 50,
    "context": "Grid"
  },
  "L": {
    "translation": "清单",
    "limit": 50,
    "context": "List"
  }
}