{
  "C": {
    "translation": "Condensed",
    "limit": 50,
    "context": "Condensed"
  },
  "G": {
    "translation": "Grid",
    "limit": 50,
    "context": "Grid"
  },
  "L": {
    "translation": "List",
    "limit": 50,
    "context": "List"
  }
}