{
  "1": {
    "translation": "Successful",
    "limit": 100,
    "context": "Successful"
  },
  "2": {
    "translation": "Failed",
    "limit": 100,
    "context": "Failed"
  },
  "3": {
    "translation": "Unprocessed",
    "limit": 100,
    "context": "Unprocessed"
  },
  "4": {
    "translation": "Unknown",
    "limit": 100,
    "context": "Unknown"
  },
  "5": {
    "translation": "Cancelled",
    "limit": 100,
    "context": "Cancelled"
  }
}