{
  "A": {
    "translation": "Awaiting Processing",
    "limit": 50,
    "context": "Awaiting Processing"
  },
  "A_fsuk": {
    "translation": "Not Sent",
    "limit": 50,
    "context": "Awaiting Processing"
  },
  "A_nz": {
    "translation": "Pending",
    "limit": 50,
    "context": "Awaiting Processing"
  },
  "A_pp": {
    "translation": "Not Sent",
    "limit": 50,
    "context": "Awaiting Processing"
  },
  "A_waltons": {
    "translation": "Not Sent",
    "limit": 50,
    "context": "Awaiting Processing"
  },
  "A_za": {
    "translation": "Not Sent",
    "limit": 50,
    "context": "Awaiting Processing"
  },
  "B": {
    "translation": "Backorder",
    "limit": 50,
    "context": "Backorder"
  },
  "C": {
    "translation": "Cancelled",
    "limit": 50,
    "context": "Cancelled"
  },
  "D": {
    "translation": "Despatched",
    "limit": 50,
    "context": "Dispatched"
  },
  "D_aiv": {
    "translation": "Dispatched",
    "limit": 50,
    "context": "Dispatched"
  },
  "D_au": {
    "translation": "Dispatched",
    "limit": 50,
    "context": "Dispatched"
  },
  "D_cfg": {
    "translation": "Open Order",
    "limit": 50,
    "context": "Dispatched"
  },
  "E": {
    "translation": "Despatch",
    "limit": 50,
    "context": "Despatch"
  },
  "F": {
    "translation": "Forward Order",
    "limit": 50,
    "context": "Forward Order"
  },
  "F_za": {
    "translation": "Proof of Delivery",
    "limit": 50,
    "context": "Forward Order"
  },
  "G": {
    "translation": "In Progress",
    "limit": 50,
    "context": "In Progress"
  },
  "H": {
    "translation": "On Hold",
    "limit": 50,
    "context": "On Hold"
  },
  "H_angliss": {
    "translation": "Credit Limit",
    "limit": 50,
    "context": "On Hold"
  },
  "I": {
    "translation": "Invoiced",
    "limit": 50,
    "context": "Invoiced"
  },
  "I_cfg": {
    "translation": "In Progress",
    "limit": 50,
    "context": "In Progress"
  },
  "J": {
    "translation": "Processing",
    "limit": 50,
    "context": "Processing"
  },
  "L": {
    "translation": "Picklist",
    "limit": 50,
    "context": "Picklist"
  },
  "L_pp": {
    "translation": "Processing",
    "limit": 50,
    "context": "Processing"
  },
  "M": {
    "translation": "Picklist (WMS)",
    "limit": 50,
    "context": "Picklist (WMS)"
  },
  "M_angliss": {
    "translation": "Completed & Invoiced",
    "limit": 50,
    "context": "Completed & Invoiced"
  },
  "M_cfg": {
    "translation": "Complete",
    "limit": 50,
    "context": "Complete"
  },
  "N": {
    "translation": "In transit",
    "limit": 50,
    "context": "In transit"
  },
  "O": {
    "translation": "Email Order",
    "limit": 50,
    "context": "Email Order"
  },
  "P": {
    "translation": "Sent",
    "limit": 50,
    "context": "Sent"
  },
  "P_aiv": {
    "translation": "Processed",
    "limit": 50,
    "context": "Processed"
  },
  "P_au": {
    "translation": "Processed",
    "limit": 50,
    "context": "Processed"
  },
  "P_cfg": {
    "translation": "Processed",
    "limit": 50,
    "context": "Processed"
  },
  "P_fsuk": {
    "translation": "Submitted",
    "limit": 50,
    "context": "Submitted"
  },
  "Q": {
    "translation": "Quote",
    "limit": 50,
    "context": "Quote"
  },
  "R": {
    "translation": "Ready to Invoice",
    "limit": 50,
    "context": "Ready to Invoice"
  },
  "R_za": {
    "translation": "ReDelivery",
    "limit": 50,
    "context": "ReDelivery"
  },
  "S": {
    "translation": "Suspense",
    "limit": 50,
    "context": "Suspense"
  },
  "T": {
    "translation": "Under Review",
    "limit": 50,
    "context": "Under Review"
  },
  "U": {
    "translation": "Unrecognised Status",
    "limit": 50,
    "context": "Unrecognised Status"
  },
  "V": {
    "translation": "Invalid",
    "limit": 50,
    "context": "Invalid"
  },
  "W": {
    "translation": "Wait Pick",
    "limit": 50,
    "context": "Wait Pick"
  },
  "W_angliss": {
    "translation": "Order Released",
    "limit": 50,
    "context": "Order Released"
  },
  "W_cfg": {
    "translation": "In Warehouse",
    "limit": 50,
    "context": "In Warehouse"
  },
  "X": {
    "translation": "Line Cancelled",
    "limit": 50,
    "context": "Line Cancelled"
  }
}