{
  "1": {
    "translation": "Pending",
    "limit": 255,
    "context": "Pending"
  },
  "2": {
    "translation": "Processed",
    "limit": 255,
    "context": "Processed"
  },
  "3": {
    "translation": "Cancelled",
    "limit": 255,
    "context": "Cancelled"
  }
}