{
  "1": {
    "translation": "Pendiente",
    "limit": 255,
    "context": "Pending"
  },
  "2": {
    "translation": "Procesado",
    "limit": 255,
    "context": "Processed"
  },
  "3": {
    "translation": "Cancelado",
    "limit": 255,
    "context": "Cancelled"
  }
}