{
  "BIS_EMAIL_SUBJECT": "Puiki naujiena! Produktai, kurių ieškojote, vėl yra sandėlyje {{WarehouseName}}",
  "BIS_EMAIL_TEMPLATE_BUTTON_TEXT": "Peržiūrėti",
  "BIS_EMAIL_TEMPLATE_DISCLAIMER": "Atsisakymas: šio pranešimo užklausa buvo pateikta {{SiteUrl}} . Šio el. laiško išsiuntimo metu pirmiau minėti produktai buvo sandėlyje. {{SiteUrl}} negalime garantuoti prieinamumo arba rezervuoti atsargų, kol nebus pateiktas užsakymas.",
  "BIS_EMAIL_TEMPLATE_WAREHOUSE": "Šie produktai dabar vėl yra sandėlyje su {{Warehouse}}. Spustelėkite, kad peržiūrėtumėte produktą {{SiteUrl}}",
  "OCE_BACK_ORDER_QTY": "Išankstinio užsakymo kiekis",
  "OCE_COMMENT": "Pastaba",
  "OCE_CONFIRMED": "Patvirtinta",
  "OCE_CONFIRMED_PRICE": "Patvirtinta kaina",
  "OCE_CONFIRMED_QTY": "Patvirtintas kiekis",
  "OCE_CUSTOMER_CODE": "Kliento kodas:",
  "OCE_CUSTOMER_NAME": "Kliento pavadinimas",
  "OCE_CUS_REF": "Jūsų užsakymo Nuoroda:",
  "OCE_DELIVERY_ADDRESS": "Pristatymo adresas:",
  "OCE_DELIVERY_DATE": "Pristatymo data:",
  "OCE_DELIVERY_DATE_CHANGE_TEXT": "Jūsų pristatymo data pakeista iš {{originalDate}} į {{deliveryDate}}",
  "OCE_DELIVERY_DATE_TO_LABEL": "į",
  "OCE_DESCRIPTION": "Pavadinimas",
  "OCE_EMAIL_SUBJECT": "{{warehouseName}} Užsakymo internetu patvirtinimas {{webRef}} {{cusRef}} {{#hasChanges}}su pakeitimais{{/hasChanges}}{{{^hasChanges}}be pakeitimų{{{/hasChanges}}",
  "OCE_ENTIRE_QTY_ON_BRACK_ORDER": "Visas kiekis laukiamas iš tiekėjo",
  "OCE_HELLO_TEXT": "Gerb. {{firstName}}",
  "OCE_LINE_ADDED": "Pridėta eilutė",
  "OCE_LINE_REMOVED": "Pašalinta eilutė",
  "OCE_ORDERED": "Užsakyta",
  "OCE_ORDER_DATE": "Užsakymo data:",
  "OCE_ORDER_NUM": "Užsakymo Nr.:",
  "OCE_ORDER_PRICE": "Kaina ",
  "OCE_ORDER_QTY": "Užsakymo kiekis",
  "OCE_ORDER_STATUS": "Užsakymo būsena:",
  "OCE_ORIGINAL_DELIVERY_DATE_LABEL": "Jūsų pristatymo data pakeista iš",
  "OCE_OUT_OF_STOCK": "Išparduota",
  "OCE_PACK_SIZE": "Pakuotės dydis",
  "OCE_PRELIMINARY_TEXT": "Žemiau rasite patvirtintus užsakymo duomenis",
  "OCE_PRICE_HEADER": "Kaina",
  "OCE_PRICE_MODIFIED": "Pakeista kaina",
  "OCE_PRODUCT_CODE": "Prekės kodas",
  "OCE_PRODUCT_DESC_UOM_HEADER": "Produktas [Pakuotės dydis/UOM]",
  "OCE_QTY_DECREASED": "Kiekis sumažėjo",
  "OCE_QTY_HEADER": "Kiekis",
  "OCE_QTY_INCREASED": "Padidėjęs kiekis",
  "OCE_REPLACED_FOR_PRODUCTCODE": "Pateiktas produktas yra prekės pakaitalas",
  "OCE_SOME_QTY_ON_BRACK_ORDER": "Tam tikras kiekis laukiamas iš tiekėjo",
  "OCE_SUBTOTAL": "Suma (be PVM)",
  "OCE_SUBTOTAL_HEADER": "Suma (be PVM)",
  "OCE_SURVEY_LINK": "Apklausos nuoroda",
  "OCE_TOTAL": "Viso",
  "OCE_UOM": "Mato vnt.",
  "OCE_VAT": "PVM:",
  "OCE_WEB_REF": "Užsakymo nuoroda:"
}