{
  "-9999": {
    "translation": "NÃO APAGAR OU MODIFICAR - erro temporário do Lokalise",
    "limit": 100,
    "context": "DO NOT DELETE OR MODIFY - temporary Lokalise bug fix"
  },
  "0": {
    "translation": "Piking em espera",
    "limit": 50,
    "context": "Waiting Picking"
  },
  "0_angliss": {
    "translation": "*",
    "limit": 50,
    "context": "Order Released"
  },
  "0_br": {
    "translation": "Pendente",
    "limit": 50,
    "context": "Pending"
  },
  "0_cfg": {
    "translation": "*",
    "limit": 50,
    "context": "In Process"
  },
  "0_dxl": {
    "translation": "*",
    "limit": 50,
    "context": "Awaiting Pick"
  },
  "0_ffh": {
    "translation": "*",
    "limit": 50,
    "context": "Awaiting Pick"
  },
  "0_fsuk": {
    "translation": "Escolha de espera",
    "limit": 50,
    "context": "Waitpick"
  },
  "0_hrc": {
    "translation": "*",
    "limit": 50,
    "context": "Awaiting Pick"
  },
  "0_ib": {
    "translation": "*",
    "limit": 50,
    "context": "No status"
  },
  "0_lv": {
    "translation": "*",
    "limit": 50,
    "context": "Processed"
  },
  "0_nz": {
    "translation": "Escolha de espera",
    "limit": 50,
    "context": "WaitPick"
  },
  "0_pt": {
    "translation": "Encomenda validada",
    "limit": 50,
    "context": "Waitpick"
  },
  "0_urb": {
    "translation": "Waitpick",
    "limit": 50,
    "context": "Waitpick"
  },
  "1": {
    "translation": "No Picking",
    "limit": 50,
    "context": "In Picking"
  },
  "10": {
    "translation": "Pedido não impresso",
    "limit": 50,
    "context": "Order Unprinted"
  },
  "100_cim": {
    "translation": "Failed",
    "limit": 50,
    "context": "Failed"
  },
  "100_eli": {
    "translation": "Failed",
    "limit": 50,
    "context": "Failed"
  },
  "10_angliss": {
    "translation": "Rejeitado",
    "limit": 50,
    "context": "Rejected"
  },
  "10_cfg": {
    "translation": "Pedido de encaminhamento",
    "limit": 50,
    "context": "Forward order"
  },
  "10_cp": {
    "translation": "Pedido de encaminhamento",
    "limit": 50,
    "context": "Forward order"
  },
  "10_nz": {
    "translation": "Picklist (MP)",
    "limit": 50,
    "context": "Picklist (MP)"
  },
  "10_pp": {
    "translation": "Vazio",
    "limit": 50,
    "context": "Void"
  },
  "10_sg": {
    "translation": "Invoiced",
    "limit": 50,
    "context": "Invoiced"
  },
  "11_cfd": {
    "translation": "Confirmed",
    "limit": 50,
    "context": "Sent"
  },
  "11_cfg": {
    "translation": "Suspense",
    "limit": 50,
    "context": "Suspense"
  },
  "11_cim": {
    "translation": "Enviado",
    "limit": 50,
    "context": "Sent"
  },
  "11_cp": {
    "translation": "Suspense",
    "limit": 50,
    "context": "Suspense"
  },
  "11_eli": {
    "translation": "Enviado",
    "limit": 50,
    "context": "Sent"
  },
  "11_pp": {
    "translation": "Cancelado",
    "limit": 50,
    "context": "Cancelled"
  },
  "11_sg": {
    "translation": "Under Review",
    "limit": 50,
    "context": "Under Review"
  },
  "15_cfd": {
    "translation": "Waitpick",
    "limit": 50,
    "context": "Waitpick"
  },
  "15_cim": {
    "translation": "Escolha de espera",
    "limit": 50,
    "context": "Waitpick"
  },
  "15_eli": {
    "translation": "Picar o ponto",
    "limit": 50,
    "context": "Waitpick"
  },
  "18_hk": {
    "translation": "Em curso",
    "limit": 50,
    "context": "In Progress"
  },
  "18_ksa": {
    "translation": "Em curso",
    "limit": 50,
    "context": "In Progress"
  },
  "1_angliss": {
    "translation": "Picking",
    "limit": 50,
    "context": "Picking"
  },
  "1_bme": {
    "translation": "Aguardando Processamento",
    "limit": 50,
    "context": "Awaiting Processing"
  },
  "1_br": {
    "translation": "Libertado",
    "limit": 50,
    "context": "Released"
  },
  "1_bs": {
    "translation": "No picking",
    "limit": 50,
    "context": "In  Picking"
  },
  "1_cfg": {
    "translation": "Ordem aberta",
    "limit": 50,
    "context": "Open order"
  },
  "1_cp": {
    "translation": "Em processo",
    "limit": 50,
    "context": "In process"
  },
  "1_dxl": {
    "translation": "Picklist",
    "limit": 50,
    "context": "Picklist"
  },
  "1_ffh": {
    "translation": "Picklist",
    "limit": 50,
    "context": "Picklist"
  },
  "1_hrc": {
    "translation": "Picklist",
    "limit": 50,
    "context": "Picklist"
  },
  "1_ib": {
    "translation": "Pendente para processar",
    "limit": 50,
    "context": "Pending to process"
  },
  "1_luk": {
    "translation": "Pedido aceite",
    "limit": 50,
    "context": "Order Accepted"
  },
  "1_nz": {
    "translation": "Picklist",
    "limit": 50,
    "context": "Picklist"
  },
  "1_pp": {
    "translation": "Abrir",
    "limit": 50,
    "context": "Open"
  },
  "1_pt": {
    "translation": "Encomenda rececionada",
    "limit": 50,
    "context": "Picklist"
  },
  "1_sg": {
    "translation": "Under Review",
    "limit": 50,
    "context": "Under Review"
  },
  "1_st": {
    "translation": "Recebido",
    "limit": 50,
    "context": "Received"
  },
  "2": {
    "translation": "Encomenda pendente",
    "limit": 50,
    "context": "Part Shipped"
  },
  "11": {
    "translation": "Pedido pendente",
    "limit": 50,
    "context": "Order Pending"
  },
  "12": {
    "translation": "Aguardando aprovação do devedor",
    "limit": 50,
    "context": "Awaiting Debtor Approval"
  },
  "13": {
    "translation": "Anulado",
    "limit": 50,
    "context": "Voided"
  },
  "14": {
    "translation": "Picking Ticket",
    "limit": 50,
    "context": "Picking Ticket"
  },
  "15": {
    "translation": "Picking Ticket via Devedores",
    "limit": 50,
    "context": "Picking Ticket via Debtors"
  },
  "16": {
    "translation": "Facturado",
    "limit": 50,
    "context": "Invoiced"
  },
  "17": {
    "translation": "Caminhão",
    "limit": 50,
    "context": "Truck"
  },
  "18": {
    "translation": "Encomenda rececionada",
    "limit": 50,
    "context": "POD"
  },
  "19": {
    "translation": "POD Excelente",
    "limit": 50,
    "context": "POD Outstanding"
  },
  "20": {
    "translation": "Reentrega",
    "limit": 50,
    "context": "ReDelivery"
  },
  "21": {
    "translation": "POD digitalizado",
    "limit": 50,
    "context": "POD Scanned"
  },
  "22": {
    "translation": "Crédito total aprovado",
    "limit": 50,
    "context": "Full Credit Passed"
  },
  "23": {
    "translation": "Parcialmente no caminhão",
    "limit": 50,
    "context": "Partially on Truck"
  },
  "24": {
    "translation": "POD parcial",
    "limit": 50,
    "context": "Partial POD"
  },
  "25": {
    "translation": "POD parcial excelente",
    "limit": 50,
    "context": "Partial POD Outstanding"
  },
  "27": {
    "translation": "Parcialmente Faturado",
    "limit": 50,
    "context": "Partially Invoiced"
  },
  "28": {
    "translation": "Crédito parcial",
    "limit": 50,
    "context": "Partial Credit"
  },
  "2_angliss": {
    "translation": "Escolher, enviar e faturar",
    "limit": 50,
    "context": "Pick & Ship & Invoiced"
  },
  "2_bme": {
    "translation": "Em curso",
    "limit": 50,
    "context": "In progress"
  },
  "2_br": {
    "translation": "Bloqueado",
    "limit": 50,
    "context": "Locked"
  },
  "2_cfg": {
    "translation": "Pedido em espera aberto",
    "limit": 50,
    "context": "Open backorder"
  },
  "2_cp": {
    "translation": "Ordem aberta",
    "limit": 50,
    "context": "Open order"
  },
  "2_dxl": {
    "translation": "Enviado",
    "limit": 50,
    "context": "Despatched"
  },
  "2_fsuk": {
    "translation": "Picklist/InPicking",
    "limit": 50,
    "context": "Picklist/InPicking"
  },
  "2_hrc": {
    "translation": "Enviado",
    "limit": 50,
    "context": "Despatched"
  },
  "2_ib": {
    "translation": "Enviado para armazém",
    "limit": 50,
    "context": "Sent to warehous"
  },
  "2_luk": {
    "translation": "Pedido aceito com modificações",
    "limit": 50,
    "context": "Order Accepted with modifications"
  },
  "2_nz": {
    "translation": "Enviado",
    "limit": 50,
    "context": "Despatched"
  },
  "2_pp": {
    "translation": "Suspense",
    "limit": 50,
    "context": "Suspense"
  },
  "2_pt": {
    "translation": "Em preparação",
    "limit": 50,
    "context": "In progress"
  },
  "2_sg": {
    "translation": "Released",
    "limit": 50,
    "context": "Released"
  },
  "2_st": {
    "translation": "Em curso",
    "limit": 50,
    "context": "In progress"
  },
  "2_urb": {
    "translation": "Picklist/InPicking",
    "limit": 50,
    "context": "Picklist/InPicking"
  },
  "3": {
    "translation": "Encomenda anulada",
    "limit": 50,
    "context": "Complete"
  },
  "3_angliss": {
    "translation": "Facturado",
    "limit": 50,
    "context": "Invoiced"
  },
  "3_bme": {
    "translation": "Processado",
    "limit": 50,
    "context": "Processed"
  },
  "3_br": {
    "translation": "Cancelado",
    "limit": 50,
    "context": "Locked"
  },
  "3_cfg": {
    "translation": "Pedido em espera aberto",
    "limit": 50,
    "context": "Open backorder"
  },
  "3_cp": {
    "translation": "Pedido em espera aberto",
    "limit": 50,
    "context": "Open backorder"
  },
  "3_dxl": {
    "translation": "Facturado",
    "limit": 50,
    "context": "Invoiced"
  },
  "3_ffh": {
    "translation": "Facturado",
    "limit": 50,
    "context": "Invoiced"
  },
  "3_gfox": {
    "translation": "Faturado",
    "limit": 50,
    "context": "Invoiced"
  },
  "3_hk": {
    "translation": "Cancelado",
    "limit": 50,
    "context": "Cancelled"
  },
  "3_hrc": {
    "translation": "Facturado",
    "limit": 50,
    "context": "Invoiced"
  },
  "3_ib": {
    "translation": "Em preparação",
    "limit": 50,
    "context": "In preparation"
  },
  "3_ksa": {
    "translation": "Cancelado",
    "limit": 50,
    "context": "Cancelled"
  },
  "3_luk": {
    "translation": "Encomenda não aceite ie. Cancelado",
    "limit": 50,
    "context": "Order Not Accepted ie. Cancelled"
  },
  "3_nz": {
    "translation": "Facturado",
    "limit": 50,
    "context": "Invoiced"
  },
  "3_pp": {
    "translation": "Facturado",
    "limit": 50,
    "context": "Invoiced"
  },
  "3_st": {
    "translation": "Em trânsito",
    "limit": 50,
    "context": "In transit"
  },
  "3_waltons": {
    "translation": "Facturado",
    "limit": 50,
    "context": "Invoiced"
  },
  "4": {
    "translation": "Em distribuição",
    "limit": 50,
    "context": "OnHold"
  },
  "4_angliss": {
    "translation": "Limite de crédito",
    "limit": 50,
    "context": "Credit Limit"
  },
  "4_bme": {
    "translation": "Faturado",
    "limit": 50,
    "context": "Invoiced"
  },
  "4_br": {
    "translation": "Cobrado",
    "limit": 50,
    "context": "Billed"
  },
  "4_cfg": {
    "translation": "Pedido pendente libertado",
    "limit": 50,
    "context": "Released backorder"
  },
  "4_cp": {
    "translation": "Pedido em Espera Libertado",
    "limit": 50,
    "context": "Released backorder"
  },
  "4_fsuk": {
    "translation": "Enviado",
    "limit": 50,
    "context": "Despatched"
  },
  "4_ib": {
    "translation": "Em transporte",
    "limit": 50,
    "context": "In transport"
  },
  "4_ksa": {
    "translation": "Expedido",
    "limit": 50,
    "context": "Dispatched"
  },
  "4_pp": {
    "translation": "Em processamento",
    "limit": 50,
    "context": "Processing"
  },
  "4_pt": {
    "translation": "Em distribuição",
    "limit": 50,
    "context": "Dispatched"
  },
  "4_sg": {
    "translation": "In Picking",
    "limit": 50,
    "context": "In Picking"
  },
  "4_st": {
    "translation": "Entregue",
    "limit": 50,
    "context": "Delivered"
  },
  "4_urb": {
    "translation": "Despatched",
    "limit": 50,
    "context": "Dispatched"
  },
  "5": {
    "translation": "Em preparação",
    "limit": 50,
    "context": "In preparation"
  },
  "5_cfg": {
    "translation": "No Armazém",
    "limit": 50,
    "context": "In warehouse"
  },
  "5_cp": {
    "translation": "No Armazém",
    "limit": 50,
    "context": "In warehouse"
  },
  "5_dxl": {
    "translation": "Despachar",
    "limit": 50,
    "context": "Despatch"
  },
  "5_hrc": {
    "translation": "Despachar",
    "limit": 50,
    "context": "Despatch"
  },
  "5_ib": {
    "translation": "Entregue",
    "limit": 50,
    "context": "Delivered"
  },
  "5_nz": {
    "translation": "Despachar",
    "limit": 50,
    "context": "Despatch"
  },
  "5_pp": {
    "translation": "Abrir",
    "limit": 50,
    "context": "Open"
  },
  "5_sg": {
    "translation": "Picked",
    "limit": 50,
    "context": "Picked"
  },
  "6": {
    "translation": "Enviado",
    "limit": 50,
    "context": "Sent"
  },
  "7": {
    "translation": "Entregue",
    "limit": 50,
    "context": "Backorder"
  },
  "8": {
    "translation": "Em preparação",
    "limit": 50,
    "context": "PartPick"
  },
  "9": {
    "translation": "Picklist (WMS, 0 , 1 )",
    "limit": 50,
    "context": "Picklist (WMS, 0 , 1 )"
  },
  "100": {
    "translation": "Em processo",
    "limit": 50,
    "context": "In Process"
  },
  "110": {
    "translation": "Ordem aberta",
    "limit": 50,
    "context": "Open Order"
  },
  "120": {
    "translation": "Abrir pedido pendente",
    "limit": 50,
    "context": "Open Backorder"
  },
  "130": {
    "translation": "Pedido pendente libertado",
    "limit": 50,
    "context": "Released Backorder"
  },
  "140": {
    "translation": "Em Armazém",
    "limit": 50,
    "context": "In Warehouse"
  },
  "150": {
    "translation": "Pronto para faturar",
    "limit": 50,
    "context": "Ready to Invoice"
  },
  "160": {
    "translation": "Completo",
    "limit": 50,
    "context": "Complete"
  },
  "170": {
    "translation": "Cancelado durante a entrada",
    "limit": 50,
    "context": "Cancelled During Entry"
  },
  "180": {
    "translation": "Cancelado",
    "limit": 50,
    "context": "Cancelled"
  },
  "190": {
    "translation": "Cotação",
    "limit": 50,
    "context": "Quote"
  },
  "200": {
    "translation": "Suspense",
    "context": "Suspense"
  },
  "6_angliss": {
    "translation": "Abrir",
    "limit": 50,
    "context": "Open"
  },
  "6_cfg": {
    "translation": "Pronto para faturar",
    "limit": 50,
    "context": "Ready to invoice"
  },
  "6_cp": {
    "translation": "Pronto para faturar",
    "limit": 50,
    "context": "Ready to invoice"
  },
  "6_ffh": {
    "translation": "Processando",
    "limit": 50,
    "context": "Processing"
  },
  "6_fsuk": {
    "translation": "Em espera",
    "limit": 50,
    "context": "On Hold"
  },
  "6_gfox": {
    "translation": "Processando",
    "limit": 50,
    "context": "Processing"
  },
  "6_ib": {
    "translation": "Faturado",
    "limit": 50,
    "context": "Invoiced"
  },
  "6_ksa": {
    "translation": "Em espera",
    "limit": 50,
    "context": "OnHold"
  },
  "6_pp": {
    "translation": "Abrir",
    "limit": 50,
    "context": "Open"
  },
  "6_pt": {
    "translation": "Pendente",
    "limit": 50,
    "context": "OnHold"
  },
  "6_sg": {
    "translation": "Pending Invoice",
    "limit": 50,
    "context": "Pending Invoice"
  },
  "6_urb": {
    "translation": "OnHold",
    "limit": 50,
    "context": "OnHold"
  },
  "6_waltons": {
    "translation": "Processando",
    "limit": 50,
    "context": "Processing"
  },
  "7_angliss": {
    "translation": "Linha cancelada",
    "limit": 50,
    "context": "Line Cancelled"
  },
  "7_cfd": {
    "translation": "Invoiced",
    "limit": 50,
    "context": "Invoiced"
  },
  "7_cfg": {
    "translation": "Completo",
    "limit": 50,
    "context": "Complete"
  },
  "7_cim": {
    "translation": "Facturado",
    "limit": 50,
    "context": "Invoiced"
  },
  "7_cp": {
    "translation": "Completo",
    "limit": 50,
    "context": "Complete"
  },
  "7_dxl": {
    "translation": "Pedido em espera",
    "limit": 50,
    "context": "Backorder"
  },
  "7_eli": {
    "translation": "Facturado",
    "limit": 50,
    "context": "Invoiced"
  },
  "7_hk": {
    "translation": "Facturado",
    "limit": 50,
    "context": "Invoiced"
  },
  "7_hrc": {
    "translation": "Pedido em Espera",
    "limit": 50,
    "context": "Backorder"
  },
  "7_ib": {
    "translation": "Em revisão",
    "limit": 50,
    "context": "Under revision"
  },
  "7_ksa": {
    "translation": "Faturado",
    "limit": 50,
    "context": "Invoiced"
  },
  "7_sg": {
    "translation": "Invoiced",
    "limit": 50,
    "context": "Invoiced"
  },
  "8_angliss": {
    "translation": "PartPick",
    "limit": 50,
    "context": "PartPick"
  },
  "8_cfg": {
    "translation": "Cancelado durante a entrada",
    "limit": 50,
    "context": "Cancelled during entry"
  },
  "8_cp": {
    "translation": "Cancelado durante a entrada",
    "limit": 50,
    "context": "Cancelled during entry"
  },
  "8_fsuk": {
    "translation": "Facturado",
    "limit": 50,
    "context": "Invoiced"
  },
  "8_ib": {
    "translation": "Cancelado",
    "limit": 50,
    "context": "Cancelled"
  },
  "8_pt": {
    "translation": "Entregue",
    "limit": 50,
    "context": "Invoiced"
  },
  "8_urb": {
    "translation": "Invoiced",
    "limit": 50,
    "context": "Invoiced"
  },
  "98": {
    "translation": "Desconhecido",
    "limit": 50,
    "context": "Unrecognised Status"
  },
  "99": {
    "translation": "Cancelado",
    "limit": 50,
    "context": "Cancelled"
  },
  "98_nz": {
    "translation": "Estado não reconhecido",
    "limit": 50,
    "context": "Unrecognised Status"
  },
  "98_pt": {
    "translation": "Parcialmente entregue",
    "limit": 50,
    "context": "Unrecognised Status"
  },
  "99_cim": {
    "translation": "Failed",
    "limit": 50,
    "context": "Failed"
  },
  "99_eli": {
    "translation": "Failed",
    "limit": 50,
    "context": "Failed"
  },
  "99_pt": {
    "translation": "Anulada",
    "limit": 50,
    "context": "Canceled"
  },
  "9_angliss": {
    "translation": "Armazém concluído e faturado",
    "limit": 50,
    "context": "Warehouse Completed & Invoiced"
  },
  "9_cfg": {
    "translation": "Cancelado",
    "limit": 50,
    "context": "Cancelled"
  },
  "9_cp": {
    "translation": "Cancelado",
    "limit": 50,
    "context": "Cancelled"
  },
  "9_sg": {
    "translation": "Rejected",
    "limit": 50,
    "context": "Rejected"
  }
}