{
  "-9999": {
    "translation": "DO NOT DELETE OR MODIFY - temporary Lokalise bug fix",
    "limit": 100,
    "context": "DO NOT DELETE OR MODIFY - temporary Lokalise bug fix"
  },
  "0": {
    "translation": "Alınmayı Bekliyor",
    "limit": 50,
    "context": "Waiting Picking"
  },
  "0_angliss": {
    "translation": "Sipariş Gönderildi",
    "limit": 50,
    "context": "Order Released"
  },
  "0_br": {
    "translation": "Bekliyor",
    "limit": 50,
    "context": "Pending"
  },
  "0_cfg": {
    "translation": "İşlemde",
    "limit": 50,
    "context": "In Process"
  },
  "0_dxl": {
    "translation": "Alınmayı Bekliyor",
    "limit": 50,
    "context": "Awaiting Pick"
  },
  "0_ffh": {
    "translation": "Alınmayı Bekliyor",
    "limit": 50,
    "context": "Awaiting Pick"
  },
  "0_fsuk": {
    "translation": "Alınma Bekleniyor",
    "limit": 50,
    "context": "Waitpick"
  },
  "0_hrc": {
    "translation": "Alınmayı Bekliyor",
    "limit": 50,
    "context": "Awaiting Pick"
  },
  "0_ib": {
    "translation": "Durum yok",
    "limit": 50,
    "context": "No status"
  },
  "0_lv": {
    "translation": "İşlendi",
    "limit": 50,
    "context": "Processed"
  },
  "0_nz": {
    "translation": "Alınma Bekleniyor",
    "limit": 50,
    "context": "WaitPick"
  },
  "0_pt": {
    "translation": "Waitpick",
    "limit": 50,
    "context": "Waitpick"
  },
  "0_urb": {
    "translation": "Waitpick",
    "limit": 50,
    "context": "Waitpick"
  },
  "1": {
    "translation": "Alınıyor",
    "limit": 50,
    "context": "In Picking"
  },
  "10": {
    "translation": "Baskısız Sipariş",
    "limit": 50,
    "context": "Order Unprinted"
  },
  "100_cim": {
    "translation": "Failed",
    "limit": 50,
    "context": "Failed"
  },
  "100_eli": {
    "translation": "Failed",
    "limit": 50,
    "context": "Failed"
  },
  "10_angliss": {
    "translation": "Reddedildi",
    "limit": 50,
    "context": "Rejected"
  },
  "10_cfg": {
    "translation": "Siparişi İlet",
    "limit": 50,
    "context": "Forward order"
  },
  "10_cp": {
    "translation": "Siparişi İlet",
    "limit": 50,
    "context": "Forward order"
  },
  "10_nz": {
    "translation": "Picklist (MP)",
    "limit": 50,
    "context": "Picklist (MP)"
  },
  "10_pp": {
    "translation": "Geçersiz",
    "limit": 50,
    "context": "Void"
  },
  "10_sg": {
    "translation": "Invoiced",
    "limit": 50,
    "context": "Invoiced"
  },
  "11_cfd": {
    "translation": "Confirmed",
    "limit": 50,
    "context": "Sent"
  },
  "11_cfg": {
    "translation": "Belirsiz",
    "limit": 50,
    "context": "Suspense"
  },
  "11_cim": {
    "translation": "Confirmed",
    "limit": 50,
    "context": "Sent"
  },
  "11_cp": {
    "translation": "Belirsiz",
    "limit": 50,
    "context": "Suspense"
  },
  "11_eli": {
    "translation": "Confirmed",
    "limit": 50,
    "context": "Sent"
  },
  "11_pp": {
    "translation": "İptal Edildi",
    "limit": 50,
    "context": "Cancelled"
  },
  "11_sg": {
    "translation": "Under Review",
    "limit": 50,
    "context": "Under Review"
  },
  "15_cfd": {
    "translation": "Waitpick",
    "limit": 50,
    "context": "Waitpick"
  },
  "15_cim": {
    "translation": "Waitpick",
    "limit": 50,
    "context": "Waitpick"
  },
  "15_eli": {
    "translation": "Waitpick",
    "limit": 50,
    "context": "Waitpick"
  },
  "18_hk": {
    "translation": "İşlemde",
    "limit": 50,
    "context": "In Progress"
  },
  "18_ksa": {
    "translation": "İşlemde",
    "limit": 50,
    "context": "In Progress"
  },
  "1_angliss": {
    "translation": "Alınıyor",
    "limit": 50,
    "context": "Picking"
  },
  "1_bme": {
    "translation": "İşleme Alınacak",
    "limit": 50,
    "context": "Awaiting Processing"
  },
  "1_br": {
    "translation": "Serbest bırakıldı",
    "limit": 50,
    "context": "Released"
  },
  "1_bs": {
    "translation": "Alınıyor",
    "limit": 50,
    "context": "In  Picking"
  },
  "1_cfg": {
    "translation": "Açık Sipariş",
    "limit": 50,
    "context": "Open order"
  },
  "1_cp": {
    "translation": "İşlemde",
    "limit": 50,
    "context": "In process"
  },
  "1_dxl": {
    "translation": "Alım Listesi",
    "limit": 50,
    "context": "Picklist"
  },
  "1_ffh": {
    "translation": "Alım Listesi",
    "limit": 50,
    "context": "Picklist"
  },
  "1_hrc": {
    "translation": "Alım Listesi",
    "limit": 50,
    "context": "Picklist"
  },
  "1_ib": {
    "translation": "İşleme alınmayı bekliyor",
    "limit": 50,
    "context": "Pending to process"
  },
  "1_luk": {
    "translation": "Sipariş Kabul Edildi",
    "limit": 50,
    "context": "Order Accepted"
  },
  "1_nz": {
    "translation": "Alım Listesi",
    "limit": 50,
    "context": "Picklist"
  },
  "1_pp": {
    "translation": "Açık",
    "limit": 50,
    "context": "Open"
  },
  "1_pt": {
    "translation": "Picklist",
    "limit": 50,
    "context": "Picklist"
  },
  "1_sg": {
    "translation": "Under Review",
    "limit": 50,
    "context": "Under Review"
  },
  "1_st": {
    "translation": "Alındı",
    "limit": 50,
    "context": "Received"
  },
  "2": {
    "translation": "Kısmi Sevk Edildi",
    "limit": 50,
    "context": "Part Shipped"
  },
  "11": {
    "translation": "Sipariş Bekliyor",
    "limit": 50,
    "context": "Order Pending"
  },
  "12": {
    "translation": "Müşteri Onayı Bekleniyor",
    "limit": 50,
    "context": "Awaiting Debtor Approval"
  },
  "13": {
    "translation": "Geçersiz",
    "limit": 50,
    "context": "Voided"
  },
  "14": {
    "translation": "Toplama Etiketi",
    "limit": 50,
    "context": "Picking Ticket"
  },
  "15": {
    "translation": "Borçlular Yoluyla Toplama Etiketi",
    "limit": 50,
    "context": "Picking Ticket via Debtors"
  },
  "16": {
    "translation": "Faturalandı",
    "limit": 50,
    "context": "Invoiced"
  },
  "17": {
    "translation": "Kamyon",
    "limit": 50,
    "context": "Truck"
  },
  "18": {
    "translation": "POD",
    "limit": 50,
    "context": "POD"
  },
  "19": {
    "translation": "Bekleyen POD",
    "limit": 50,
    "context": "POD Outstanding"
  },
  "20": {
    "translation": "Tekrar Sevk",
    "limit": 50,
    "context": "ReDelivery"
  },
  "21": {
    "translation": "Taranan POD",
    "limit": 50,
    "context": "POD Scanned"
  },
  "22": {
    "translation": "Tam Kredi Geçişi",
    "limit": 50,
    "context": "Full Credit Passed"
  },
  "23": {
    "translation": "Kısmi Yüklendi",
    "limit": 50,
    "context": "Partially on Truck"
  },
  "24": {
    "translation": "Parçalı POD",
    "limit": 50,
    "context": "Partial POD"
  },
  "25": {
    "translation": "Parçalı Bekleyen POD",
    "limit": 50,
    "context": "Partial POD Outstanding"
  },
  "27": {
    "translation": "Kısmi Faturalandı",
    "limit": 50,
    "context": "Partially Invoiced"
  },
  "28": {
    "translation": "Parçalı Kredi",
    "limit": 50,
    "context": "Partial Credit"
  },
  "2_angliss": {
    "translation": "Alındı & Sevk Edildi & Faturalandı",
    "limit": 50,
    "context": "Pick & Ship & Invoiced"
  },
  "2_bme": {
    "translation": "İşlemde",
    "limit": 50,
    "context": "In progress"
  },
  "2_br": {
    "translation": "Kilitlendi",
    "limit": 50,
    "context": "Locked"
  },
  "2_cfg": {
    "translation": "Açık Ön Sipariş",
    "limit": 50,
    "context": "Open backorder"
  },
  "2_cp": {
    "translation": "Açık Sipariş",
    "limit": 50,
    "context": "Open order"
  },
  "2_dxl": {
    "translation": "Sevkedildi",
    "limit": 50,
    "context": "Despatched"
  },
  "2_fsuk": {
    "translation": "ToplamaListesi/ToplamaListesinde",
    "limit": 50,
    "context": "Picklist/InPicking"
  },
  "2_hrc": {
    "translation": "Sevkedildi",
    "limit": 50,
    "context": "Despatched"
  },
  "2_ib": {
    "translation": "Depoya Gönderildi",
    "limit": 50,
    "context": "Sent to warehous"
  },
  "2_luk": {
    "translation": "Sipariş Değişikliklerle Kabul Edildi",
    "limit": 50,
    "context": "Order Accepted with modifications"
  },
  "2_nz": {
    "translation": "Sevkedildi",
    "limit": 50,
    "context": "Despatched"
  },
  "2_pp": {
    "translation": "Beklemede",
    "limit": 50,
    "context": "Suspense"
  },
  "2_pt": {
    "translation": "In progress",
    "limit": 50,
    "context": "In progress"
  },
  "2_sg": {
    "translation": "Released",
    "limit": 50,
    "context": "Released"
  },
  "2_st": {
    "translation": "İşlemde",
    "limit": 50,
    "context": "In progress"
  },
  "2_urb": {
    "translation": "Picklist/InPicking",
    "limit": 50,
    "context": "Picklist/InPicking"
  },
  "3": {
    "translation": "Tamamla",
    "limit": 50,
    "context": "Complete"
  },
  "3_angliss": {
    "translation": "Faturalandı",
    "limit": 50,
    "context": "Invoiced"
  },
  "3_bme": {
    "translation": "İşlendi",
    "limit": 50,
    "context": "Processed"
  },
  "3_br": {
    "translation": "Kilitlendi",
    "limit": 50,
    "context": "Locked"
  },
  "3_cfg": {
    "translation": "Açık Ön Sipariş",
    "limit": 50,
    "context": "Open backorder"
  },
  "3_cp": {
    "translation": "Açık Ön Sipariş",
    "limit": 50,
    "context": "Open backorder"
  },
  "3_dxl": {
    "translation": "Faturalandı",
    "limit": 50,
    "context": "Invoiced"
  },
  "3_ffh": {
    "translation": "Faturalandı",
    "limit": 50,
    "context": "Invoiced"
  },
  "3_gfox": {
    "translation": "Faturalandı",
    "limit": 50,
    "context": "Invoiced"
  },
  "3_hk": {
    "translation": "İptal Edildi",
    "limit": 50,
    "context": "Cancelled"
  },
  "3_hrc": {
    "translation": "Faturalandı",
    "limit": 50,
    "context": "Invoiced"
  },
  "3_ib": {
    "translation": "Hazırlanıyor",
    "limit": 50,
    "context": "In preparation"
  },
  "3_ksa": {
    "translation": "İptal Edildi",
    "limit": 50,
    "context": "Cancelled"
  },
  "3_luk": {
    "translation": "Sipariş İptal Edildi",
    "limit": 50,
    "context": "Order Not Accepted ie. Cancelled"
  },
  "3_nz": {
    "translation": "Faturalandı",
    "limit": 50,
    "context": "Invoiced"
  },
  "3_pp": {
    "translation": "Faturalandı",
    "limit": 50,
    "context": "Invoiced"
  },
  "3_st": {
    "translation": "Sevkiyatta",
    "limit": 50,
    "context": "In transit"
  },
  "3_waltons": {
    "translation": "Faturalandı",
    "limit": 50,
    "context": "Invoiced"
  },
  "4": {
    "translation": "Beklemede",
    "limit": 50,
    "context": "OnHold"
  },
  "4_angliss": {
    "translation": "Kredi Limidi",
    "limit": 50,
    "context": "Credit Limit"
  },
  "4_bme": {
    "translation": "Faturalandı",
    "limit": 50,
    "context": "Invoiced"
  },
  "4_br": {
    "translation": "Faturalandı",
    "limit": 50,
    "context": "Billed"
  },
  "4_cfg": {
    "translation": "Önsipariş Gönderildi",
    "limit": 50,
    "context": "Released backorder"
  },
  "4_cp": {
    "translation": "Önsipariş Gönderildi",
    "limit": 50,
    "context": "Released backorder"
  },
  "4_fsuk": {
    "translation": "Sevkedildi",
    "limit": 50,
    "context": "Despatched"
  },
  "4_ib": {
    "translation": "Sevkiyatta",
    "limit": 50,
    "context": "In transport"
  },
  "4_ksa": {
    "translation": "Sevk Edildi",
    "limit": 50,
    "context": "Dispatched"
  },
  "4_pp": {
    "translation": "İşleniyor",
    "limit": 50,
    "context": "Processing"
  },
  "4_pt": {
    "translation": "Despatched",
    "limit": 50,
    "context": "Dispatched"
  },
  "4_sg": {
    "translation": "In Picking",
    "limit": 50,
    "context": "In Picking"
  },
  "4_st": {
    "translation": "Teslim Edildi",
    "limit": 50,
    "context": "Delivered"
  },
  "4_urb": {
    "translation": "Despatched",
    "limit": 50,
    "context": "Dispatched"
  },
  "5": {
    "translation": "Hazırlanıyor",
    "limit": 50,
    "context": "In preparation"
  },
  "5_cfg": {
    "translation": "Depoda",
    "limit": 50,
    "context": "In warehouse"
  },
  "5_cp": {
    "translation": "Depoda",
    "limit": 50,
    "context": "In warehouse"
  },
  "5_dxl": {
    "translation": "Sevkiyat",
    "limit": 50,
    "context": "Despatch"
  },
  "5_hrc": {
    "translation": "Sevkiyat",
    "limit": 50,
    "context": "Despatch"
  },
  "5_ib": {
    "translation": "Teslim Edildi",
    "limit": 50,
    "context": "Delivered"
  },
  "5_nz": {
    "translation": "Sevkiyat",
    "limit": 50,
    "context": "Despatch"
  },
  "5_pp": {
    "translation": "Açık",
    "limit": 50,
    "context": "Open"
  },
  "5_sg": {
    "translation": "Picked",
    "limit": 50,
    "context": "Picked"
  },
  "6": {
    "translation": "Gönderildi",
    "limit": 50,
    "context": "Sent"
  },
  "7": {
    "translation": "Ön Sipariş",
    "limit": 50,
    "context": "Backorder"
  },
  "8": {
    "translation": "Kısmi Alım",
    "limit": 50,
    "context": "PartPick"
  },
  "9": {
    "translation": "Toplama Listesi (WMS, 0 , 1 )",
    "limit": 50,
    "context": "Picklist (WMS, 0 , 1 )"
  },
  "100": {
    "translation": "İşlemde",
    "limit": 50,
    "context": "In Process"
  },
  "110": {
    "translation": "Açık Sipariş",
    "limit": 50,
    "context": "Open Order"
  },
  "120": {
    "translation": "Açık Ön Sipariş",
    "limit": 50,
    "context": "Open Backorder"
  },
  "130": {
    "translation": "Önsipariş Gönderildi",
    "limit": 50,
    "context": "Released Backorder"
  },
  "140": {
    "translation": "Depoda",
    "limit": 50,
    "context": "In Warehouse"
  },
  "150": {
    "translation": "Faturalamaya Hazır",
    "limit": 50,
    "context": "Ready to Invoice"
  },
  "160": {
    "translation": "Tamamla",
    "limit": 50,
    "context": "Complete"
  },
  "170": {
    "translation": "Giriş sırasında iptal edildi",
    "limit": 50,
    "context": "Cancelled During Entry"
  },
  "180": {
    "translation": "İptal Edildi",
    "limit": 50,
    "context": "Cancelled"
  },
  "190": {
    "translation": "Teklif",
    "limit": 50,
    "context": "Quote"
  },
  "200": {
    "translation": "Beklemede",
    "context": "Suspense"
  },
  "6_angliss": {
    "translation": "Açık",
    "limit": 50,
    "context": "Open"
  },
  "6_cfg": {
    "translation": "Faturalanmaya Hazır",
    "limit": 50,
    "context": "Ready to invoice"
  },
  "6_cp": {
    "translation": "Faturalamaya hazır",
    "limit": 50,
    "context": "Ready to invoice"
  },
  "6_ffh": {
    "translation": "İşleniyor",
    "limit": 50,
    "context": "Processing"
  },
  "6_fsuk": {
    "translation": "Beklemede",
    "limit": 50,
    "context": "On Hold"
  },
  "6_gfox": {
    "translation": "İşleniyor",
    "limit": 50,
    "context": "Processing"
  },
  "6_ib": {
    "translation": "Faturalandı",
    "limit": 50,
    "context": "Invoiced"
  },
  "6_ksa": {
    "translation": "Beklemede",
    "limit": 50,
    "context": "OnHold"
  },
  "6_pp": {
    "translation": "Açık",
    "limit": 50,
    "context": "Open"
  },
  "6_pt": {
    "translation": "OnHold",
    "limit": 50,
    "context": "OnHold"
  },
  "6_sg": {
    "translation": "Pending Invoice",
    "limit": 50,
    "context": "Pending Invoice"
  },
  "6_urb": {
    "translation": "OnHold",
    "limit": 50,
    "context": "OnHold"
  },
  "6_waltons": {
    "translation": "İşleniyor",
    "limit": 50,
    "context": "Processing"
  },
  "7_angliss": {
    "translation": "Satır İptal edildi",
    "limit": 50,
    "context": "Line Cancelled"
  },
  "7_cfd": {
    "translation": "Invoiced",
    "limit": 50,
    "context": "Invoiced"
  },
  "7_cfg": {
    "translation": "Tamamla",
    "limit": 50,
    "context": "Complete"
  },
  "7_cim": {
    "translation": "Invoiced",
    "limit": 50,
    "context": "Invoiced"
  },
  "7_cp": {
    "translation": "Tamamla",
    "limit": 50,
    "context": "Complete"
  },
  "7_dxl": {
    "translation": "Ön Sipariş",
    "limit": 50,
    "context": "Backorder"
  },
  "7_eli": {
    "translation": "Invoiced",
    "limit": 50,
    "context": "Invoiced"
  },
  "7_hk": {
    "translation": "Faturalandı",
    "limit": 50,
    "context": "Invoiced"
  },
  "7_hrc": {
    "translation": "Ön Sipariş",
    "limit": 50,
    "context": "Backorder"
  },
  "7_ib": {
    "translation": "İncelemede",
    "limit": 50,
    "context": "Under revision"
  },
  "7_ksa": {
    "translation": "Faturalandı",
    "limit": 50,
    "context": "Invoiced"
  },
  "7_sg": {
    "translation": "Invoiced",
    "limit": 50,
    "context": "Invoiced"
  },
  "8_angliss": {
    "translation": "KısmiYükleme",
    "limit": 50,
    "context": "PartPick"
  },
  "8_cfg": {
    "translation": "Girişte iptal edildi",
    "limit": 50,
    "context": "Cancelled during entry"
  },
  "8_cp": {
    "translation": "Girişte iptal edildi",
    "limit": 50,
    "context": "Cancelled during entry"
  },
  "8_fsuk": {
    "translation": "Faturalandı",
    "limit": 50,
    "context": "Invoiced"
  },
  "8_ib": {
    "translation": "İptal Edildi",
    "limit": 50,
    "context": "Cancelled"
  },
  "8_pt": {
    "translation": "Invoiced",
    "limit": 50,
    "context": "Invoiced"
  },
  "8_urb": {
    "translation": "Invoiced",
    "limit": 50,
    "context": "Invoiced"
  },
  "98": {
    "translation": "Tanımsız",
    "limit": 50,
    "context": "Unrecognised Status"
  },
  "99": {
    "translation": "İptal Edildi",
    "limit": 50,
    "context": "Cancelled"
  },
  "98_nz": {
    "translation": "Tanımsız Durum",
    "limit": 50,
    "context": "Unrecognised Status"
  },
  "98_pt": {
    "translation": "Unrecognised Status",
    "limit": 50,
    "context": "Unrecognised Status"
  },
  "99_cim": {
    "translation": "Failed",
    "limit": 50,
    "context": "Failed"
  },
  "99_eli": {
    "translation": "Failed",
    "limit": 50,
    "context": "Failed"
  },
  "99_pt": {
    "translation": "Cancelled",
    "limit": 50,
    "context": "Canceled"
  },
  "9_angliss": {
    "translation": "Depo Tamamlandı & Faturalandı",
    "limit": 50,
    "context": "Warehouse Completed & Invoiced"
  },
  "9_cfg": {
    "translation": "İptal Edildi",
    "limit": 50,
    "context": "Cancelled"
  },
  "9_cp": {
    "translation": "İptal Edildi",
    "limit": 50,
    "context": "Cancelled"
  },
  "9_sg": {
    "translation": "Rejected",
    "limit": 50,
    "context": "Rejected"
  }
}