{
  "-9999": {
    "translation": "DO NOT DELETE OR MODIFY - temporary Lokalise bug fix",
    "limit": 100,
    "context": "DO NOT DELETE OR MODIFY - temporary Lokalise bug fix"
  },
  "0": {
    "translation": "في انتظار الأخذ",
    "limit": 50,
    "context": "Waiting Picking"
  },
  "0_angliss": {
    "translation": "طلب مصدّر",
    "limit": 50,
    "context": "Order Released"
  },
  "0_br": {
    "translation": "معلق",
    "limit": 50,
    "context": "Pending"
  },
  "0_cfg": {
    "translation": "قيد التقدم",
    "limit": 50,
    "context": "In Process"
  },
  "0_dxl": {
    "translation": "قيد التقدم",
    "limit": 50,
    "context": "Awaiting Pick"
  },
  "0_ffh": {
    "translation": "قيد التقدم",
    "limit": 50,
    "context": "Awaiting Pick"
  },
  "0_fsuk": {
    "translation": "إنتظار الانتقاء",
    "limit": 50,
    "context": "Waitpick"
  },
  "0_hrc": {
    "translation": "قيد التقدم",
    "limit": 50,
    "context": "Awaiting Pick"
  },
  "0_ib": {
    "translation": "بلا حالة",
    "limit": 50,
    "context": "No status"
  },
  "0_lv": {
    "translation": "تمت معالجته",
    "limit": 50,
    "context": "Processed"
  },
  "0_nz": {
    "translation": "إنتظار الانتقاء",
    "limit": 50,
    "context": "WaitPick"
  },
  "0_pt": {
    "translation": "Waitpick",
    "limit": 50,
    "context": "Waitpick"
  },
  "0_urb": {
    "translation": "Waitpick",
    "limit": 50,
    "context": "Waitpick"
  },
  "1": {
    "translation": "قيد الانتقاء",
    "limit": 50,
    "context": "In Picking"
  },
  "10": {
    "translation": "تمت طباعة الطلب",
    "limit": 50,
    "context": "Order Unprinted"
  },
  "100_cim": {
    "translation": "Failed",
    "limit": 50,
    "context": "Failed"
  },
  "100_eli": {
    "translation": "Failed",
    "limit": 50,
    "context": "Failed"
  },
  "10_angliss": {
    "translation": "مرفوض",
    "limit": 50,
    "context": "Rejected"
  },
  "10_cfg": {
    "translation": "إعادة توجيه الطلب",
    "limit": 50,
    "context": "Forward order"
  },
  "10_cp": {
    "translation": "إعادة توجيه الطلب",
    "limit": 50,
    "context": "Forward order"
  },
  "10_nz": {
    "translation": "Picklist (MP)",
    "limit": 50,
    "context": "Picklist (MP)"
  },
  "10_pp": {
    "translation": "إلغاء",
    "limit": 50,
    "context": "Void"
  },
  "10_sg": {
    "translation": "Invoiced",
    "limit": 50,
    "context": "Invoiced"
  },
  "11_cfd": {
    "translation": "Confirmed",
    "limit": 50,
    "context": "Sent"
  },
  "11_cfg": {
    "translation": "تعليق",
    "limit": 50,
    "context": "Suspense"
  },
  "11_cim": {
    "translation": "Confirmed",
    "limit": 50,
    "context": "Sent"
  },
  "11_cp": {
    "translation": "تعليق",
    "limit": 50,
    "context": "Suspense"
  },
  "11_eli": {
    "translation": "Confirmed",
    "limit": 50,
    "context": "Sent"
  },
  "11_pp": {
    "translation": "تم إلغاؤه",
    "limit": 50,
    "context": "Cancelled"
  },
  "11_sg": {
    "translation": "Under Review",
    "limit": 50,
    "context": "Under Review"
  },
  "15_cfd": {
    "translation": "Waitpick",
    "limit": 50,
    "context": "Waitpick"
  },
  "15_cim": {
    "translation": "Waitpick",
    "limit": 50,
    "context": "Waitpick"
  },
  "15_eli": {
    "translation": "Waitpick",
    "limit": 50,
    "context": "Waitpick"
  },
  "18_hk": {
    "translation": "في تَقَدم",
    "limit": 50,
    "context": "In Progress"
  },
  "18_ksa": {
    "translation": "في تَقَدم",
    "limit": 50,
    "context": "In Progress"
  },
  "1_angliss": {
    "translation": "انتقاء",
    "limit": 50,
    "context": "Picking"
  },
  "1_bme": {
    "translation": "في انتظار المعالجة",
    "limit": 50,
    "context": "Awaiting Processing"
  },
  "1_br": {
    "translation": "تم إصداره",
    "limit": 50,
    "context": "Released"
  },
  "1_bs": {
    "translation": "قيد الانتقاء",
    "limit": 50,
    "context": "In  Picking"
  },
  "1_cfg": {
    "translation": "طلب مفتوح",
    "limit": 50,
    "context": "Open order"
  },
  "1_cp": {
    "translation": "قيد التقدم",
    "limit": 50,
    "context": "In process"
  },
  "1_dxl": {
    "translation": "قائمة الخيارات",
    "limit": 50,
    "context": "Picklist"
  },
  "1_ffh": {
    "translation": "قائمة الخيارات",
    "limit": 50,
    "context": "Picklist"
  },
  "1_hrc": {
    "translation": "قائمة الخيارات",
    "limit": 50,
    "context": "Picklist"
  },
  "1_ib": {
    "translation": "في انتظار المعالجة",
    "limit": 50,
    "context": "Pending to process"
  },
  "1_luk": {
    "translation": "تم قبول الطلب",
    "limit": 50,
    "context": "Order Accepted"
  },
  "1_nz": {
    "translation": "قائمة الخيارات",
    "limit": 50,
    "context": "Picklist"
  },
  "1_pp": {
    "translation": "مفتوح",
    "limit": 50,
    "context": "Open"
  },
  "1_pt": {
    "translation": "Picklist",
    "limit": 50,
    "context": "Picklist"
  },
  "1_sg": {
    "translation": "Under Review",
    "limit": 50,
    "context": "Under Review"
  },
  "1_st": {
    "translation": "‏‏مُستلَم",
    "limit": 50,
    "context": "Received"
  },
  "2": {
    "translation": "تم شحن الجزء",
    "limit": 50,
    "context": "Part Shipped"
  },
  "11": {
    "translation": "طلب معلق",
    "limit": 50,
    "context": "Order Pending"
  },
  "12": {
    "translation": "قيد انتظار موافقة المدين",
    "limit": 50,
    "context": "Awaiting Debtor Approval"
  },
  "13": {
    "translation": "ملغي",
    "limit": 50,
    "context": "Voided"
  },
  "14": {
    "translation": "تذكرة انتقاء",
    "limit": 50,
    "context": "Picking Ticket"
  },
  "15": {
    "translation": "تذكرة انتقاء عبر المدينين",
    "limit": 50,
    "context": "Picking Ticket via Debtors"
  },
  "16": {
    "translation": "مفوتر",
    "limit": 50,
    "context": "Invoiced"
  },
  "17": {
    "translation": "شاحنة",
    "limit": 50,
    "context": "Truck"
  },
  "18": {
    "translation": "POD",
    "limit": 50,
    "context": "POD"
  },
  "19": {
    "translation": "POD قائم",
    "limit": 50,
    "context": "POD Outstanding"
  },
  "20": {
    "translation": "إعادة التسليم",
    "limit": 50,
    "context": "ReDelivery"
  },
  "21": {
    "translation": "تم مسح POD ضوئيًا",
    "limit": 50,
    "context": "POD Scanned"
  },
  "22": {
    "translation": "تم اجتياز الائتمان الكامل",
    "limit": 50,
    "context": "Full Credit Passed"
  },
  "23": {
    "translation": "في الشاحنة بشكل جزئي",
    "limit": 50,
    "context": "Partially on Truck"
  },
  "24": {
    "translation": "POD جزئي",
    "limit": 50,
    "context": "Partial POD"
  },
  "25": {
    "translation": "POD جزئي قائم",
    "limit": 50,
    "context": "Partial POD Outstanding"
  },
  "27": {
    "translation": "تمت الموافقة جزئيًا",
    "limit": 50,
    "context": "Partially Invoiced"
  },
  "28": {
    "translation": "ائتمان جزئي",
    "limit": 50,
    "context": "Partial Credit"
  },
  "2_angliss": {
    "translation": "معالَج ومشحون ومفوتر",
    "limit": 50,
    "context": "Pick & Ship & Invoiced"
  },
  "2_bme": {
    "translation": "قيد التقدم",
    "limit": 50,
    "context": "In progress"
  },
  "2_br": {
    "translation": "مؤمّن",
    "limit": 50,
    "context": "Locked"
  },
  "2_cfg": {
    "translation": "متأخرات مفتوحة",
    "limit": 50,
    "context": "Open backorder"
  },
  "2_cp": {
    "translation": "طلب مفتوح",
    "limit": 50,
    "context": "Open order"
  },
  "2_dxl": {
    "translation": "مشحون",
    "limit": 50,
    "context": "Despatched"
  },
  "2_fsuk": {
    "translation": "اختر القائمة / في الانتقاء",
    "limit": 50,
    "context": "Picklist/InPicking"
  },
  "2_hrc": {
    "translation": "مشحون",
    "limit": 50,
    "context": "Despatched"
  },
  "2_ib": {
    "translation": "تم الإرسال إلى المستودع",
    "limit": 50,
    "context": "Sent to warehous"
  },
  "2_luk": {
    "translation": "تم قبول الطلب مع إجراء تعديلات",
    "limit": 50,
    "context": "Order Accepted with modifications"
  },
  "2_nz": {
    "translation": "مشحون",
    "limit": 50,
    "context": "Despatched"
  },
  "2_pp": {
    "translation": "تعليق",
    "limit": 50,
    "context": "Suspense"
  },
  "2_pt": {
    "translation": "In progress",
    "limit": 50,
    "context": "In progress"
  },
  "2_sg": {
    "translation": "Released",
    "limit": 50,
    "context": "Released"
  },
  "2_st": {
    "translation": "قيد التقدم",
    "limit": 50,
    "context": "In progress"
  },
  "2_urb": {
    "translation": "Picklist/InPicking",
    "limit": 50,
    "context": "Picklist/InPicking"
  },
  "3": {
    "translation": "مكتمل",
    "limit": 50,
    "context": "Complete"
  },
  "3_angliss": {
    "translation": "مفوتر",
    "limit": 50,
    "context": "Invoiced"
  },
  "3_bme": {
    "translation": "تمت معالجته",
    "limit": 50,
    "context": "Processed"
  },
  "3_br": {
    "translation": "مؤمّن",
    "limit": 50,
    "context": "Locked"
  },
  "3_cfg": {
    "translation": "متأخرات مفتوحة",
    "limit": 50,
    "context": "Open backorder"
  },
  "3_cp": {
    "translation": "متأخرات مفتوحة",
    "limit": 50,
    "context": "Open backorder"
  },
  "3_dxl": {
    "translation": "مفوتر",
    "limit": 50,
    "context": "Invoiced"
  },
  "3_ffh": {
    "translation": "مفوتر",
    "limit": 50,
    "context": "Invoiced"
  },
  "3_gfox": {
    "translation": "مفوتر",
    "limit": 50,
    "context": "Invoiced"
  },
  "3_hk": {
    "translation": "ألغيت",
    "limit": 50,
    "context": "Cancelled"
  },
  "3_hrc": {
    "translation": "مفوتر",
    "limit": 50,
    "context": "Invoiced"
  },
  "3_ib": {
    "translation": "قيد الإعداد",
    "limit": 50,
    "context": "In preparation"
  },
  "3_ksa": {
    "translation": "ألغيت",
    "limit": 50,
    "context": "Cancelled"
  },
  "3_luk": {
    "translation": "لم يتم قبول الطلب، أي تم إلغاؤه",
    "limit": 50,
    "context": "Order Not Accepted ie. Cancelled"
  },
  "3_nz": {
    "translation": "مفوتر",
    "limit": 50,
    "context": "Invoiced"
  },
  "3_pp": {
    "translation": "مفوتر",
    "limit": 50,
    "context": "Invoiced"
  },
  "3_st": {
    "translation": "أثناء النقل",
    "limit": 50,
    "context": "In transit"
  },
  "3_waltons": {
    "translation": "مفوتر",
    "limit": 50,
    "context": "Invoiced"
  },
  "4": {
    "translation": "قيد الانتظار",
    "limit": 50,
    "context": "OnHold"
  },
  "4_angliss": {
    "translation": "حد الائتمان",
    "limit": 50,
    "context": "Credit Limit"
  },
  "4_bme": {
    "translation": "مفوتر",
    "limit": 50,
    "context": "Invoiced"
  },
  "4_br": {
    "translation": "مفوتر",
    "limit": 50,
    "context": "Billed"
  },
  "4_cfg": {
    "translation": "متأخرات تم إصدارها",
    "limit": 50,
    "context": "Released backorder"
  },
  "4_cp": {
    "translation": "متأخرات تم إصدارها",
    "limit": 50,
    "context": "Released backorder"
  },
  "4_fsuk": {
    "translation": "مشحون",
    "limit": 50,
    "context": "Despatched"
  },
  "4_ib": {
    "translation": "أثناء النقل",
    "limit": 50,
    "context": "In transport"
  },
  "4_ksa": {
    "translation": "مُرسَل",
    "limit": 50,
    "context": "Dispatched"
  },
  "4_pp": {
    "translation": "قيد المعالجة",
    "limit": 50,
    "context": "Processing"
  },
  "4_pt": {
    "translation": "Despatched",
    "limit": 50,
    "context": "Dispatched"
  },
  "4_sg": {
    "translation": "In Picking",
    "limit": 50,
    "context": "In Picking"
  },
  "4_st": {
    "translation": "تم التسليم",
    "limit": 50,
    "context": "Delivered"
  },
  "4_urb": {
    "translation": "Despatched",
    "limit": 50,
    "context": "Dispatched"
  },
  "5": {
    "translation": "قيد الإعداد",
    "limit": 50,
    "context": "In preparation"
  },
  "5_cfg": {
    "translation": "في المستودع",
    "limit": 50,
    "context": "In warehouse"
  },
  "5_cp": {
    "translation": "في المستودع",
    "limit": 50,
    "context": "In warehouse"
  },
  "5_dxl": {
    "translation": "إرسال",
    "limit": 50,
    "context": "Despatch"
  },
  "5_hrc": {
    "translation": "إرسال",
    "limit": 50,
    "context": "Despatch"
  },
  "5_ib": {
    "translation": "تم التسليم",
    "limit": 50,
    "context": "Delivered"
  },
  "5_nz": {
    "translation": "إرسال",
    "limit": 50,
    "context": "Despatch"
  },
  "5_pp": {
    "translation": "مفتوح",
    "limit": 50,
    "context": "Open"
  },
  "5_sg": {
    "translation": "Picked",
    "limit": 50,
    "context": "Picked"
  },
  "6": {
    "translation": "تم إرساله",
    "limit": 50,
    "context": "Sent"
  },
  "7": {
    "translation": "متأخرات من أمر",
    "limit": 50,
    "context": "Backorder"
  },
  "8": {
    "translation": "إنتقاء جزء",
    "limit": 50,
    "context": "PartPick"
  },
  "9": {
    "translation": "قائمة خيارات (WMS, 0 , 1)",
    "limit": 50,
    "context": "Picklist (WMS, 0 , 1 )"
  },
  "100": {
    "translation": "قيد التقدم",
    "limit": 50,
    "context": "In Process"
  },
  "110": {
    "translation": "طلب مفتوح",
    "limit": 50,
    "context": "Open Order"
  },
  "120": {
    "translation": "متأخرات مفتوحة",
    "limit": 50,
    "context": "Open Backorder"
  },
  "130": {
    "translation": "متأخرات تم إصدارها",
    "limit": 50,
    "context": "Released Backorder"
  },
  "140": {
    "translation": "في المستودع",
    "limit": 50,
    "context": "In Warehouse"
  },
  "150": {
    "translation": "جاهز للفوترة",
    "limit": 50,
    "context": "Ready to Invoice"
  },
  "160": {
    "translation": "مكتمل",
    "limit": 50,
    "context": "Complete"
  },
  "170": {
    "translation": "تم إلغاؤه أثناء الإدخال",
    "limit": 50,
    "context": "Cancelled During Entry"
  },
  "180": {
    "translation": "تم إلغاؤه",
    "limit": 50,
    "context": "Cancelled"
  },
  "190": {
    "translation": "عرض أسعار",
    "limit": 50,
    "context": "Quote"
  },
  "200": {
    "translation": "تعليق",
    "context": "Suspense"
  },
  "6_angliss": {
    "translation": "مفتوح",
    "limit": 50,
    "context": "Open"
  },
  "6_cfg": {
    "translation": "جاهز للفوترة",
    "limit": 50,
    "context": "Ready to invoice"
  },
  "6_cp": {
    "translation": "جاهز للفوترة",
    "limit": 50,
    "context": "Ready to invoice"
  },
  "6_ffh": {
    "translation": "قيد المعالجة",
    "limit": 50,
    "context": "Processing"
  },
  "6_fsuk": {
    "translation": "قيد الانتظار",
    "limit": 50,
    "context": "On Hold"
  },
  "6_gfox": {
    "translation": "قيد المعالجة",
    "limit": 50,
    "context": "Processing"
  },
  "6_ib": {
    "translation": "مفوتر",
    "limit": 50,
    "context": "Invoiced"
  },
  "6_ksa": {
    "translation": "في الانتظار",
    "limit": 50,
    "context": "OnHold"
  },
  "6_pp": {
    "translation": "مفتوح",
    "limit": 50,
    "context": "Open"
  },
  "6_pt": {
    "translation": "OnHold",
    "limit": 50,
    "context": "OnHold"
  },
  "6_sg": {
    "translation": "Pending Invoice",
    "limit": 50,
    "context": "Pending Invoice"
  },
  "6_urb": {
    "translation": "OnHold",
    "limit": 50,
    "context": "OnHold"
  },
  "6_waltons": {
    "translation": "قيد المعالجة",
    "limit": 50,
    "context": "Processing"
  },
  "7_angliss": {
    "translation": "تم إلغاء السطر",
    "limit": 50,
    "context": "Line Cancelled"
  },
  "7_cfd": {
    "translation": "Invoiced",
    "limit": 50,
    "context": "Invoiced"
  },
  "7_cfg": {
    "translation": "مكتمل",
    "limit": 50,
    "context": "Complete"
  },
  "7_cim": {
    "translation": "Invoiced",
    "limit": 50,
    "context": "Invoiced"
  },
  "7_cp": {
    "translation": "مكتمل",
    "limit": 50,
    "context": "Complete"
  },
  "7_dxl": {
    "translation": "متأخرات من أمر",
    "limit": 50,
    "context": "Backorder"
  },
  "7_eli": {
    "translation": "Invoiced",
    "limit": 50,
    "context": "Invoiced"
  },
  "7_hk": {
    "translation": "مفوترة",
    "limit": 50,
    "context": "Invoiced"
  },
  "7_hrc": {
    "translation": "متأخرات من أمر",
    "limit": 50,
    "context": "Backorder"
  },
  "7_ib": {
    "translation": "قيد المراجعة",
    "limit": 50,
    "context": "Under revision"
  },
  "7_ksa": {
    "translation": "Invoiced",
    "limit": 50,
    "context": "Invoiced"
  },
  "7_sg": {
    "translation": "Invoiced",
    "limit": 50,
    "context": "Invoiced"
  },
  "8_angliss": {
    "translation": "PartPick",
    "limit": 50,
    "context": "PartPick"
  },
  "8_cfg": {
    "translation": "تم إلغاؤه أثناء الإدخال",
    "limit": 50,
    "context": "Cancelled during entry"
  },
  "8_cp": {
    "translation": "تم إلغاؤه أثناء الإدخال",
    "limit": 50,
    "context": "Cancelled during entry"
  },
  "8_fsuk": {
    "translation": "مفوتر",
    "limit": 50,
    "context": "Invoiced"
  },
  "8_ib": {
    "translation": "تم إلغاؤه",
    "limit": 50,
    "context": "Cancelled"
  },
  "8_pt": {
    "translation": "Invoiced",
    "limit": 50,
    "context": "Invoiced"
  },
  "8_urb": {
    "translation": "Invoiced",
    "limit": 50,
    "context": "Invoiced"
  },
  "98": {
    "translation": "غير معروف",
    "limit": 50,
    "context": "Unrecognised Status"
  },
  "99": {
    "translation": "تم إلغاؤه",
    "limit": 50,
    "context": "Cancelled"
  },
  "98_nz": {
    "translation": "حالة غير معروفة",
    "limit": 50,
    "context": "Unrecognised Status"
  },
  "98_pt": {
    "translation": "Unrecognised Status",
    "limit": 50,
    "context": "Unrecognised Status"
  },
  "99_cim": {
    "translation": "Failed",
    "limit": 50,
    "context": "Failed"
  },
  "99_eli": {
    "translation": "Failed",
    "limit": 50,
    "context": "Failed"
  },
  "99_pt": {
    "translation": "Cancelled",
    "limit": 50,
    "context": "Canceled"
  },
  "9_angliss": {
    "translation": "اكتمل المستودع وتمت فوترته",
    "limit": 50,
    "context": "Warehouse Completed & Invoiced"
  },
  "9_cfg": {
    "translation": "تم إلغاؤه",
    "limit": 50,
    "context": "Cancelled"
  },
  "9_cp": {
    "translation": "تم إلغاؤه",
    "limit": 50,
    "context": "Cancelled"
  },
  "9_sg": {
    "translation": "Rejected",
    "limit": 50,
    "context": "Rejected"
  }
}