{
  "1": {
    "translation": "Superceded",
    "limit": 25,
    "context": "Superceded"
  },
  "2": {
    "translation": "Nav pieejams ",
    "limit": 25,
    "context": "Not Available"
  },
  "3": {
    "translation": "Temp Unavailable",
    "limit": 25,
    "context": "Temp Unavailable"
  },
  "4": {
    "translation": "Nav noliktavā",
    "limit": 25,
    "context": "Out Of Stock"
  },
  "5": {
    "translation": "Short Supply",
    "limit": 25,
    "context": "Short Supply"
  },
  "6": {
    "translation": "On Backorder",
    "limit": 25,
    "context": "On Backorder"
  },
  "7": {
    "translation": "Nav piekļuves kontam",
    "limit": 25,
    "context": "No account access"
  }
}