{
  "1": {
    "translation": "All",
    "limit": 50,
    "context": "All"
  },
  "2": {
    "translation": "Matched",
    "limit": 50,
    "context": "Matched"
  },
  "3": {
    "translation": "Exceptions",
    "limit": 50,
    "context": "Exceptions"
  }
}