{
  "1": {
    "Description": {
      "translation": "Always apply translation",
      "limit": 500
    },
    "TextLabel": {
      "translation": "Always",
      "limit": 15
    }
  },
  "3": {
    "Description": {
      "translation": "Always apply substitution",
      "limit": 500
    },
    "TextLabel": {
      "translation": "Always",
      "limit": 15
    }
  },
  "4": {
    "Description": {
      "translation": "Apply to preferred products only",
      "limit": 500
    },
    "TextLabel": {
      "translation": "Pref Only",
      "limit": 15
    }
  },
  "5": {
    "Description": {
      "translation": "Apply when out of stock unless can back order",
      "limit": 500
    },
    "TextLabel": {
      "translation": "OOS excl B/O",
      "limit": 15
    }
  },
  "6": {
    "Description": {
      "translation": "Apply when item is temporarily unavailable",
      "limit": 500
    },
    "TextLabel": {
      "translation": "Stock N/A",
      "limit": 15
    }
  },
  "7": {
    "Description": {
      "translation": "Apply when out of stock regardless of back order settings",
      "limit": 500
    },
    "TextLabel": {
      "translation": "OOS incl B/O",
      "limit": 15
    }
  },
  "9": {
    "Description": {
      "translation": "Allow excluded products",
      "limit": 500
    },
    "TextLabel": {
      "translation": "Exclusions",
      "limit": 15
    }
  }
}