{
  "1": {
    "Description": {
      "translation": "استخدام الترجمة دائماً",
      "limit": 500
    },
    "TextLabel": {
      "translation": "دائماً",
      "limit": 15
    }
  },
  "3": {
    "Description": {
      "translation": "استخدام الاستبدال دائمًا",
      "limit": 500
    },
    "TextLabel": {
      "translation": "دائماً",
      "limit": 15
    }
  },
  "4": {
    "Description": {
      "translation": "تطبيق على المنتجات المفضلة فقط",
      "limit": 500
    },
    "TextLabel": {
      "translation": "المفضل فقط",
      "limit": 15
    }
  },
  "5": {
    "Description": {
      "translation": "تطبيق عند نفاد المخزون باستثناء المتأخرات",
      "limit": 500
    },
    "TextLabel": {
      "translation": "OOS ما عدا B/O",
      "limit": 15
    }
  },
  "6": {
    "Description": {
      "translation": "الاستخدام عند عدم توفر العنصر مؤقتًا",
      "limit": 500
    },
    "TextLabel": {
      "translation": "مخزون غير متوفر",
      "limit": 15
    }
  },
  "7": {
    "Description": {
      "translation": "تطبيق عند نفاد المخزون بغض النظر عن إعدادات المتأخرات",
      "limit": 500
    },
    "TextLabel": {
      "translation": "OOS مع B/O",
      "limit": 15
    }
  },
  "9": {
    "Description": {
      "translation": "السماح للمنتجات المستبعدة",
      "limit": 500
    },
    "TextLabel": {
      "translation": "استثناءات",
      "limit": 15
    }
  }
}