{
  "-9999": {
    "translation": "DO NOT DELETE OR MODIFY - temporary Lokalise bug fix",
    "limit": 100,
    "context": "DO NOT DELETE OR MODIFY - temporary Lokalise bug fix"
  },
  "-2": {
    "translation": "Alternate",
    "limit": 50,
    "context": "Alternate"
  },
  "-1": {
    "translation": "Alternate",
    "limit": 50,
    "context": "Alternate"
  },
  "0": {
    "translation": "Generic",
    "limit": 50,
    "context": "Generic"
  },
  "1": {
    "translation": "Inner",
    "limit": 50,
    "context": "Inner"
  },
  "2": {
    "translation": "Outer",
    "limit": 50,
    "context": "Outer"
  },
  "3": {
    "translation": "Both",
    "limit": 50,
    "context": "Both"
  },
  "4": {
    "translation": "All",
    "limit": 50,
    "context": "All"
  }
}