{
  "-9999": {
    "translation": "DO NOT DELETE OR MODIFY - temporary Lokalise bug fix",
    "limit": 100,
    "context": "DO NOT DELETE OR MODIFY - temporary Lokalise bug fix"
  },
  "-2": {
    "translation": "Abwechselnd",
    "limit": 50,
    "context": "Alternate"
  },
  "-1": {
    "translation": "Abwechselnd",
    "limit": 50,
    "context": "Alternate"
  },
  "0": {
    "translation": "Allgemein",
    "limit": 50,
    "context": "Generic"
  },
  "1": {
    "translation": " ",
    "limit": 50,
    "context": "Inner"
  },
  "2": {
    "translation": " ",
    "limit": 50,
    "context": "Outer"
  },
  "3": {
    "translation": "Beide",
    "limit": 50,
    "context": "Both"
  },
  "4": {
    "translation": "Alle",
    "limit": 50,
    "context": "All"
  }
}