{
  "1": {
    "translation": "Configuration Id",
    "context": "Configuration Id"
  },
  "2": {
    "translation": "Name",
    "context": "Name"
  },
  "3": {
    "translation": "Last Successful Date",
    "context": "Last Successful Date"
  },
  "4": {
    "translation": "Last Failed Date",
    "context": "Last Failed Date"
  },
  "5": {
    "translation": "Last Failed Error",
    "context": "Last Failed Error"
  },
  "6": {
    "translation": "Order Id",
    "context": "Order Id"
  },
  "7": {
    "translation": "Order Date",
    "context": "Order Date"
  },
  "8": {
    "translation": "User Id",
    "context": "User Id"
  },
  "9": {
    "translation": "Account",
    "context": "Account"
  },
  "10": {
    "translation": "User Name",
    "context": "User Name"
  },
  "11": {
    "translation": "Reference Number",
    "context": "Reference Number"
  },
  "12": {
    "translation": "Delivery Due Date",
    "context": "Delivery Due Date"
  },
  "13": {
    "translation": "Order Time",
    "context": "Order Time"
  },
  "14": {
    "translation": "Order Status",
    "context": "Order Status"
  },
  "15": {
    "translation": "Description",
    "context": "Description"
  },
  "16": {
    "translation": "Admin User Id",
    "context": "Admin User Id"
  },
  "17": {
    "translation": "Account Name",
    "context": "Account Name"
  },
  "18": {
    "translation": "Account Code",
    "context": "Account Code"
  },
  "19": {
    "translation": "Branch",
    "context": "Branch"
  },
  "20": {
    "translation": "Admin User Name",
    "context": "Admin User Name"
  },
  "21": {
    "translation": "Order No",
    "context": "Order No"
  },
  "22": {
    "translation": "Previous Order Status",
    "context": "Previous Order Status"
  },
  "23": {
    "translation": "Standing Order Id",
    "context": "Standing Order Id"
  },
  "24": {
    "translation": "Rep Code",
    "context": "Rep Code"
  },
  "25": {
    "translation": "Rep  Name",
    "context": "Rep  Name"
  },
  "26": {
    "translation": "Branch Description",
    "context": "Branch Description"
  },
  "27": {
    "translation": "Supplier",
    "context": "Supplier"
  },
  "28": {
    "translation": "Total Excl. {{GST}}",
    "context": "Total Excl. {{GST}}"
  },
  "29": {
    "translation": "Account Code",
    "context": "Account Code"
  },
  "30": {
    "translation": "Account Name",
    "context": "Account Name"
  },
  "31": {
    "translation": "Account",
    "context": "Account"
  },
  "32": {
    "translation": "MW Accounts",
    "context": "MW Accounts"
  },
  "33": {
    "translation": "Date Registered",
    "context": "Date Registered"
  },
  "34": {
    "translation": "Login Count",
    "context": "Login Count"
  },
  "35": {
    "translation": "Last Login",
    "context": "Last Login"
  },
  "36": {
    "translation": "Branch Name",
    "context": "Branch Name"
  },
  "37": {
    "translation": "Rep Name",
    "context": "Rep Name"
  },
  "38": {
    "translation": "Sales Category",
    "context": "Sales Category"
  },
  "39": {
    "translation": "Last Standing Order Generated",
    "context": "Last Standing Order Generated"
  },
  "40": {
    "translation": "User ID",
    "context": "User ID"
  },
  "41": {
    "translation": "First Name",
    "context": "First Name"
  },
  "42": {
    "translation": "Last Name",
    "context": "Last Name"
  },
  "43": {
    "translation": "Login ID",
    "context": "Login ID"
  },
  "44": {
    "translation": "Email",
    "context": "Email"
  },
  "45": {
    "translation": "Account Name",
    "context": "Account Name"
  },
  "46": {
    "translation": "User Roles",
    "context": "User Roles"
  },
  "47": {
    "translation": "Account",
    "context": "Account"
  },
  "48": {
    "translation": "MW Accounts",
    "context": "MW Accounts"
  },
  "49": {
    "translation": "Date Registered",
    "context": "Date Registered"
  },
  "50": {
    "translation": "Login Count",
    "context": "Login Count"
  },
  "51": {
    "translation": "Last Login",
    "context": "Last Login"
  },
  "52": {
    "translation": "Branch Name",
    "context": "Branch Name"
  },
  "53": {
    "translation": "Rep Name",
    "context": "Rep Name"
  },
  "54": {
    "translation": "Sales Category",
    "context": "Sales Category"
  },
  "55": {
    "translation": "Last Standing Order Generated",
    "context": "Last Standing Order Generated"
  },
  "56": {
    "translation": "Account Code",
    "context": "Account Code"
  },
  "57": {
    "translation": "Account",
    "context": "Account"
  },
  "58": {
    "translation": "Account Code",
    "context": "Account Code"
  },
  "59": {
    "translation": "Account Name",
    "context": "Account Name"
  },
  "60": {
    "translation": "Customer Group",
    "context": "Customer Group"
  },
  "61": {
    "translation": "Rep Code",
    "context": "Rep Code"
  },
  "62": {
    "translation": "Rep Name",
    "context": "Rep Name"
  },
  "63": {
    "translation": "Branch Code",
    "context": "Branch Code"
  },
  "64": {
    "translation": "Branch Name",
    "context": "Branch Name"
  },
  "65": {
    "translation": "Product Code",
    "context": "Product Code"
  },
  "66": {
    "translation": "Product Description",
    "context": "Product Description"
  },
  "67": {
    "translation": "Brand",
    "context": "Brand"
  },
  "68": {
    "translation": "Pack Size",
    "context": "Pack Size"
  },
  "69": {
    "translation": "Date Entered",
    "context": "Date Entered"
  },
  "70": {
    "translation": "Quantity Required",
    "context": "Quantity Required"
  },
  "71": {
    "translation": "Quantity Reduced",
    "context": "Quantity Reduced"
  },
  "72": {
    "translation": "Quantity On Hand",
    "context": "Quantity On Hand"
  },
  "73": {
    "translation": "ETA Date",
    "context": "ETA Date"
  },
  "74": {
    "translation": "UOM",
    "context": "UOM"
  },
  "75": {
    "translation": "Reason",
    "context": "Reason"
  },
  "76": {
    "translation": "Inv Status",
    "context": "Inv Status"
  },
  "77": {
    "translation": "Lost Value",
    "context": "Lost Value"
  },
  "78": {
    "translation": "Supplier Name",
    "context": "Supplier Name"
  },
  "79": {
    "translation": "Sales Category",
    "context": "Sales Category"
  },
  "80": {
    "translation": "Customer Payment Transaction ID",
    "context": "Customer Payment Transaction ID"
  },
  "81": {
    "translation": "User ID",
    "context": "User ID"
  },
  "82": {
    "translation": "User Name",
    "context": "User Name"
  },
  "83": {
    "translation": "Transaction Date",
    "context": "Transaction Date"
  },
  "84": {
    "translation": "Merchant Transaction Ref",
    "context": "Merchant Transaction Ref"
  },
  "85": {
    "translation": "Successful",
    "context": "Successful"
  },
  "86": {
    "translation": "Bank Receipt No",
    "context": "Bank Receipt No"
  },
  "87": {
    "translation": "Payment Amount",
    "context": "Payment Amount"
  },
  "88": {
    "translation": "CCfeeExcl{{GST}}",
    "context": "CCfeeExcl{{GST}}"
  },
  "89": {
    "translation": "CCfee{{GST}}",
    "context": "CCfee{{GST}}"
  },
  "90": {
    "translation": "Processed By Bidvest",
    "context": "Processed By Bidvest"
  },
  "91": {
    "translation": "Payment Total",
    "context": "Payment Total"
  },
  "92": {
    "translation": "Branch",
    "context": "Branch"
  },
  "93": {
    "translation": "Branch Code",
    "context": "Branch Code"
  },
  "94": {
    "translation": "Branch Name",
    "context": "Branch Name"
  },
  "95": {
    "translation": "Transaction Code",
    "context": "Transaction Code"
  },
  "96": {
    "translation": "Account",
    "context": "Account"
  },
  "97": {
    "translation": "Account Code",
    "context": "Account Code"
  },
  "98": {
    "translation": "Account Name",
    "context": "Account Name"
  },
  "99": {
    "translation": "Display Name",
    "context": "Display Name"
  },
  "100": {
    "translation": "Transaction Guid",
    "context": "Transaction Guid"
  },
  "101": {
    "translation": "Processed By Bank",
    "context": "Processed By Bank"
  },
  "102": {
    "translation": "Gateway Transaction Type",
    "context": "Gateway Transaction Type"
  },
  "103": {
    "translation": "Product List ID",
    "context": "Product List ID"
  },
  "104": {
    "translation": "Branch Name",
    "context": "Branch Name"
  },
  "105": {
    "translation": "Account",
    "context": "Account"
  },
  "106": {
    "translation": "Account Code",
    "context": "Account Code"
  },
  "107": {
    "translation": "Account Name",
    "context": "Account Name"
  },
  "108": {
    "translation": "Accoun Display Name",
    "context": "Accoun Display Name"
  },
  "109": {
    "translation": "Name",
    "context": "Name"
  },
  "110": {
    "translation": "Login ID",
    "context": "Login ID"
  },
  "111": {
    "translation": "Schedule",
    "context": "Schedule"
  },
  "112": {
    "translation": "Schedule Name",
    "context": "Schedule Name"
  },
  "113": {
    "translation": "Standing Order Schedule",
    "context": "Standing Order Schedule"
  },
  "114": {
    "translation": "Frequency",
    "context": "Frequency"
  },
  "115": {
    "translation": "DayOfWeek",
    "context": "DayOfWeek"
  },
  "116": {
    "translation": "StartDate",
    "context": "StartDate"
  },
  "117": {
    "translation": "EndDate",
    "context": "EndDate"
  },
  "118": {
    "translation": "No of Occurrences",
    "context": "No of Occurrences"
  },
  "119": {
    "translation": "Delivery Lead Time",
    "context": "Delivery Lead Time"
  },
  "120": {
    "translation": "Date Last Order Generated",
    "context": "Date Last Order Generated"
  },
  "121": {
    "translation": "Last Active Change Time",
    "context": "Last Active Change Time"
  },
  "122": {
    "translation": "Status",
    "context": "Status"
  },
  "123": {
    "translation": "Enabled",
    "context": "Enabled"
  },
  "124": {
    "translation": "Day",
    "context": "Day"
  },
  "125": {
    "translation": "Report Day Year",
    "context": "Report Day Year"
  },
  "126": {
    "translation": "Report Date",
    "context": "Report Date"
  },
  "127": {
    "translation": "Day Year",
    "context": "Day Year"
  },
  "128": {
    "translation": "Year",
    "context": "Year"
  },
  "129": {
    "translation": "Web Total Excl. Tax",
    "context": "Web Total Excl. Tax"
  },
  "130": {
    "translation": "EDI Total Excl. Tax",
    "context": "EDI Total Excl. Tax"
  },
  "131": {
    "translation": "Mobile Total Excl. Tax",
    "context": "Mobile Total Excl. Tax"
  },
  "132": {
    "translation": "Tio Total Excl. Tax",
    "context": "Tio Total Excl. Tax"
  },
  "133": {
    "translation": "Telesales Total Excl. Tax",
    "context": "Telesales Total Excl. Tax"
  },
  "134": {
    "translation": "Standing Total Excl. Tax",
    "context": "Standing Total Excl. Tax"
  },
  "135": {
    "translation": "Total Excl. Tax",
    "context": "Total Excl. Tax"
  },
  "136": {
    "translation": "Web Total Orders",
    "context": "Web Total Orders"
  },
  "137": {
    "translation": "EDI Total Orders",
    "context": "EDI Total Orders"
  },
  "138": {
    "translation": "Mobile Total Orders",
    "context": "Mobile Total Orders"
  },
  "139": {
    "translation": "Tio Total Orders",
    "context": "Tio Total Orders"
  },
  "140": {
    "translation": "Telesales Total Orders",
    "context": "Telesales Total Orders"
  },
  "141": {
    "translation": "Standing Total Orders",
    "context": "Standing Total Orders"
  },
  "142": {
    "translation": "Total Orders",
    "context": "Total Orders"
  },
  "143": {
    "translation": "Week",
    "context": "Week"
  },
  "144": {
    "translation": "Report Week Year",
    "context": "Report Week Year"
  },
  "145": {
    "translation": "Week Year",
    "context": "Week Year"
  },
  "146": {
    "translation": "Month",
    "context": "Month"
  },
  "147": {
    "translation": "Report Month Year",
    "context": "Report Month Year"
  },
  "148": {
    "translation": "Month Year",
    "context": "Month Year"
  },
  "149": {
    "translation": "Report Year",
    "context": "Report Year"
  },
  "150": {
    "translation": "EDI Order Error Id",
    "context": "EDI Order Error Id"
  },
  "151": {
    "translation": "Branch Code",
    "context": "Branch Code"
  },
  "152": {
    "translation": "Display Name",
    "context": "Display Name"
  },
  "153": {
    "translation": "Account Code",
    "context": "Account Code"
  },
  "154": {
    "translation": "Account Name",
    "context": "Account Name"
  },
  "155": {
    "translation": "Error Description",
    "context": "Error Description"
  },
  "156": {
    "translation": "Product Item Code",
    "context": "Product Item Code"
  },
  "157": {
    "translation": "UOM",
    "context": "UOM"
  },
  "158": {
    "translation": "Description",
    "context": "Description"
  },
  "159": {
    "translation": "PackSize",
    "context": "PackSize"
  },
  "160": {
    "translation": "Warehouse Code",
    "context": "Warehouse Code"
  },
  "161": {
    "translation": "Order Date",
    "context": "Order Date"
  },
  "162": {
    "translation": "EDI Log Time",
    "context": "EDI Log Time"
  },
  "163": {
    "translation": "Unique Id",
    "context": "Unique Id"
  },
  "164": {
    "translation": "Quantity",
    "context": "Quantity"
  },
  "165": {
    "translation": "Quantity Supplied",
    "context": "Quantity Supplied"
  },
  "166": {
    "translation": "3PTransactionType",
    "context": "3PTransactionType"
  },
  "167": {
    "translation": "Login ID",
    "context": "Login ID"
  },
  "168": {
    "translation": "Account",
    "context": "Account"
  },
  "169": {
    "translation": "Customer Group",
    "context": "Customer Group"
  },
  "170": {
    "translation": "Warehouse",
    "context": "Warehouse"
  },
  "171": {
    "translation": "Branch",
    "context": "Branch"
  },
  "172": {
    "translation": "Sales Rep",
    "context": "Sales Rep"
  },
  "173": {
    "translation": "Sales Category",
    "context": "Sales Category"
  },
  "174": {
    "translation": "Inventory Group",
    "context": "Inventory Group"
  },
  "175": {
    "translation": "Product",
    "context": "Product"
  },
  "176": {
    "translation": "Inv Status",
    "context": "Inv Status"
  },
  "177": {
    "translation": "UOM",
    "context": "UOM"
  },
  "178": {
    "translation": "Pack Size",
    "context": "Pack Size"
  },
  "179": {
    "translation": "Brand",
    "context": "Brand"
  },
  "180": {
    "translation": "Supplier",
    "context": "Supplier"
  },
  "181": {
    "translation": "ETA Date - Requested",
    "context": "ETA Date - Requested"
  },
  "182": {
    "translation": "ETA Date - Current",
    "context": "ETA Date - Current"
  },
  "183": {
    "translation": "Date Created",
    "context": "Date Created"
  },
  "184": {
    "translation": "Date Updated",
    "context": "Date Updated"
  },
  "185": {
    "translation": "Status",
    "context": "Status"
  },
  "186": {
    "translation": "Last Name",
    "context": "Last Name"
  },
  "187": {
    "translation": "First Name",
    "context": "First Name"
  },
  "188": {
    "translation": "Login ID",
    "context": "Login ID"
  },
  "189": {
    "translation": "Phone",
    "context": "Phone"
  },
  "190": {
    "translation": "Mobile",
    "context": "Mobile"
  },
  "191": {
    "translation": "Email Address",
    "context": "Email Address"
  },
  "192": {
    "translation": "Account",
    "context": "Account"
  },
  "193": {
    "translation": "Branch",
    "context": "Branch"
  },
  "194": {
    "translation": "Role",
    "context": "Role"
  },
  "195": {
    "translation": "Work Area",
    "context": "Work Area"
  },
  "196": {
    "translation": "Rep Name",
    "context": "Rep Name"
  },
  "197": {
    "translation": "Supplier",
    "context": "Supplier"
  },
  "198": {
    "translation": "Last Login",
    "context": "Last Login"
  },
  "199": {
    "translation": "Date Created",
    "context": "Date Created"
  },
  "200": {
    "translation": "Customer",
    "context": "Customer"
  },
  "201": {
    "translation": "Customer Group",
    "context": "Customer Group"
  },
  "202": {
    "translation": "Branch Group",
    "context": "Branch Group"
  },
  "203": {
    "translation": "Rep Code",
    "context": "Rep Code"
  },
  "204": {
    "translation": "Locked",
    "context": "Locked"
  },
  "205": {
    "translation": "Shadow Enabled",
    "context": "Shadow Enabled"
  },
  "206": {
    "translation": "Is EDI User",
    "context": "Is EDI User"
  },
  "207": {
    "translation": "Is Active",
    "context": "Is Active"
  },
  "208": {
    "translation": "Has Logged In",
    "context": "Has Logged In"
  },
  "209": {
    "translation": "BidIQ Total Excl. Tax",
    "context": "Purchase Order Id"
  },
  "210": {
    "translation": "BidIQ Total Orders",
    "context": "BidIQ Total Orders"
  },
  "211": {
    "translation": "Sales Rep",
    "context": "Sales Rep"
  },
  "212": {
    "translation": "Bidfood Code",
    "context": "SITEZA Product Description"
  },
  "213": {
    "translation": "Description",
    "context": "Description"
  },
  "214": {
    "translation": "Brand",
    "context": "Brand"
  },
  "215": {
    "translation": "Pack",
    "context": "Pack"
  },
  "216": {
    "translation": "UOM",
    "context": "UOM"
  },
  "217": {
    "translation": "Supplier Code",
    "context": "SupplierCode"
  },
  "218": {
    "translation": "Total",
    "context": "Total"
  },
  "219": {
    "translation": "Bidfood product code",
    "context": "Bidfood product code"
  },
  "220": {
    "translation": "Supplier item code",
    "context": "Supplier item code"
  },
  "221": {
    "translation": "Product Description",
    "context": "Product Description"
  },
  "222": {
    "translation": "Brand",
    "context": "Brand"
  },
  "223": {
    "translation": "Brand Description",
    "context": "BrandDescription"
  },
  "224": {
    "translation": "Pack Size",
    "context": "Pack Size"
  },
  "225": {
    "translation": "UOM",
    "context": "UOM"
  },
  "226": {
    "translation": "Total",
    "context": "Total"
  },
  "227": {
    "translation": "State",
    "context": "State"
  },
  "228": {
    "translation": "Branch",
    "context": "Branch"
  },
  "229": {
    "translation": "Warehouse",
    "context": "Warehouse"
  },
  "230": {
    "translation": "Industry Category Name",
    "context": "Industry Category Name"
  },
  "231": {
    "translation": "Industry Group",
    "context": "Industry Group"
  },
  "232": {
    "translation": "Product Sales Category Name",
    "context": "Product Sales Category Name"
  },
  "233": {
    "translation": "Product Sales Sub-Category Name",
    "context": "Product Sales Sub-Category Name"
  },
  "234": {
    "translation": "OPRI Product",
    "context": "OPRI Product"
  },
  "235": {
    "translation": "Online Sale",
    "context": "Online Sale"
  },
  "9000": {
    "translation": "AU stock report Brand",
    "context": "Site_AU_214_Brand"
  },
  "9001": {
    "translation": "ZA stock report Brand",
    "context": "Site_ZA_214_Warehouse"
  },
  "9002": {
    "translation": "AU sellthru report Brand",
    "context": "Site_AU_222_Brand"
  },
  "9003": {
    "translation": "ZA sellthru report Brand",
    "context": "Site_ZA_222_Warehouse"
  },
  "9004": {
    "translation": "NZ sellthru report Brand TEST",
    "context": "Site_NZ_222_Brand"
  },
  "9005": {
    "translation": "NZ stock report Branch TEST",
    "context": "Site_NZ_216_UOM"
  },
  "9006": {
    "translation": "BR Bidfood code TEST",
    "context": "Site_BR_212_Bidfood Code"
  },
  "9007": {
    "translation": "ZA Bidfood code TEST",
    "context": "Site_ZA_212_Bidfood Code"
  },
  "9008": {
    "translation": "ZA Bidfood P code TEST",
    "context": "Site_ZA_219_Bidfood Product Code"
  },
  "9009": {
    "translation": "BR Bidfood P code TEST",
    "context": "Site_BR_219_Bidfood product Code"
  },
  "9010": {
    "translation": "NZ Warehouse sell thru TEST",
    "context": "Site_NZ_219_Bidfood Product Code"
  }
}