{
  "B": {
    "translation": "Product",
    "limit": 50,
    "context": "Product"
  },
  "E": {
    "translation": "All Excluding Product & Price",
    "limit": 50,
    "context": "All Excluding Product & Price"
  },
  "P": {
    "translation": "Price",
    "limit": 50,
    "context": "Price"
  }
}