{
  "1_1": {
    "translation": "When entering manual ingredients, please ensure all information is entered so that it matches the product’s packaging label exactly. This product information and any associated pricing should be checked each time it is used in a recipe, as manufacturers can alter their products and pricing at any time. As an example, this could cause the allergen declaration in a recipe to be incorrect, if not kept up to date.",
    "limit": 500,
    "context": "When entering manual ingredients, please ensure all information is entered so that it matches the product’s packaging label exactly. This product information and any associated pricing should be checked each time it is used in a recipe, as manufacturers can alter their products and pricing at any time. As an example, this could cause the allergen declaration in a recipe to be incorrect, if not kept up to date."
  },
  "1_1_fsuk": {
    "translation": "When entering manual ingredients, ensure all information is entered so that it matches the product’s packaging exactly. You must check this information and any associated pricing each time it is used in a recipe as manufacturers can alter their products and pricing at any time. As an example, this could cause the allergen declaration in a recipe to be incorrect, if not kept up to date. It is the user’s responsibility to provide accurate information for manual ingredients, including allergens.",
    "limit": 500,
    "context": "When entering manual ingredients, please ensure all information is entered so that it matches the product’s packaging label exactly. This product information and any associated pricing should be checked each time it is used in a recipe, as manufacturers can alter their products and pricing at any time. As an example, this could cause the allergen declaration in a recipe to be incorrect, if not kept up to date."
  }
}