{
  "1": {
    "translation": "Leer",
    "limit": 100,
    "context": "Individual Invoices"
  },
  "2": {
    "translation": "Offener Betrag",
    "limit": 100,
    "context": "Outstanding Balance"
  },
  "3": {
    "translation": "Leer",
    "limit": 100,
    "context": "Overdue Balance"
  },
  "4": {
    "translation": "Anderer Betrag",
    "limit": 100,
    "context": "Other Amount"
  }
}