{
  "1": {
    "translation": "Individual Invoices",
    "limit": 100,
    "context": "Individual Invoices"
  },
  "2": {
    "translation": "Outstanding Balance",
    "limit": 100,
    "context": "Outstanding Balance"
  },
  "3": {
    "translation": "Overdue Balance",
    "limit": 100,
    "context": "Overdue Balance"
  },
  "4": {
    "translation": "Other Amount",
    "limit": 100,
    "context": "Other Amount"
  }
}