{
  "1": {
    "translation": "فواتير فردية",
    "limit": 100,
    "context": "Individual Invoices"
  },
  "2": {
    "translation": "الرصيد المتبقي",
    "limit": 100,
    "context": "Outstanding Balance"
  },
  "3": {
    "translation": "رصيد متأخر",
    "limit": 100,
    "context": "Overdue Balance"
  },
  "4": {
    "translation": "مبلغ آخر",
    "limit": 100,
    "context": "Other Amount"
  }
}