{
  "1": {
    "translation": "Facturas individuales",
    "limit": 100,
    "context": "Individual Invoices"
  },
  "2": {
    "translation": "Saldo pendiente",
    "limit": 100,
    "context": "Outstanding Balance"
  },
  "3": {
    "translation": "Saldo vencido",
    "limit": 100,
    "context": "Overdue Balance"
  },
  "4": {
    "translation": "Otra cantidad",
    "limit": 100,
    "context": "Other Amount"
  }
}