{
  "A": {
    "O": {
      "translation": "Onaylayıcı tarafından onaylanan sepet",
      "limit": 50,
      "context": "Basket approved by approver"
    },
    "P": {
      "translation": "Onaylayıcı tarafından onaylanan ödeme",
      "limit": 50,
      "context": "Payment approved by approver"
    }
  },
  "D": {
    "O": {
      "translation": "Sepet onaylayıcı tarafından reddedildi",
      "limit": 50,
      "context": "Basket declined by approver"
    },
    "P": {
      "translation": "Ödeme onaylayıcı tarafından reddedildi",
      "limit": 50,
      "context": "Payment declined by approver"
    }
  },
  "E": {
    "O": {
      "translation": "Onay zaman aşımı yükseltmesi işleme alındı",
      "limit": 50,
      "context": "Approval timeout escalation actioned"
    },
    "P": {
      "translation": "Onay zaman aşımı yükseltmesi işleme alındı",
      "limit": 50,
      "context": "Approval timeout escalation actioned"
    }
  },
  "L": {
    "O": {
      "translation": "Sepet düzenleme için kilitlendi",
      "limit": 50,
      "context": "Basket locked for editing"
    }
  },
  "M": {
    "O": {
      "translation": "Onaylayan tarafından sepet değiştirildi",
      "limit": 50,
      "context": "Basket modified by approver"
    }
  },
  "O": {
    "O": {
      "translation": "Onaylanan sepetten sipariş oluşturuldu",
      "limit": 50,
      "context": "Order created from approved basket"
    }
  },
  "R": {
    "O": {
      "translation": "Onay hatırlatıcısı aktifleştirildi",
      "limit": 50,
      "context": "Approval reminder actioned"
    },
    "P": {
      "translation": "Onay hatırlatıcısı aktifleştirildi",
      "limit": 50,
      "context": "Approval reminder actioned"
    }
  },
  "S": {
    "O": {
      "translation": "Sepet onaya sunuldu",
      "limit": 50,
      "context": "Basket submitted for approval"
    },
    "P": {
      "translation": "Ödeme onaya sunuldu",
      "limit": 50,
      "context": "Payment submitted for approval"
    }
  },
  "U": {
    "O": {
      "translation": "Sepet kilidi açıldı",
      "limit": 50,
      "context": "Basket unlocked"
    }
  }
}