{
  "A": {
    "O": {
      "translation": "Basket approved by approver",
      "limit": 50,
      "context": "Basket approved by approver"
    },
    "P": {
      "translation": "Payment approved by approver",
      "limit": 50,
      "context": "Payment approved by approver"
    }
  },
  "D": {
    "O": {
      "translation": "Basket declined by approver",
      "limit": 50,
      "context": "Basket declined by approver"
    },
    "P": {
      "translation": "Payment declined by approver",
      "limit": 50,
      "context": "Payment declined by approver"
    }
  },
  "E": {
    "O": {
      "translation": "Approval timeout escalation actioned",
      "limit": 50,
      "context": "Approval timeout escalation actioned"
    },
    "P": {
      "translation": "Approval timeout escalation actioned",
      "limit": 50,
      "context": "Approval timeout escalation actioned"
    }
  },
  "L": {
    "O": {
      "translation": "Basket locked for editing",
      "limit": 50,
      "context": "Basket locked for editing"
    }
  },
  "M": {
    "O": {
      "translation": "Basket modified by approver",
      "limit": 50,
      "context": "Basket modified by approver"
    }
  },
  "O": {
    "O": {
      "translation": "Order created from approved basket",
      "limit": 50,
      "context": "Order created from approved basket"
    }
  },
  "R": {
    "O": {
      "translation": "Approval reminder actioned",
      "limit": 50,
      "context": "Approval reminder actioned"
    },
    "P": {
      "translation": "Approval reminder actioned",
      "limit": 50,
      "context": "Approval reminder actioned"
    }
  },
  "S": {
    "O": {
      "translation": "Basket submitted for approval",
      "limit": 50,
      "context": "Basket submitted for approval"
    },
    "P": {
      "translation": "Payment submitted for approval",
      "limit": 50,
      "context": "Payment submitted for approval"
    }
  },
  "U": {
    "O": {
      "translation": "Basket unlocked",
      "limit": 50,
      "context": "Basket unlocked"
    }
  }
}