{
  "CLP": {
    "translation": "Categorie / Lijn / Product Desc",
    "limit": 60,
    "context": "Category/Line/Product Desc"
  },
  "CP": {
    "translation": "Categorie / productomschrijving",
    "limit": 60,
    "context": "Category/ Product Desc"
  },
  "I": {
    "translation": "Productcode",
    "limit": 60,
    "context": "Product Code"
  },
  "ICCP": {
    "translation": "Voorraadcategorie/Categorie/Productbeschrijving",
    "limit": 60,
    "context": "Inventory Category/Category/Product Description"
  },
  "ICLP": {
    "translation": "Voorraadcategorie/Lijn/Productbeschrijving",
    "limit": 60,
    "context": "Inventory Category/Line/Product Description"
  },
  "ICP": {
    "translation": "Voorraadcategorie/Productbeschrijving",
    "limit": 60,
    "context": "Inventory Category/Product Description"
  },
  "LP": {
    "translation": "Lijn / Product Desc",
    "limit": 60,
    "context": "Line/Product Desc"
  },
  "MP": {
    "translation": "Handleiding / Productbeschrijving",
    "limit": 60,
    "context": "Manual/Product Desc"
  },
  "P": {
    "translation": "Product Beschrijving",
    "limit": 60,
    "context": "Product Desc"
  }
}