{
  "CLP": {
    "translation": "Tipas/Grupė/Aprašymas",
    "limit": 60,
    "context": "Category/Line/Product Desc"
  },
  "CP": {
    "translation": "Tipas/Prek. Pavad.",
    "limit": 60,
    "context": "Category/ Product Desc"
  },
  "I": {
    "translation": "Prek. Kodas",
    "limit": 60,
    "context": "Product Code"
  },
  "ICCP": {
    "translation": "Grupe / Tipas / Prek. Pavad.",
    "limit": 60,
    "context": "Inventory Category/Category/Product Description"
  },
  "ICLP": {
    "translation": "Grupe / Tipas / Prek. Pavad.",
    "limit": 60,
    "context": "Inventory Category/Line/Product Description"
  },
  "ICP": {
    "translation": "Grupe / Prek. Pavad.",
    "limit": 60,
    "context": "Inventory Category/Product Description"
  },
  "LP": {
    "translation": "Eilutė/Prek. pavad.",
    "limit": 60,
    "context": "Line/Product Desc"
  },
  "MP": {
    "translation": "Rank. / Prek. Pavad.",
    "limit": 60,
    "context": "Manual/Product Desc"
  },
  "P": {
    "translation": "Prek. Pavad.",
    "limit": 60,
    "context": "Product Desc"
  }
}