{
  "1": {
    "translation": "Financeiro e Administrativo",
    "limit": 50,
    "context": "Finance and Administration"
  },
  "10": {
    "translation": "Proprietário",
    "limit": 50,
    "context": "Business Owner"
  },
  "2": {
    "translation": "Vendas e Marketing",
    "limit": 50,
    "context": "Sales and Marketing"
  },
  "11": {
    "translation": "Fornecedor/Fabricante",
    "limit": 50,
    "context": "Supplier/Manufacturer"
  },
  "12": {
    "translation": "Equipe de Logística Bidfood",
    "limit": 50,
    "context": "Bidvest Logistics Staff"
  },
  "3": {
    "translation": "Chef Executivo",
    "limit": 50,
    "context": "Executive Chef"
  },
  "4": {
    "translation": "Gerente da Cozinha",
    "limit": 50,
    "context": "Kitchen Manager"
  },
  "5": {
    "translation": "Equipe da Cozinha",
    "limit": 50,
    "context": "Kitchen Staff"
  },
  "6": {
    "translation": "Gestão",
    "limit": 50,
    "context": "Management"
  },
  "7": {
    "translation": "Outro",
    "limit": 50,
    "context": "Other"
  },
  "8": {
    "translation": "Equipe Bidfood",
    "limit": 50,
    "context": "Bidvest Staff"
  },
  "9": {
    "translation": "Comprando",
    "limit": 50,
    "context": "Purchasing"
  },
  "8_au": {
    "translation": "Equipe Bidfood",
    "limit": 50,
    "context": "Bidfood Staff"
  }
}