{
  "1": {
    "translation": "Finanzas y Administración",
    "limit": 50,
    "context": "Finance and Administration"
  },
  "10": {
    "translation": "Business Owner",
    "limit": 50,
    "context": "Business Owner"
  },
  "2": {
    "translation": "Ventas y marketing",
    "limit": 50,
    "context": "Sales and Marketing"
  },
  "11": {
    "translation": "Supplier/Manufacturer",
    "limit": 50,
    "context": "Supplier/Manufacturer"
  },
  "12": {
    "translation": "Bidvest Logistics Staff",
    "limit": 50,
    "context": "Bidvest Logistics Staff"
  },
  "3": {
    "translation": "Chef ejecutivo",
    "limit": 50,
    "context": "Executive Chef"
  },
  "4": {
    "translation": "Gerente de Cocina",
    "limit": 50,
    "context": "Kitchen Manager"
  },
  "5": {
    "translation": "Personal de cocina",
    "limit": 50,
    "context": "Kitchen Staff"
  },
  "6": {
    "translation": "Administración",
    "limit": 50,
    "context": "Management"
  },
  "7": {
    "translation": "Otro",
    "limit": 50,
    "context": "Other"
  },
  "8": {
    "translation": "Bidvest Staff",
    "limit": 50,
    "context": "Bidvest Staff"
  },
  "9": {
    "translation": "Purchasing",
    "limit": 50,
    "context": "Purchasing"
  },
  "8_au": {
    "translation": "Personal de Bidfood",
    "limit": 50,
    "context": "Bidfood Staff"
  }
}