{
  "1": {
    "translation": "Artificial colours",
    "limit": 100,
    "context": "Artificial colours"
  },
  "2": {
    "translation": "Artificial flavours",
    "limit": 100,
    "context": "Artificial flavours"
  },
  "3": {
    "translation": "Aspartame",
    "limit": 100,
    "context": "Aspartame"
  },
  "4": {
    "translation": "Bee Pollen",
    "limit": 100,
    "context": "Bee Pollen"
  },
  "5": {
    "translation": "Caffeine",
    "limit": 100,
    "context": "Caffeine"
  },
  "6": {
    "translation": "Crustacea and their products (incl. Shellfish (Mol",
    "limit": 100,
    "context": "Crustacea and their products"
  },
  "7": {
    "translation": "Egg and Egg Products",
    "limit": 100,
    "context": "Egg and Egg Products"
  },
  "8": {
    "translation": "Evaporated Milk, Dried Milk made from Soy or Cerea",
    "limit": 100,
    "context": "Evaporated Milk, Dried Milk"
  },
  "9": {
    "translation": "Fish and Fish Products",
    "limit": 100,
    "context": "Fish and Fish Products"
  },
  "10": {
    "translation": "Gluten (Cereals containing Wheat, Rye, Barley, Oat",
    "limit": 100,
    "context": "Gluten"
  },
  "11": {
    "translation": "Guarana or extracts of Guarana",
    "limit": 100,
    "context": "Guarana or extracts of"
  },
  "12": {
    "translation": "Lupine",
    "limit": 100,
    "context": "Lupine"
  },
  "13": {
    "translation": "Milk and Milk Products",
    "limit": 100,
    "context": "Milk or Milk Products"
  },
  "14": {
    "translation": "MSG",
    "limit": 100,
    "context": "MSG"
  },
  "15": {
    "translation": "Peanuts and Peanut Products",
    "limit": 100,
    "context": "Peanuts and Peanut Oil"
  },
  "16": {
    "translation": "Phytosterol, Phytostanols and Esters",
    "limit": 100,
    "context": "Phytosterol Esters"
  },
  "17": {
    "translation": "Propolis",
    "limit": 100,
    "context": "Propolis"
  },
  "18": {
    "translation": "Quinine",
    "limit": 100,
    "context": "Quinine"
  },
  "19": {
    "translation": "Royal Jelly",
    "limit": 100,
    "context": "Royal Jelly"
  },
  "20": {
    "translation": "Sesame Seeds and Sesame Seed Products",
    "limit": 100,
    "context": "Sesame"
  },
  "21": {
    "translation": "Soybean and Soybean Products",
    "limit": 100,
    "context": "Soybeans or Soybean Oil"
  },
  "22": {
    "translation": "Sulphur Dioxide and Suphites in concentrations > 1",
    "limit": 100,
    "context": "Sulphites"
  },
  "23": {
    "translation": "Unpasteurised Egg Products",
    "limit": 100,
    "context": "Unpasteurised Egg Products"
  },
  "24": {
    "translation": "Leche sin Pasteurizar y Productos Lácteos",
    "limit": 100,
    "context": "Unpasteurised Milk and Milk Products"
  },
  "25": {
    "translation": "Tree Nuts and Tree Nut Products",
    "limit": 100,
    "context": "Tree Nuts and Tree Nut Products"
  },
  "27": {
    "translation": "Dietetic",
    "limit": 100,
    "context": "Dietetic"
  },
  "28": {
    "translation": "GMO Free",
    "limit": 100,
    "context": "GMO Free"
  },
  "29": {
    "translation": "Halal Certified",
    "limit": 100,
    "context": "Halal Certified"
  },
  "30": {
    "translation": "Halal Suitable",
    "limit": 100,
    "context": "Halal Suitable"
  },
  "31": {
    "translation": "Heart Foundation Tick",
    "limit": 100,
    "context": "Heart Foundation"
  },
  "32": {
    "translation": "Kosher Certified",
    "limit": 100,
    "context": "Kosher Certified"
  },
  "33": {
    "translation": "Kosher Suitable",
    "limit": 100,
    "context": "Kosher Suitable"
  },
  "34": {
    "translation": "Low Fat",
    "limit": 100,
    "context": "Low Fat"
  },
  "35": {
    "translation": "Low Salt",
    "limit": 100,
    "context": "Low Salt"
  },
  "36": {
    "translation": "Organic",
    "limit": 100,
    "context": "Organic"
  },
  "37": {
    "translation": "Palm Oil Free",
    "limit": 100,
    "context": "Palm Oil Free"
  },
  "38": {
    "translation": "Reduced Sugar",
    "limit": 100,
    "context": "Reduced Sugar"
  },
  "39": {
    "translation": "Vegan",
    "limit": 100,
    "context": "Vegan"
  },
  "40": {
    "translation": "Vegetarian",
    "limit": 100,
    "context": "Vegetarian"
  },
  "41": {
    "translation": "Without Beef",
    "limit": 100,
    "context": "Without Beef"
  },
  "42": {
    "translation": "Without Pork",
    "limit": 100,
    "context": "Without Pork"
  },
  "43": {
    "translation": "Bakery",
    "limit": 100,
    "context": "Bakery"
  },
  "44": {
    "translation": "Beverage",
    "limit": 100,
    "context": "Beverage"
  },
  "45": {
    "translation": "Breakfast",
    "limit": 100,
    "context": "Breakfast"
  },
  "46": {
    "translation": "Condiment",
    "limit": 100,
    "context": "Condiment"
  },
  "47": {
    "translation": "Dessert",
    "limit": 100,
    "context": "Dessert"
  },
  "48": {
    "translation": "Finger food",
    "limit": 100,
    "context": "Finger food"
  },
  "49": {
    "translation": "Flavour",
    "limit": 100,
    "context": "Food Flavour"
  },
  "50": {
    "translation": "Light meal",
    "limit": 100,
    "context": "Light meal"
  },
  "51": {
    "translation": "Main meal",
    "limit": 100,
    "context": "Main meal"
  },
  "52": {
    "translation": "Preparation required",
    "limit": 100,
    "context": "Preparation required"
  },
  "53": {
    "translation": "Biodegradable",
    "limit": 100,
    "context": "Biodegradable"
  },
  "54": {
    "translation": "Organic Certified",
    "limit": 100,
    "context": "Organic Certified"
  },
  "55": {
    "translation": "Septic Tank Safe",
    "limit": 100,
    "context": "Septic Tank Safe"
  },
  "56": {
    "translation": "Almonds",
    "limit": 100,
    "context": "Almonds"
  },
  "57": {
    "translation": "Barley",
    "limit": 100,
    "context": "Barley"
  },
  "58": {
    "translation": "Brazil nuts",
    "limit": 100,
    "context": "Brazil nuts"
  },
  "59": {
    "translation": "Cashews",
    "limit": 100,
    "context": "Cashews"
  },
  "60": {
    "translation": "Celery or Celeriac",
    "limit": 100,
    "context": "Celery or Celeriac"
  },
  "61": {
    "translation": "Crustaceans",
    "limit": 100,
    "context": "Crustaceans"
  },
  "62": {
    "translation": "Hazelnuts",
    "limit": 100,
    "context": "Hazelnuts"
  },
  "63": {
    "translation": "Macadamia",
    "limit": 100,
    "context": "Macadamia"
  },
  "64": {
    "translation": "Molluscs",
    "limit": 100,
    "context": "Molluscs"
  },
  "65": {
    "translation": "Mustard",
    "limit": 100,
    "context": "Mustard"
  },
  "66": {
    "translation": "Oat",
    "limit": 100,
    "context": "Oat"
  },
  "67": {
    "translation": "Pecan nuts",
    "limit": 100,
    "context": "Pecan nuts"
  },
  "68": {
    "translation": "Pistachios",
    "limit": 100,
    "context": "Pistachios"
  },
  "69": {
    "translation": "Rye",
    "limit": 100,
    "context": "Rye"
  },
  "70": {
    "translation": "Walnuts",
    "limit": 100,
    "context": "Walnuts"
  },
  "71": {
    "translation": "Wheat",
    "limit": 100,
    "context": "Wheat"
  },
  "72": {
    "translation": "Suitable for Lactose Intolerance",
    "limit": 100,
    "context": "Suitable for Lactose Intolerance"
  },
  "73": {
    "translation": "Savoury",
    "limit": 100,
    "context": "Food Flavour:2"
  },
  "74": {
    "translation": "Sweet",
    "limit": 100,
    "context": "Food Flavour:3"
  },
  "75": {
    "translation": "MSC",
    "limit": 100,
    "context": "MSC"
  },
  "76": {
    "translation": "Bio",
    "limit": 100,
    "context": "Bio"
  },
  "77": {
    "translation": "Gluten Free",
    "limit": 100,
    "context": "Gluten Free"
  },
  "78": {
    "translation": "Organic Agriculture",
    "limit": 100,
    "context": "Organic Agriculture"
  },
  "79": {
    "translation": "ASC",
    "limit": 100,
    "context": "ASC"
  },
  "80": {
    "translation": "Portion",
    "limit": 100,
    "context": "Portion"
  },
  "81": {
    "translation": "Small packaging",
    "limit": 100,
    "context": "Small packaging"
  },
  "82": {
    "translation": "Big packaging",
    "limit": 100,
    "context": "Big packaging"
  },
  "83": {
    "translation": "To cook",
    "limit": 100,
    "context": "To cook"
  },
  "84": {
    "translation": "To spread",
    "limit": 100,
    "context": "To spread"
  },
  "85": {
    "translation": "Blanched",
    "limit": 100,
    "context": "Blanched"
  },
  "86": {
    "translation": "IGP",
    "limit": 100,
    "context": "IGP"
  },
  "87": {
    "translation": "Ecolabel",
    "limit": 100,
    "context": "Ecolabel"
  },
  "88": {
    "translation": "AOC",
    "limit": 100,
    "context": "AOC"
  },
  "89": {
    "translation": "Queensland Nuts",
    "limit": 100,
    "context": "Queensland Nuts"
  },
  "90": {
    "translation": "Corn",
    "limit": 100,
    "context": "Corn"
  },
  "91": {
    "translation": "Hand",
    "limit": 100,
    "context": "Hand"
  },
  "92": {
    "translation": "Lactose",
    "limit": 100,
    "context": "Lactose"
  },
  "93": {
    "translation": "Dairy products (lactose)",
    "limit": 100,
    "context": "Dairy products (lactose)"
  },
  "94": {
    "translation": "Nut",
    "limit": 100,
    "context": "Nut"
  },
  "95": {
    "translation": "Otro gluten",
    "limit": 100,
    "context": "Other gluten"
  },
  "96": {
    "translation": "Deletreado",
    "limit": 100,
    "context": "Spelled"
  },
  "97": {
    "translation": "Semillas de girasol",
    "limit": 100,
    "context": "Sun-flower seeds"
  },
  "98": {
    "translation": "Cortar",
    "limit": 100,
    "context": "Cuit"
  },
  "99": {
    "translation": "Ayuda culinaria - Deshidratado",
    "limit": 100,
    "context": "Culinary Aid - Dehydrated"
  },
  "100": {
    "translation": "Ayuda culinaria - Molido",
    "limit": 100,
    "context": "Culinary aid - Ground"
  },
  "101": {
    "translation": "Ayuda culinaria - Líquido",
    "limit": 100,
    "context": "Culinary aid - Liquid"
  },
  "102": {
    "translation": "Ayuda culinaria - Masa",
    "limit": 100,
    "context": "Culinary aid - Dough"
  },
  "103": {
    "translation": "Ayuda culinaria - Sin moler",
    "limit": 100,
    "context": "Culinary Aid - Unground"
  },
  "104": {
    "translation": "Pescado - Deshuesado",
    "limit": 100,
    "context": "Fish - Boned"
  },
  "105": {
    "translation": "Pescado - Sin espinas",
    "limit": 100,
    "context": "Fish - Boneless"
  },
  "106": {
    "translation": "Pescado - Sin espinas",
    "limit": 100,
    "context": "Fish - Boneless"
  },
  "107": {
    "translation": "Pescado - Sin piel",
    "limit": 100,
    "context": "Fish - Skinless"
  },
  "108": {
    "translation": "Pescado - Con piel",
    "limit": 100,
    "context": "Fish - With skin"
  },
  "109": {
    "translation": "Fruta - Sin jarabe",
    "limit": 100,
    "context": "Fruit - Without syrup"
  },
  "110": {
    "translation": "Ensalada de frutas",
    "limit": 100,
    "context": "Fruit salad"
  },
  "111": {
    "translation": "Frutas en almíbar",
    "limit": 100,
    "context": "Fruits in syrup"
  },
  "112": {
    "translation": "Frutas - A l'eau",
    "limit": 100,
    "context": "Fruits - A l'eau"
  },
  "113": {
    "translation": "Precocido",
    "limit": 100,
    "context": "Precooked"
  },
  "114": {
    "translation": "Pedido Anticipado",
    "limit": 100,
    "context": "Pre-pushed"
  },
  "115": {
    "translation": "Cru",
    "limit": 100,
    "context": "Cru"
  },
  "116": {
    "translation": "Verduras crudas",
    "limit": 100,
    "context": "Raw vegetables"
  },
  "117": {
    "translation": "Ready to garnish - Salty",
    "limit": 100,
    "context": "Ready to garnish - Salty"
  },
  "118": {
    "translation": "Ready to garnish - Sweet",
    "limit": 100,
    "context": "Ready to garnish - Sweet"
  },
  "119": {
    "translation": "Cooked to heart",
    "limit": 100,
    "context": "Cooked to heart"
  },
  "120": {
    "translation": "Sac",
    "limit": 100,
    "context": "Sac"
  },
  "121": {
    "translation": "Barre",
    "limit": 100,
    "context": "Barre"
  },
  "122": {
    "translation": "BIB",
    "limit": 100,
    "context": "BIB"
  },
  "123": {
    "translation": "Bloc",
    "limit": 100,
    "context": "Bloc"
  },
  "124": {
    "translation": "Bottle",
    "limit": 100,
    "context": "Bottle"
  },
  "125": {
    "translation": "Box",
    "limit": 100,
    "context": "Box"
  },
  "126": {
    "translation": "Bucket",
    "limit": 100,
    "context": "Bucket"
  },
  "127": {
    "translation": "Vrac",
    "limit": 100,
    "context": "Vrac"
  },
  "128": {
    "translation": "Conserve",
    "limit": 100,
    "context": "Conserve"
  },
  "129": {
    "translation": "Cup",
    "limit": 100,
    "context": "Cup"
  },
  "130": {
    "translation": "Verrine",
    "limit": 100,
    "context": "Verrine"
  },
  "131": {
    "translation": "dish",
    "limit": 100,
    "context": "dish"
  },
  "132": {
    "translation": "Pot",
    "limit": 100,
    "context": "Pot"
  },
  "133": {
    "translation": "Tranche",
    "limit": 100,
    "context": "Tranche"
  },
  "134": {
    "translation": "Tetra Brik",
    "limit": 100,
    "context": "Tetra Brik"
  },
  "135": {
    "translation": "Entier",
    "limit": 100,
    "context": "Entier"
  },
  "136": {
    "translation": "AOP",
    "limit": 100,
    "context": "AOP"
  },
  "137": {
    "translation": "ASC",
    "limit": 100,
    "context": "ASC"
  },
  "138": {
    "translation": "FAIRTRADE/MAX HAVELAAR ",
    "limit": 100,
    "context": "FAIRTRADE/MAX HAVELAAR "
  },
  "139": {
    "translation": "FSC",
    "limit": 100,
    "context": "FSC"
  },
  "140": {
    "translation": "LABEL ROUGE",
    "limit": 100,
    "context": "LABEL ROUGE"
  },
  "141": {
    "translation": "MSC",
    "limit": 100,
    "context": "MSC"
  },
  "142": {
    "translation": "PEFC",
    "limit": 100,
    "context": "PEFC"
  },
  "143": {
    "translation": "RAINFOREST ALLIANCE",
    "limit": 100,
    "context": "RAINFOREST ALLIANCE"
  },
  "144": {
    "translation": "RSPO",
    "limit": 100,
    "context": "RSPO"
  },
  "145": {
    "translation": "STG",
    "limit": 100,
    "context": "STG"
  },
  "146": {
    "translation": "UTZ",
    "limit": 100,
    "context": "UTZ"
  },
  "147": {
    "translation": "Sin etiqueta de azúcar",
    "limit": 100,
    "context": "Without sugar label"
  },
  "148": {
    "translation": "Sin azúcares añadidos",
    "limit": 100,
    "context": "No added sugar"
  },
  "149": {
    "translation": "Bajo en sal",
    "limit": 100,
    "context": "Low in salt"
  },
  "150": {
    "translation": "Sin OGM",
    "limit": 100,
    "context": "Non GMO"
  },
  "151": {
    "translation": "En rodajas",
    "limit": 100,
    "context": "Sliced"
  },
  "152": {
    "translation": "Bloquear",
    "limit": 100,
    "context": "Block"
  },
  "153": {
    "translation": "Whole grain products",
    "limit": 100,
    "context": "Whole grain products"
  },
  "154": {
    "translation": "Breaded products",
    "limit": 100,
    "context": "Breaded products"
  },
  "155": {
    "translation": "Without palm oil",
    "limit": 100,
    "context": "Without palm oil"
  }
}