{
  "1": {
    "translation": "Cores Artificiais",
    "limit": 100,
    "context": "Artificial colours"
  },
  "2": {
    "translation": "Sabor artificial",
    "limit": 100,
    "context": "Artificial flavours"
  },
  "3": {
    "translation": "Aspartame",
    "limit": 100,
    "context": "Aspartame"
  },
  "4": {
    "translation": "Bee Pollen",
    "limit": 100,
    "context": "Bee Pollen"
  },
  "5": {
    "translation": "Cafeína",
    "limit": 100,
    "context": "Caffeine"
  },
  "6": {
    "translation": "Crustacea and their products (incl. Shellfish (Mol",
    "limit": 100,
    "context": "Crustacea and their products"
  },
  "7": {
    "translation": "Ovo e Derivados",
    "limit": 100,
    "context": "Egg and Egg Products"
  },
  "8": {
    "translation": "Evaporated Milk, Dried Milk made from Soy or Cerea",
    "limit": 100,
    "context": "Evaporated Milk, Dried Milk"
  },
  "9": {
    "translation": "Peixe e derivados",
    "limit": 100,
    "context": "Fish and Fish Products"
  },
  "10": {
    "translation": "Gluten (Cereals containing Wheat, Rye, Barley, Oat",
    "limit": 100,
    "context": "Gluten"
  },
  "11": {
    "translation": "Guarana or extracts of Guarana",
    "limit": 100,
    "context": "Guarana or extracts of"
  },
  "12": {
    "translation": "Tremoço",
    "limit": 100,
    "context": "Lupine"
  },
  "13": {
    "translation": "Leite e Derivados",
    "limit": 100,
    "context": "Milk or Milk Products"
  },
  "14": {
    "translation": "MSG",
    "limit": 100,
    "context": "MSG"
  },
  "15": {
    "translation": "Peanuts and Peanut Products",
    "limit": 100,
    "context": "Peanuts and Peanut Oil"
  },
  "16": {
    "translation": "Phytosterol, Phytostanols and Esters",
    "limit": 100,
    "context": "Phytosterol Esters"
  },
  "17": {
    "translation": "Própolis",
    "limit": 100,
    "context": "Propolis"
  },
  "18": {
    "translation": "Quinina",
    "limit": 100,
    "context": "Quinine"
  },
  "19": {
    "translation": "Geleia Real",
    "limit": 100,
    "context": "Royal Jelly"
  },
  "20": {
    "translation": "Sesame Seeds and Sesame Seed Products",
    "limit": 100,
    "context": "Sesame"
  },
  "21": {
    "translation": "Soja e produtos de soja",
    "limit": 100,
    "context": "Soybeans or Soybean Oil"
  },
  "22": {
    "translation": "Sulphur Dioxide and Suphites in concentrations > 1",
    "limit": 100,
    "context": "Sulphites"
  },
  "23": {
    "translation": "Ovos não pasteurizados",
    "limit": 100,
    "context": "Unpasteurised Egg Products"
  },
  "24": {
    "translation": "Leite e produtos lácteos não pasteurizados",
    "limit": 100,
    "context": "Unpasteurised Milk and Milk Products"
  },
  "25": {
    "translation": "Nozes e produtos de nozes",
    "limit": 100,
    "context": "Tree Nuts and Tree Nut Products"
  },
  "27": {
    "translation": "Dietética",
    "limit": 100,
    "context": "Dietetic"
  },
  "28": {
    "translation": "Livre de Transgênicos",
    "limit": 100,
    "context": "GMO Free"
  },
  "29": {
    "translation": "Certificado Halal",
    "limit": 100,
    "context": "Halal Certified"
  },
  "30": {
    "translation": "Halal Suitable",
    "limit": 100,
    "context": "Halal Suitable"
  },
  "31": {
    "translation": "Heart Foundation Tick",
    "limit": 100,
    "context": "Heart Foundation"
  },
  "32": {
    "translation": "Kosher Certified",
    "limit": 100,
    "context": "Kosher Certified"
  },
  "33": {
    "translation": "Kosher Suitable",
    "limit": 100,
    "context": "Kosher Suitable"
  },
  "34": {
    "translation": "Baixa Gordura",
    "limit": 100,
    "context": "Low Fat"
  },
  "35": {
    "translation": "Low Salt",
    "limit": 100,
    "context": "Low Salt"
  },
  "36": {
    "translation": "Orgânico ",
    "limit": 100,
    "context": "Organic"
  },
  "37": {
    "translation": "Sem óleo de palma ",
    "limit": 100,
    "context": "Palm Oil Free"
  },
  "38": {
    "translation": "Redução de açúcar",
    "limit": 100,
    "context": "Reduced Sugar"
  },
  "39": {
    "translation": "Vegano",
    "limit": 100,
    "context": "Vegan"
  },
  "40": {
    "translation": "Vegetariano",
    "limit": 100,
    "context": "Vegetarian"
  },
  "41": {
    "translation": "Sem Carne",
    "limit": 100,
    "context": "Without Beef"
  },
  "42": {
    "translation": "Without Pork",
    "limit": 100,
    "context": "Without Pork"
  },
  "43": {
    "translation": "Padaria",
    "limit": 100,
    "context": "Bakery"
  },
  "44": {
    "translation": "Bebida",
    "limit": 100,
    "context": "Beverage"
  },
  "45": {
    "translation": "Café da manhã",
    "limit": 100,
    "context": "Breakfast"
  },
  "46": {
    "translation": "Condimento",
    "limit": 100,
    "context": "Condiment"
  },
  "47": {
    "translation": "Sobremesa",
    "limit": 100,
    "context": "Dessert"
  },
  "48": {
    "translation": "Petisco",
    "limit": 100,
    "context": "Finger food"
  },
  "49": {
    "translation": "Sabor",
    "limit": 100,
    "context": "Food Flavour"
  },
  "50": {
    "translation": "Light meal",
    "limit": 100,
    "context": "Light meal"
  },
  "51": {
    "translation": "Refeição principal",
    "limit": 100,
    "context": "Main meal"
  },
  "52": {
    "translation": "Preparação Necessária",
    "limit": 100,
    "context": "Preparation required"
  },
  "53": {
    "translation": "Biodegradável",
    "limit": 100,
    "context": "Biodegradable"
  },
  "54": {
    "translation": "Certificado Orgânico",
    "limit": 100,
    "context": "Organic Certified"
  },
  "55": {
    "translation": "Cofre séptico",
    "limit": 100,
    "context": "Septic Tank Safe"
  },
  "56": {
    "translation": "Amêndoas",
    "limit": 100,
    "context": "Almonds"
  },
  "57": {
    "translation": "Cevada",
    "limit": 100,
    "context": "Barley"
  },
  "58": {
    "translation": "Castanha do Pará",
    "limit": 100,
    "context": "Brazil nuts"
  },
  "59": {
    "translation": "Cashews",
    "limit": 100,
    "context": "Cashews"
  },
  "60": {
    "translation": "Salsão ou Aipo",
    "limit": 100,
    "context": "Celery or Celeriac"
  },
  "61": {
    "translation": "Crustáceos ",
    "limit": 100,
    "context": "Crustaceans"
  },
  "62": {
    "translation": "Hazelnuts",
    "limit": 100,
    "context": "Hazelnuts"
  },
  "63": {
    "translation": "Macadamia",
    "limit": 100,
    "context": "Macadamia"
  },
  "64": {
    "translation": "Molluscs",
    "limit": 100,
    "context": "Molluscs"
  },
  "65": {
    "translation": "Mostarda",
    "limit": 100,
    "context": "Mustard"
  },
  "66": {
    "translation": "Aveia",
    "limit": 100,
    "context": "Oat"
  },
  "67": {
    "translation": "Nozes pecan",
    "limit": 100,
    "context": "Pecan nuts"
  },
  "68": {
    "translation": "Pistachios",
    "limit": 100,
    "context": "Pistachios"
  },
  "69": {
    "translation": "Rye",
    "limit": 100,
    "context": "Rye"
  },
  "70": {
    "translation": "Walnuts",
    "limit": 100,
    "context": "Walnuts"
  },
  "71": {
    "translation": "Trigo",
    "limit": 100,
    "context": "Wheat"
  },
  "72": {
    "translation": "Suitable for Lactose Intolerance",
    "limit": 100,
    "context": "Suitable for Lactose Intolerance"
  },
  "73": {
    "translation": "Savoury",
    "limit": 100,
    "context": "Food Flavour:2"
  },
  "74": {
    "translation": "Doce",
    "limit": 100,
    "context": "Food Flavour:3"
  },
  "75": {
    "translation": "MSC",
    "limit": 100,
    "context": "MSC"
  },
  "76": {
    "translation": "Bio",
    "limit": 100,
    "context": "Bio"
  },
  "77": {
    "translation": "Sem Glúten",
    "limit": 100,
    "context": "Gluten Free"
  },
  "78": {
    "translation": "Agricultura Orgânica",
    "limit": 100,
    "context": "Organic Agriculture"
  },
  "79": {
    "translation": "ASC",
    "limit": 100,
    "context": "ASC"
  },
  "80": {
    "translation": "Porção",
    "limit": 100,
    "context": "Portion"
  },
  "81": {
    "translation": "Small packaging",
    "limit": 100,
    "context": "Small packaging"
  },
  "82": {
    "translation": "Big packaging",
    "limit": 100,
    "context": "Big packaging"
  },
  "83": {
    "translation": "To cook",
    "limit": 100,
    "context": "To cook"
  },
  "84": {
    "translation": "To spread",
    "limit": 100,
    "context": "To spread"
  },
  "85": {
    "translation": "Blanched",
    "limit": 100,
    "context": "Blanched"
  },
  "86": {
    "translation": "IGP",
    "limit": 100,
    "context": "IGP"
  },
  "87": {
    "translation": "Ecolabel",
    "limit": 100,
    "context": "Ecolabel"
  },
  "88": {
    "translation": "AOC",
    "limit": 100,
    "context": "AOC"
  },
  "89": {
    "translation": "Queensland Nuts",
    "limit": 100,
    "context": "Queensland Nuts"
  },
  "90": {
    "translation": "Milho",
    "limit": 100,
    "context": "Corn"
  },
  "91": {
    "translation": "Mão",
    "limit": 100,
    "context": "Hand"
  },
  "92": {
    "translation": "Lactose",
    "limit": 100,
    "context": "Lactose"
  },
  "93": {
    "translation": "Produtos lácteos (lactose)",
    "limit": 100,
    "context": "Dairy products (lactose)"
  },
  "94": {
    "translation": "Noz",
    "limit": 100,
    "context": "Nut"
  },
  "95": {
    "translation": "Outro glúten",
    "limit": 100,
    "context": "Other gluten"
  },
  "96": {
    "translation": "Escrito",
    "limit": 100,
    "context": "Spelled"
  },
  "97": {
    "translation": "Sementes de girassol",
    "limit": 100,
    "context": "Sun-flower seeds"
  },
  "98": {
    "translation": "Cuit",
    "limit": 100,
    "context": "Cuit"
  },
  "99": {
    "translation": "Ajuda Culinária - Desidratado",
    "limit": 100,
    "context": "Culinary Aid - Dehydrated"
  },
  "100": {
    "translation": "Auxílio culinário - Moído",
    "limit": 100,
    "context": "Culinary aid - Ground"
  },
  "101": {
    "translation": "Ajuda culinária - Líquido",
    "limit": 100,
    "context": "Culinary aid - Liquid"
  },
  "102": {
    "translation": "Ajuda culinária - Massa",
    "limit": 100,
    "context": "Culinary aid - Dough"
  },
  "103": {
    "translation": "Auxílio Culinário - Não Moído",
    "limit": 100,
    "context": "Culinary Aid - Unground"
  },
  "104": {
    "translation": "Peixe - Desossado",
    "limit": 100,
    "context": "Fish - Boned"
  },
  "105": {
    "translation": "Peixe - sem espinha",
    "limit": 100,
    "context": "Fish - Boneless"
  },
  "106": {
    "translation": "Peixe - sem espinha",
    "limit": 100,
    "context": "Fish - Boneless"
  },
  "107": {
    "translation": "Peixe - Sem Pele",
    "limit": 100,
    "context": "Fish - Skinless"
  },
  "108": {
    "translation": "Peixe - Com pele",
    "limit": 100,
    "context": "Fish - With skin"
  },
  "109": {
    "translation": "Frutas - sem xarope",
    "limit": 100,
    "context": "Fruit - Without syrup"
  },
  "110": {
    "translation": "Salada de frutas",
    "limit": 100,
    "context": "Fruit salad"
  },
  "111": {
    "translation": "Frutas em calda",
    "limit": 100,
    "context": "Fruits in syrup"
  },
  "112": {
    "translation": "Frutas - À l'eau",
    "limit": 100,
    "context": "Fruits - A l'eau"
  },
  "113": {
    "translation": "Pré-cozido",
    "limit": 100,
    "context": "Precooked"
  },
  "114": {
    "translation": "Pré-empurrado",
    "limit": 100,
    "context": "Pre-pushed"
  },
  "115": {
    "translation": "Cru",
    "limit": 100,
    "context": "Cru"
  },
  "116": {
    "translation": "Vegetais crus",
    "limit": 100,
    "context": "Raw vegetables"
  },
  "117": {
    "translation": "Pronto para decorar - Salgado",
    "limit": 100,
    "context": "Ready to garnish - Salty"
  },
  "118": {
    "translation": "Pronto para enfeitar - Doce",
    "limit": 100,
    "context": "Ready to garnish - Sweet"
  },
  "119": {
    "translation": "Cozinhado com amor",
    "limit": 100,
    "context": "Cooked to heart"
  },
  "120": {
    "translation": "Sac",
    "limit": 100,
    "context": "Sac"
  },
  "121": {
    "translation": "Barra",
    "limit": 100,
    "context": "Barre"
  },
  "122": {
    "translation": "BIB",
    "limit": 100,
    "context": "BIB"
  },
  "123": {
    "translation": "Bloco",
    "limit": 100,
    "context": "Bloc"
  },
  "124": {
    "translation": "Garrafa",
    "limit": 100,
    "context": "Bottle"
  },
  "125": {
    "translation": "Caixa",
    "limit": 100,
    "context": "Box"
  },
  "126": {
    "translation": "Balde",
    "limit": 100,
    "context": "Bucket"
  },
  "127": {
    "translation": "Vrac",
    "limit": 100,
    "context": "Vrac"
  },
  "128": {
    "translation": "Conservar",
    "limit": 100,
    "context": "Conserve"
  },
  "129": {
    "translation": "Xícara",
    "limit": 100,
    "context": "Cup"
  },
  "130": {
    "translation": "Verrine",
    "limit": 100,
    "context": "Verrine"
  },
  "131": {
    "translation": "prato",
    "limit": 100,
    "context": "dish"
  },
  "132": {
    "translation": "Panela",
    "limit": 100,
    "context": "Pot"
  },
  "133": {
    "translation": "Tranche",
    "limit": 100,
    "context": "Tranche"
  },
  "134": {
    "translation": "Tetra Brik",
    "limit": 100,
    "context": "Tetra Brik"
  },
  "135": {
    "translation": "Inteiro",
    "limit": 100,
    "context": "Entier"
  },
  "136": {
    "translation": "AOP",
    "limit": 100,
    "context": "AOP"
  },
  "137": {
    "translation": "ASC",
    "limit": 100,
    "context": "ASC"
  },
  "138": {
    "translation": "FAIRTRADE/MAX HAVELAAR",
    "limit": 100,
    "context": "FAIRTRADE/MAX HAVELAAR "
  },
  "139": {
    "translation": "FSC",
    "limit": 100,
    "context": "FSC"
  },
  "140": {
    "translation": "RÓTULO ROUGE",
    "limit": 100,
    "context": "LABEL ROUGE"
  },
  "141": {
    "translation": "MSC",
    "limit": 100,
    "context": "MSC"
  },
  "142": {
    "translation": "PEFC",
    "limit": 100,
    "context": "PEFC"
  },
  "143": {
    "translation": "ALIANÇA DA FLORESTA TROPICAL",
    "limit": 100,
    "context": "RAINFOREST ALLIANCE"
  },
  "144": {
    "translation": "RSPO",
    "limit": 100,
    "context": "RSPO"
  },
  "145": {
    "translation": "STG",
    "limit": 100,
    "context": "STG"
  },
  "146": {
    "translation": "UTZ",
    "limit": 100,
    "context": "UTZ"
  },
  "147": {
    "translation": "Sem rótulo de açúcar",
    "limit": 100,
    "context": "Without sugar label"
  },
  "148": {
    "translation": "Sem adição de açúcar",
    "limit": 100,
    "context": "No added sugar"
  },
  "149": {
    "translation": "Reciclável ecologicamente correto",
    "limit": 100,
    "context": "Low in salt"
  },
  "150": {
    "translation": "Não transgênico",
    "limit": 100,
    "context": "Non GMO"
  },
  "151": {
    "translation": "Fatiado",
    "limit": 100,
    "context": "Sliced"
  },
  "152": {
    "translation": "Bloquear",
    "limit": 100,
    "context": "Block"
  },
  "153": {
    "translation": "Whole grain products",
    "limit": 100,
    "context": "Whole grain products"
  },
  "154": {
    "translation": "Breaded products",
    "limit": 100,
    "context": "Breaded products"
  },
  "155": {
    "translation": "Without palm oil",
    "limit": 100,
    "context": "Without palm oil"
  }
}