{
  "1": {
    "translation": "天",
    "limit": 50,
    "context": "Day"
  },
  "2": {
    "translation": "周",
    "limit": 50,
    "context": "Week"
  },
  "4": {
    "translation": "月",
    "limit": 50,
    "context": "Month"
  },
  "5": {
    "translation": "季度",
    "limit": 50,
    "context": "Quarter"
  },
  "6": {
    "translation": "年",
    "limit": 50,
    "context": "Year"
  }
}