{
  "1": {
    "translation": "Day",
    "limit": 50,
    "context": "Day"
  },
  "2": {
    "translation": "Week",
    "limit": 50,
    "context": "Week"
  },
  "4": {
    "translation": "Month",
    "limit": 50,
    "context": "Month"
  },
  "5": {
    "translation": "Quarter",
    "limit": 50,
    "context": "Quarter"
  },
  "6": {
    "translation": "Year",
    "limit": 50,
    "context": "Year"
  }
}