{
  "1": {
    "translation": "Día",
    "limit": 50,
    "context": "Day"
  },
  "2": {
    "translation": "Semana",
    "limit": 50,
    "context": "Week"
  },
  "4": {
    "translation": "Mes",
    "limit": 50,
    "context": "Month"
  },
  "5": {
    "translation": "Trimestre",
    "limit": 50,
    "context": "Quarter"
  },
  "6": {
    "translation": "Año",
    "limit": 50,
    "context": "Year"
  }
}