{
  "3D_PARTY_MANUFACTURER_LOCATION": "Ubicación o sitio del fabricante de terceros",
  "3D_PARTY_MANUFACTURER_USED": "¿Se utiliza un fabricante externo?",
  "ACKNOWLEDEMENT_DROPDOWN": "Seleccione una opción",
  "APP_NAME": "Vacío",
  "AU_Bidfood Code": "Código Bidfood AU",
  "AU_OPRI+ Reporting": "Supplier Hub",
  "AU_dashboard welcome message": "<p>El portal para proveedores de Bidfood es el lugar donde podrá gestionar promociones (NatPro), información sobre productos (OPRI+) y acceder a datos sobre cuotas de mercado (OPRI+)..</p><p>En un futuro próximo se introducirán actualizaciones en todo el portal con el fin de centralizar todos los sitios en uno solo.</p>\n",
  "About": "Acerca de",
  "Accept": "Aceptar",
  "Active": "Activo",
  "Add New Certificate": "Agregar nuevo certificado",
  "Additional information": "Información Adicional",
  "Address": "Dirección",
  "All": "Todos",
  "Associate All": "Asociar todo",
  "Bidfood Code": "Código Bidfood",
  "Bidfood Product Code": "Codigo Producto Bidfood",
  "Bidfood Stock balances as at ": "Saldos de existencias de Bidfood al",
  "Both the passwords must match": "Ambas contraseñas deben coincidir, por favor inténtelo de nuevo.",
  "Branch": "Sucursal",
  "Branch Channel Group & Segment Item Customers": "Branch Industry Category & Group Item Customers",
  "Branch Channel Group Customers": "Branch Industry Category Customers",
  "Branch Channel Segment Customers": "Branch Industry Group Customers",
  "Branch Vendor Customers": "Branch Vendor Customers",
  "Branch Warehouse": "Sucursal",
  "Branch name": "Nombre de Empresa",
  "Brand": "Marca",
  "Brand Description": "Descripción de la marca",
  "CSV": "CSV",
  "Cancel": "Cancelar",
  "Certificate": "Certificado",
  "Certificate Number": "Número de certificado",
  "Certificate name": "Nombre del certificado",
  "Certificate status": "Estado del certificado",
  "Certificate type": "Tipo de certificado",
  "Certificates": "Certificados",
  "Certified Date": "Fecha de certificación",
  "Certifying Body": "Organismo certificador",
  "Change Language": "Cambiar idioma",
  "Change Password": "Cambiar contraseña",
  "Channel Group": "Industry Category",
  "Channel Segment": "Industry Group",
  "City": "Ciudad",
  "Clear": "Borrar",
  "Collate Results": "Recopilar resultados",
  "Confirm Password": "Confirmar contraseña",
  "Contact": "Contacto",
  "Contacts": "Contactos",
  "Created Date": "Fecha de creación",
  "DOCUMENTS_ACKNOWLEDGEMENT_ALERT": "¿Documento leído y comprendido?",
  "DOCUMENTS_ACKNOWLEDGEMENT_REQUIRED_DESC": "Hay documentos que puede consultar. En el menú, haga clic en Documentos para ver y acusar recibo. <br/>Tenga en cuenta que su acceso en el Portal del Proveedor estará restringido hasta que lo haya hecho. <br/>Si tiene alguna pregunta, consulte a su Jefe de Categoría de Bidfood.",
  "DOCUMENTS_DASHBOARD_NORMAL_DESC": "A continuación se muestran los documentos proporcionados por Bidfood",
  "Daily": "Diario",
  "Dashboard": "Tablero",
  "Date Range": "Rango de fechas",
  "Decline": "Deshacer",
  "Declined Date": "Fecha de Rechazo",
  "Declined Reason": "Razón de rechazo",
  "Description": "Descripción",
  "Description / Code": "Descripción / Código",
  "Detailed": "Detallado",
  "Disassociate All": "Disociar todo",
  "Documents": "Documentos",
  "Download": "Descargar",
  "EDIT_CERT_CANCEL": "¿Está seguro? Los cambios realizados se perderán. Haga clic en Aceptar para continuar o en Cancelar para volver atrás.",
  "Edit": "Editar",
  "Edit Certificates": "Editar certificados",
  "Email": "Correo electrónico",
  "Email Me": "Envíeme un correo electrónico",
  "Email recipients": "Destinatarios de correo electrónico",
  "Email recipients is incorrect": "Destinatarios del correo electrónico({{email}}) incorrecto",
  "Email recipients is required": "Se requieren destinatarios de correo electrónico",
  "End Date": "Fecha de término",
  "Excel": "Excel",
  "Expired": "Caducadas",
  "Expired Certificate": "Certificado caducado",
  "Expiry Date": "Fecha de vencimiento",
  "Export to Excel": "Exportar a archivo Excel",
  "Failed to update password": "No se pudo actualizar la contraseña",
  "File Type": "Tipo de archivo",
  "Forgotten instruction": "Introduce tus datos y te enviaremos instrucciones para restablecer tu contraseña.",
  "Forgotten your password?": "¿Olvidaste tu contraseña?",
  "Frequency": "Frecuencia",
  "Friday": "Viernes",
  "Grand Total Sales:": "Total final",
  "HRC_Bidfood Code": "Prueba de Código HRC Bidfood",
  "HRC_Description": "Descripción\n",
  "HRC_Total": "Prueba HRC Total",
  "Hello world !": "Vacío",
  "Hide History": "Ocultar historial",
  "Hide Zero Sales": "Ocultar Ventas Cero",
  "Home": "Vacío",
  "Inactive": "Inactivo",
  "Incorrect password.": "Contraseña incorrecta",
  "Industry Category": "Categoría industrial",
  "Industry Group": "Canal de venta",
  "LOCATION_SITE": "Ubicación o Sitio",
  "Language": "Idioma",
  "Links": "Enlaces",
  "Log Out": "Cerrar sesión",
  "Logged in as": "Vacío",
  "Login": "Vacío",
  "Logout": "Vacío",
  "Monday": "Lunes",
  "Monthly": "Mensual",
  "NZ_Description": "Descripción",
  "NZ_dashboard welcome message": "<p>Bienvenido al portal de proveedores de Bidfood Chile.</p><p> Utilice los elementos del menú de la izquierda para acceder a las distintas funciones.</p><p> Navegue hasta las funciones adicionales para proveedores en \"<span  class='text-danger'><b>Links</b></span>\"haciendo clic en el botón\"<span class='text-danger'><b> Panel de control de proveedores de Chile</b></span>\". Aquí encontrará opciones como:</p><ul> <li>Panel del proveedor de \nChile</li><li> Herramientas de administración del proveedor de Chile</li><li> Solicitud de nuevos códigos de producto</li><li> Retirada de productos del mercado</li></ul>",
  "Name": "Nombre",
  "National Channel Group Customers": "National Industry Category Customers",
  "National Channel Segment Customers": "National Industry Group Customers",
  "National Promotions": "Promociones",
  "National Vendor Customers": "National Vendor Customers",
  "New Password": "Nueva contraseña",
  "New Sell-Thru Report": "Nuevo informe de venta",
  "New Stock Report": "Nuevo informe de existencias",
  "No Data found": "No se han encontrado datos",
  "No certificates to display": "No hay certificados para mostrar",
  "Not Yet Started": "Aún no ha comenzado",
  "Notes": "Notas",
  "Notes from Bidfood": "Notas de Bidfood",
  "Num. of Days Previous": "Números de días previos",
  "Num. of Days Previous is required": "Número de días de antelación requeridos",
  "Num. of Occurrences": "Número de ocurrencias",
  "Num. of Occurrences is required": "Se requiere el número de ocurrencias",
  "OK": "OK",
  "OPRI": "OPRI",
  "OPRI Product": "Producto OPRI",
  "OPRI+ Reporting": "Informes OPRI+",
  "OPTION_NO": "No",
  "OPTION_YES": "Si",
  "Old Password": "Contraseña antigua",
  "One month or less": "Para obtener un informe detallado con resultados diarios cotejados y mostrados en pantalla, el intervalo del informe debe ser de 1 mes o menos.",
  "Online Sale": "Venta Online",
  "Pack Size": "Tamaño del paquete",
  "Password": "Contraseña",
  "Password Length Message": "Tu contraseña debe tener entre 8-20 caracteres.",
  "Password fields are required": "Los campos de contraseña son obligatorios",
  "Password is required": "Vacío",
  "Percentage of Online Sales:": "Porcentaje de ventas en línea:",
  "Phone": "Teléfono",
  "Position": "Posición",
  "Prefered Languages": "Idioma preferido",
  "Preferred language not unavailable": "Aún no se admite el idioma preferido, por lo que el Portal del Proveedor se muestra en inglés.",
  "Print": "Imprimir",
  "Product Category": "Categoría de producto",
  "Product Description": "Descripción del producto",
  "Product Line": "Sub categoría",
  "Product Sales Category": "Categoría de ventas de productos",
  "Product Sales Sub - Category": "Subcategoría de ventas de productos",
  "Quantity limit": "La cantidad de datos del informe es demasiado grande para mostrarla en pantalla y, en su lugar, es necesario exportarla.",
  "Records per Page": "Registros por página",
  "Remember me": "Vacío",
  "Report": "Reporte",
  "Report By": "Informe por",
  "Report End Date": "Fecha de finalización del informe",
  "Report End Date cannot earlier than Start Date": "La fecha de finalización del informe no puede ser anterior a la fecha de inicio",
  "Report End Date is required": "Se requiere la fecha de finalización del informe",
  "Report Name": "Nombre del informe",
  "Report Name is required": "Nombre del informe es obligatorio",
  "Report Start Date": "Fecha de inicio del informe",
  "Report Start Date is required": "Se requiere la fecha de inicio del informe",
  "Report Type": "Tipo de informe",
  "Reports": "Informes",
  "Run Report On": "Ejecutar informe en",
  "Run Report On is required": "Ejecutar el informe es obligatorio",
  "Sales": "Ventas",
  "Saturday": "Sábado",
  "Save": "Guardar",
  "Save & Enable": "Guardar y activar",
  "Save schedule report successfully": "Informe de planificación guardado con éxito",
  "Saved failed": "Error para guardar",
  "Saved successfully": "Guardado con éxito.",
  "Schedule": "Horario",
  "Schedule By": "Programado por",
  "Schedule End Date": "Programar fecha de finalización",
  "Schedule End Date cannot earlier than Start Date": "La fecha de finalización del programa no puede ser anterior a la fecha de inicio",
  "Schedule End Date is required": "Se requiere la fecha de finalización programada",
  "Schedule Name": "Nombre de programación",
  "Schedule Sell-Thru Report": "Programar informe de ventas",
  "Schedule Start Date": "Programar fecha de inicio",
  "Schedule Start Date is required": "Se requiere la fecha de inicio programada",
  "Schedule Stock Report": "Programar informe de existencias",
  "Scheduled Sell-Thru Report": "Informe de ventas programado",
  "Scheduled Stock Report": "Informe de existencias programado",
  "Search": "Buscar",
  "Select All": "Seleccionar todo",
  "Select status": "Seleccionar estado",
  "Sell-Thru Data": "Fecha",
  "Sell-Thru Report": "Reporte de Ventas",
  "Separate multiple emails with a semicolon": "Separe varios correos electrónicos con un punto y coma",
  "Show All": "Mostrar todo",
  "Start": "Inicio",
  "Start Date": "Fecha de inicio",
  "State": "Estado",
  "Status": "Estado",
  "Stock Report": "Informe de existencias",
  "Stop": "Detener",
  "Stop schedule report successfully": "Informe de programación detenida con éxito",
  "Strength Complete": "Fuerza: Completa",
  "Strength Incomplete": "Fuerza: Incompleta",
  "Submit": "Enviar",
  "Summary": "Resumen",
  "Sunday": "Domingo",
  "Supplier Item Code": "Código de artículo del proveedor",
  "Supplier Name": "Nombre proveedor",
  "Supplier Portal": "Portal de proveedores",
  "Supplier Product Code": "Código de Proveedor",
  "Supplier Turn In Order": "Entrega del proveedor",
  "TESTING": "Vacío",
  "Terms": "Términos",
  "Terms & Conditions": "Términos y condiciones",
  "Thursday": "Jueves",
  "Total": "Total",
  "Total Online Sales:": "Ventas totales en línea:",
  "Tuesday": "Martes",
  "Type Certificate": "Tipo de certificado",
  "UOM": "Unidad de Medida",
  "UnSelect All": "Anular la selección de todo",
  "Username": "Vacío",
  "Username is required": "Vacío",
  "Username or password incorrect.": "Vacío",
  "Users": "Preferencias",
  "VERSION_REFERENCE": "Nombre o referencia de la versión del certificado",
  "Version": "Vacío",
  "View": "Ver",
  "View Certificates": "Ver certificados",
  "View History": "Ver historial",
  "Warehouse": "Sucursal",
  "Warehouse List": "Sucursales",
  "Warehouse Stock": "Stock de sucursal",
  "Wednesday": "Miércoles",
  "Weekly": "Semanal",
  "Welcome to Supplier Portal": "Bienvenido al portal de proveedores",
  "Wendesday": "Vacío",
  "Your password has been successfully changed.": "Tu contraseña ha sido cambiada exitosamente",
  "Your password must contain numbers and letters": "Tu contraseña debe contener números y letras",
  "ZA_Bidfood Code": "Prueba de Código za111 Bidfood",
  "ZA_Branch Channel Group & Segment Item Customers": "Branch Channel Group & Segment Item Customers",
  "ZA_Branch Channel Group Customers": "Branch Channel Group Customers",
  "ZA_Branch Channel Segment Customers": "Branch Channel Segment Customers",
  "ZA_Channel Group": "Channel Group",
  "ZA_Channel Segment": "Channel Segment",
  "ZA_Description": "Descripción",
  "ZA_Industry Category": "Channel Segment",
  "ZA_Industry Group": "Channel Group",
  "ZA_National Channel Group Customers": "National Channel Group Customers",
  "ZA_National Channel Segment Customers": "National Channel Segment Customers",
  "dashboard welcome message": "<p>El Portal del Proveedor es un proyecto en curso.</p><p> Puede esperar ver algunos cambios interesantes a medida que continuamos introduciendo nuevas características y funcionalidades.</p><p> Utilice los elementos del menú de la izquierda para acceder a las características a medida que estén disponibles para su sitio.</p>",
  "email is incorrect": "El correo electrónico es incorrecto",
  "email is required": "Se requiere correo electrónico",
  "footer copyright": "Copyright © {{currentYear}} {{companyName}}. Todos los derechos reservados.",
  "number items for supplierName": "{{number}} artículos para {{supplierName}}",
  "reset password successfully": "Si tiene una cuenta válida, recibirá en breve un correo electrónico con más instrucciones.",
  "sell-thru report information": "El informe de ventas sólo enumera los productos que han publicado datos OPRI. <br> Los datos estarán disponibles hasta 2 días laborables antes inclusive.. <br><br>Datos de ventas de Bidfood a fecha de",
  "user is required": "Se requiere identificación de inicio de sesión"
}