{
  "3D_PARTY_MANUFACTURER_LOCATION": "Local ou site do fabricante terceirizado",
  "3D_PARTY_MANUFACTURER_USED": "Fabricante terceirizado usado?",
  "ACKNOWLEDEMENT_DROPDOWN": "Selecione",
  "APP_NAME": "Vazio",
  "AU_Bidfood Code": "AU Bidfood Code",
  "AU_OPRI+ Reporting": "Supplier Hub",
  "AU_dashboard welcome message": "-\n",
  "About": "Sobre",
  "Accept": "Aceitar",
  "Active": "BR_Active",
  "Add New Certificate": "Adicionar novo certificado",
  "Additional information": "Informações adicionais",
  "Address": "Endereço",
  "All": "Todos",
  "Associate All": "Associar tudo",
  "Bidfood Code": "Código Bidfood",
  "Bidfood Product Code": "Código do Produto Bidfood",
  "Bidfood Stock balances as at ": "Saldos de estoque do Bidfood em",
  "Both the passwords must match": "Ambas as senhas devem corresponder, por favor, tente novamente",
  "Branch": "Filial",
  "Branch Channel Group & Segment Item Customers": "Branch Industry Category & Group Item Customers",
  "Branch Channel Group Customers": "Branch Industry Category Customers",
  "Branch Channel Segment Customers": "Branch Industry Group Customers",
  "Branch Vendor Customers": "Branch Vendor Customers",
  "Branch Warehouse": "Armazém da Filial",
  "Branch name": "Nome da Filial",
  "Brand": "Marca",
  "Brand Description": "Brand Description",
  "CSV": "BR_CSV",
  "Cancel": "Cancelar",
  "Certificate": "Certificado",
  "Certificate Number": "Número do certificado",
  "Certificate name": "Nome do certificado",
  "Certificate status": "Status do certificado",
  "Certificate type": "tipo de certificado",
  "Certificates": "Certificados",
  "Certified Date": "Data do certificado",
  "Certifying Body": "Corpo do certificado",
  "Change Language": "Change Language",
  "Change Password": "Mudar Senha",
  "Channel Group": "Industry Category",
  "Channel Segment": "Industry Group",
  "City": "Cidade",
  "Clear": "Limpar",
  "Collate Results": "Agrupar resultados",
  "Confirm Password": "Confirmar Senha",
  "Contact": "Contato",
  "Contacts": "Contatos",
  "Created Date": "Data de criação",
  "DOCUMENTS_ACKNOWLEDGEMENT_ALERT": "Documento lido e compreendido?",
  "DOCUMENTS_ACKNOWLEDGEMENT_REQUIRED_DESC": "Existem documentos para você revisar. No menu, clique em Documentos para visualizar e confirmar. <br/>Observe que seu acesso ao Supplier Portal será restrito até que você o tenha feito. <br/>Se você tiver dúvidas, pergunte ao gestor da plataforma.",
  "DOCUMENTS_DASHBOARD_NORMAL_DESC": "Abaixo estão os documentos fornecidos a você pela Bidfood",
  "Daily": "Diariamente",
  "Dashboard": "Painel",
  "Date Range": "BR_Date Range",
  "Decline": "Recusar",
  "Declined Date": "Data recusada",
  "Declined Reason": "Motivo recusado",
  "Description": "Descrição",
  "Description / Code": "Descrição/ Código",
  "Detailed": "Detalhado",
  "Disassociate All": "Desassociar tudo",
  "Documents": "Documentos",
  "Download": "Download",
  "EDIT_CERT_CANCEL": "Você tem certeza? Qualquer mudança que você fizer será perdida. Clique OK para continuar ou cancelar para voltar",
  "Edit": "BR_Edit",
  "Edit Certificates": "Editar certificados",
  "Email": "Email",
  "Email Me": "BR_Email Me",
  "Email recipients": "BR_Email recipients",
  "Email recipients is incorrect": "BR_Email recipients({{email}}) is incorrect",
  "Email recipients is required": "BR_Email recipients is required",
  "End Date": "Data Final",
  "Excel": "BR_Excel",
  "Expired": "BR_Expired",
  "Expired Certificate": "Certificado Expirado",
  "Expiry Date": "Data de validade",
  "Export to Excel": "Exportar para Excel",
  "Failed to update password": "Falha ao atualizar a senha",
  "File Type": "BR_File Type",
  "Forgotten instruction": "Insira seus dados e enviaremos instruções para redefinir sua senha.",
  "Forgotten your password?": "Esqueceu sua Senha?",
  "Frequency": "BR_Frequency",
  "Friday": "BR_Friday",
  "Grand Total Sales:": "Vendas totais gerais: ",
  "HRC_Bidfood Code": "test HRC Bidfood Code",
  "HRC_Description": "Description test hrc",
  "HRC_Total": "Test HRC Total",
  "Hello world !": "Vazio",
  "Hide History": "Ocultar histórico",
  "Hide Zero Sales": "BR_Hide Zero Sales",
  "Home": "Vazio",
  "Inactive": "BR_Inactive",
  "Incorrect password.": "Senha incorreta.",
  "Industry Category": "Categoria da Indústria",
  "Industry Group": "Fornecedor",
  "LOCATION_SITE": "Localização ou site",
  "Language": "Linguagem",
  "Links": "Links",
  "Log Out": "Sair",
  "Logged in as": "Vazio",
  "Login": "Vazio",
  "Logout": "Vazio",
  "Monday": "BR_Monday",
  "Monthly": "Mensalmente",
  "NZ_Description": "Description",
  "NZ_dashboard welcome message": "<p>Bem-vindo ao Portal de Fornecedores da Bidfood NZ.</p><p>Utilize os itens do menu à esquerda para acessar várias funcionalidades.</p><p>Navegue até funções adicionais de fornecedor em \"<span  class='text-danger'><b>Links</b></span>\" clicando no botão \"<span class='text-danger'><b>Painel do Fornecedor NZ</b></span>\". Aqui, você encontrará opções como:</p><ul><li>Painel do Fornecedor NZ</li><li>Ferramentas de Administração do Fornecedor NZ</li><li>Solicitação de Novo Código de Produto</li><li>Recall de Produtos</li></ul>",
  "Name": "Nome",
  "National Channel Group Customers": "National Industry Category Customers",
  "National Channel Segment Customers": "National Industry Group Customers",
  "National Promotions": "Promoções",
  "National Vendor Customers": "National Vendor Customers",
  "New Password": "Senha Nova",
  "New Sell-Thru Report": "BR_New Sell-Thru Report",
  "New Stock Report": "BR_NewStockReport",
  "No Data found": "Nenhum dado encontrado",
  "No certificates to display": "Nenhum certificado para exibir",
  "Not Yet Started": "BR_Not Yet Started",
  "Notes": "Notas",
  "Notes from Bidfood": "Notas da Bidfood",
  "Num. of Days Previous": "BR_Num. of Days Previous",
  "Num. of Days Previous is required": "BR_Num. of Days Previous is required",
  "Num. of Occurrences": "BR_Num. of Occurrences",
  "Num. of Occurrences is required": "BR_Num. of Occurrences is required",
  "OK": "OK",
  "OPRI": "OPRI",
  "OPRI Product": "Produto",
  "OPRI+ Reporting": "BR_OPRI+ Reporting",
  "OPTION_NO": "Não",
  "OPTION_YES": "Sim",
  "Old Password": "Senha Antiga",
  "One month or less": "Para um relatório detalhado com resultados coletados diariamente e exibidos na tela, o intervalo do relatório deve ser de 1 mês ou menos ",
  "Online Sale": "Venda Online",
  "Pack Size": "Tamanho da Embalagem",
  "Password": "Senha",
  "Password Length Message": "BR_Your password must be 8-20 characters long",
  "Password fields are required": "Os campos da senha são obrigatórios",
  "Password is required": "Vazio",
  "Percentage of Online Sales:": "Percentual de Vendas Online",
  "Phone": "Telefone",
  "Position": "Posição",
  "Prefered Languages": "Prefered Languages",
  "Preferred language not unavailable": "Preferred language is not yet supported, so Supplier Portal is displaying in English.",
  "Print": "Imprimir",
  "Product Category": "Categoria do Produto",
  "Product Description": "Product Description",
  "Product Line": "Linha do Produto",
  "Product Sales Category": "Categoria de Vendas do Produto ",
  "Product Sales Sub - Category": "Categoria de Vendas do Produto ",
  "Quantity limit": "A quantidade de dados no relatório é muito grande para ser exibida na tela e precisa ser exportada.",
  "Records per Page": "Registros por Página",
  "Remember me": "Vazio",
  "Report": "Relatório",
  "Report By": "Reportado por",
  "Report End Date": "BR_Report End Date",
  "Report End Date cannot earlier than Start Date": "BR_Report End Date cannot earlier than Start Date",
  "Report End Date is required": "BR_Report End Date is required",
  "Report Name": "BR_Report Name",
  "Report Name is required": "BR_Report Name is required",
  "Report Start Date": "BR_Report Start Date",
  "Report Start Date is required": "BR_Report Start Date is required",
  "Report Type": "Tipo de Relatório",
  "Reports": "Relatórios",
  "Run Report On": "BR_Run Report On",
  "Run Report On is required": "BR_Run Report On is required",
  "Sales": "Vendas",
  "Saturday": "BR_Saturday",
  "Save": "Salvar",
  "Save & Enable": "BR_Save & Enable",
  "Save schedule report successfully": "BR_Save schedule report successfully",
  "Saved failed": "Falha ao salvar",
  "Saved successfully": "Salvo com sucesso!",
  "Schedule": "Cronograma",
  "Schedule By": "BR_Schedule By",
  "Schedule End Date": "BR_Schedule End Date",
  "Schedule End Date cannot earlier than Start Date": "BR_Schedule End Date cannot earlier than Start Date",
  "Schedule End Date is required": "BR_Schedule End Date is required",
  "Schedule Name": "BR_Schedule Name",
  "Schedule Sell-Thru Report": "BR_Schedule Sell-Thru Report",
  "Schedule Start Date": "BR_Schedule Start Date",
  "Schedule Start Date is required": "BR_Schedule Start Date is required",
  "Schedule Stock Report": "BR_Schedule Stock Report",
  "Scheduled Sell-Thru Report": "BR_Scheduled Sell-Thru Report",
  "Scheduled Stock Report": "BR_Scheduled Stock Report",
  "Search": "Buscar",
  "Select All": "BR_Select All",
  "Select status": "Selecionar status",
  "Sell-Thru Data": "Data",
  "Sell-Thru Report": "Relatório de Venda",
  "Separate multiple emails with a semicolon": "BR_Separate multiple emails with a semicolon",
  "Show All": "Mostrar Tudo",
  "Start": "BR_Start",
  "Start Date": "Data Inicial",
  "State": "Status",
  "Status": "BR_Status",
  "Stock Report": "Relatório de Estoque",
  "Stop": "BR_Stop",
  "Stop schedule report successfully": "BR_Stop schedule report successfully",
  "Strength Complete": "BR_Strength: Complete",
  "Strength Incomplete": "BR_Strength: Incomplete",
  "Submit": "Enviar",
  "Summary": "Resumo",
  "Sunday": "BR_Sunday",
  "Supplier Item Code": "Código de item do fornecedor",
  "Supplier Name": "Nome do Fornecedor",
  "Supplier Portal": "Portal do Fornecedor",
  "Supplier Product Code": "Código do produto do fornecedor",
  "Supplier Turn In Order": "Entrega de pedido do fornecedor\n ",
  "TESTING": "Vazio",
  "Terms": "Termos",
  "Terms & Conditions": "Termos e Condições",
  "Thursday": "BR_Thursday",
  "Total": "Total",
  "Total Online Sales:": "Vendas Total Online",
  "Tuesday": "BR_Tuesday ",
  "Type Certificate": "Tipo do Certificado",
  "UOM": "Unidade de Medida",
  "UnSelect All": "BR_UnSelect All",
  "Username": "Vazio",
  "Username is required": "Vazio",
  "Username or password incorrect.": "Vazio",
  "Users": "Preferências",
  "VERSION_REFERENCE": "Nome ou referência da versão do certificado",
  "Version": "Vazio",
  "View": "BR_View",
  "View Certificates": "Ver certificados",
  "View History": "Ver histórico",
  "Warehouse": "Armazém",
  "Warehouse List": "Lista de Armazém",
  "Warehouse Stock": "Estoque do Armazém",
  "Wednesday": "BR_Wednesday ",
  "Weekly": "Semanalmente",
  "Welcome to Supplier Portal": "Bem-vindo ao Portal do Fornecedor",
  "Wendesday": "Vazio",
  "Your password has been successfully changed.": "Sua senha foi alterada com sucesso.",
  "Your password must contain numbers and letters": "BR_Your password must contain numbers and letters",
  "ZA_Bidfood Code": "test za111 Bidfood Code",
  "ZA_Branch Channel Group & Segment Item Customers": "Branch Channel Group & Segment Item Customers",
  "ZA_Branch Channel Group Customers": "Branch Channel Group Customers",
  "ZA_Branch Channel Segment Customers": "Branch Channel Segment Customers",
  "ZA_Channel Group": "Channel Group",
  "ZA_Channel Segment": "Channel Segment",
  "ZA_Description": "Description test za",
  "ZA_Industry Category": "Channel Segment",
  "ZA_Industry Group": "Channel Group",
  "ZA_National Channel Group Customers": "National Channel Group Customers",
  "ZA_National Channel Segment Customers": "National Channel Segment Customers",
  "dashboard welcome message": "<p>O Portal do Fornecedor está em desenvolvimento.</p><p>Prepare-se para ver alterações empolgantes à medida que implementamos novas funcionalidades e recursos.</p><p>Utilize os itens do menu à esquerda para acessar os recursos conforme eles são disponibilizados para o seu site.</p>",
  "email is incorrect": "E-mail está incorreto",
  "email is required": "E-mail é obrigatório",
  "footer copyright": "Direito Autoral ©  {{currentYear}} {{companyName}}. Todos os direitos reservados.",
  "number items for supplierName": "{{number}} de itens da {{supplierName}}",
  "reset password successfully": "Se você tiver uma conta válida, receberá um e-mail com mais instruções em breve.",
  "sell-thru report information": "O Relatório de Vendas lista apenas produtos que têm os dados publicados no OPRI.<br>A disponibilidade dos dados é de até 2 dias úteis.<br> Os dados de Vendas da Bidfood em",
  "user is required": "Usuário é obrigatório"
}