{
  "G": {
    "translation": "G",
    "limit": 50,
    "context": "G"
  },
  "KG": {
    "translation": "KG",
    "limit": 50,
    "context": "KG"
  },
  "L": {
    "translation": "L",
    "limit": 50,
    "context": "L"
  },
  "ML": {
    "translation": "ML",
    "limit": 50,
    "context": "ML"
  },
  "PCE": {
    "translation": "Stuk",
    "limit": 50,
    "context": "PCE"
  }
}