{
  "1": {
    "translation": "Productos Preferidos",
    "limit": 100,
    "context": "Preferred Products"
  },
  "2": {
    "translation": "Pedidos Anteriores",
    "limit": 100,
    "context": "Previous Orders"
  },
  "3": {
    "translation": "Facturas",
    "limit": 100,
    "context": "Invoices"
  },
  "4": {
    "translation": "Créditos",
    "limit": 100,
    "context": "Credits"
  },
  "5": {
    "translation": "Documentos de declaración",
    "limit": 100,
    "context": "Statements"
  },
  "6": {
    "translation": "Lista de precios de productos",
    "limit": 100,
    "context": "Product Price List"
  },
  "7": {
    "translation": "Abonos",
    "limit": 100,
    "context": "InvoiceCredits"
  },
  "8": {
    "translation": "Compras Anteriores",
    "limit": 100,
    "context": "Previous Purchases"
  },
  "9": {
    "translation": "Nuevos Productos",
    "limit": 100,
    "context": "New Products"
  },
  "10": {
    "translation": "Hacer inventario",
    "limit": 100,
    "context": "Stocktake"
  },
  "11": {
    "translation": "Sustituciones",
    "limit": 100,
    "context": "Supersessions"
  },
  "12": {
    "translation": "Especiales",
    "limit": 100,
    "context": "Specials"
  }
}