{
  "1": {
    "translation": "Vēlamais Produkts",
    "limit": 100,
    "context": "Preferred Products"
  },
  "2": {
    "translation": "Iepriekšējie Pasūtījumi",
    "limit": 100,
    "context": "Previous Orders"
  },
  "3": {
    "translation": "Rēķins",
    "limit": 100,
    "context": "Invoices"
  },
  "4": {
    "translation": "Kredīts",
    "limit": 100,
    "context": "Credits"
  },
  "5": {
    "translation": "Statements",
    "limit": 100,
    "context": "Statements"
  },
  "6": {
    "translation": "Produktu Cenu Lapa",
    "limit": 100,
    "context": "Product Price List"
  },
  "7": {
    "translation": "Kredīts Rēķins",
    "limit": 100,
    "context": "InvoiceCredits"
  },
  "8": {
    "translation": "Iepriekšējie Pirkumi",
    "limit": 100,
    "context": "Previous Purchases"
  },
  "9": {
    "translation": "Jauns Produkts",
    "limit": 100,
    "context": "New Products"
  },
  "10": {
    "translation": "Uzkaite",
    "limit": 100,
    "context": "Stocktake"
  },
  "11": {
    "translation": "Supersessions",
    "limit": 100,
    "context": "Supersessions"
  },
  "12": {
    "translation": "Specials",
    "limit": 100,
    "context": "Specials"
  }
}