{
  "1": {
    "translation": "Gewenste Producten",
    "limit": 100,
    "context": "Preferred Products"
  },
  "2": {
    "translation": "Bestellingsrapport",
    "limit": 100,
    "context": "Previous Orders"
  },
  "3": {
    "translation": "Facturen",
    "limit": 100,
    "context": "Invoices"
  },
  "4": {
    "translation": "Creditnota's",
    "limit": 100,
    "context": "Credits"
  },
  "5": {
    "translation": "Getuigen",
    "limit": 100,
    "context": "Statements"
  },
  "6": {
    "translation": "Productprijs lijst",
    "limit": 100,
    "context": "Product Price List"
  },
  "7": {
    "translation": "Credietnota's en facturen",
    "limit": 100,
    "context": "InvoiceCredits"
  },
  "8": {
    "translation": "Bestellingsrapport (vereenvoudigd)",
    "limit": 100,
    "context": "Previous Purchases"
  },
  "9": {
    "translation": "Nieuwe Producten",
    "limit": 100,
    "context": "New Products"
  },
  "10": {
    "translation": "Inventaris",
    "limit": 100,
    "context": "Stocktake"
  },
  "11": {
    "translation": "Vervangproducten",
    "limit": 100,
    "context": "Supersessions"
  },
  "12": {
    "translation": "Promoties",
    "limit": 100,
    "context": "Specials"
  }
}