{
  "1": {
    "translation": "首选产品",
    "limit": 100,
    "context": "Preferred Products"
  },
  "2": {
    "translation": "历史订单",
    "limit": 100,
    "context": "Previous Orders"
  },
  "3": {
    "translation": "发票",
    "limit": 100,
    "context": "Invoices"
  },
  "4": {
    "translation": "积分",
    "limit": 100,
    "context": "Credits"
  },
  "5": {
    "translation": "帐单",
    "limit": 100,
    "context": "Statements"
  },
  "6": {
    "translation": "产品价格列表",
    "limit": 100,
    "context": "Product Price List"
  },
  "7": {
    "translation": "发票积分",
    "limit": 100,
    "context": "InvoiceCredits"
  },
  "8": {
    "translation": "历史购买",
    "limit": 100,
    "context": "Previous Purchases"
  },
  "9": {
    "translation": "新产品",
    "limit": 100,
    "context": "New Products"
  },
  "10": {
    "translation": "盘点",
    "limit": 100,
    "context": "Stocktake"
  },
  "11": {
    "translation": "新陈代谢",
    "limit": 100,
    "context": "Supersessions"
  },
  "12": {
    "translation": "特价",
    "limit": 100,
    "context": "Specials"
  }
}