{
  "1": {
    "translation": "Promotion Amendment Request Review for Supplier <Supplier Name & Code>",
    "limit": 255,
    "context": "PAR Review (Accept/Decline)"
  },
  "2": {
    "translation": "PAR Submitted on <Promotion Name> by supplier <Supplier Name & Code>",
    "limit": 255,
    "context": "PAR Submission"
  },
  "3": {
    "translation": "Promotion Under Review Final Confirmation for Supplier: <Supplier Name & Code>",
    "limit": 255,
    "context": "Catalogue PAR Confirmation"
  },
  "4": {
    "translation": "Promotion Under Final Confirmation for Supplier: <Supplier Name & Code>",
    "limit": 255,
    "context": "Loyalty PAR Confirmation"
  },
  "5": {
    "translation": "Promotion Under Review Final Confirmation for Supplier: <Supplier Name & Code>",
    "limit": 255,
    "context": "Specials PAR Confirmation"
  },
  "6": {
    "translation": "<Promotion Name> - <Supplier Name & Code>, co-op values changed",
    "limit": 255,
    "context": "Loyalty Co-op Values"
  },
  "7": {
    "translation": "MyBidfood order still awaiting approval",
    "limit": 255,
    "context": "Order Approval Reminder"
  },
  "8": {
    "translation": "MyBidfood order approval escalation notification",
    "limit": 255,
    "context": "Order Approval Escalation"
  },
  "9": {
    "translation": "MyBidfood order awaiting approval notification",
    "limit": 255,
    "context": "Order Approval Approver Notification"
  },
  "10": {
    "translation": "MyBidfood order approval submission alert",
    "limit": 255,
    "context": "Order Approval Submission Alert"
  },
  "11": {
    "translation": "MyBidfood order approval request declined",
    "limit": 255,
    "context": "Order Approval Decline Notification"
  },
  "12": {
    "translation": "MyBidfood order approval timeout notification",
    "limit": 255,
    "context": "Order Approval Timeout"
  },
  "13": {
    "translation": "<shop name> Cash On Delivery Order Notification",
    "limit": 255,
    "context": "Cash On Delivery Order Notification"
  },
  "16": {
    "translation": "<shop name> Web Order Comments Notification",
    "limit": 255,
    "context": "Web Order Comments Notification"
  },
  "17": {
    "translation": "Sveikiname prisijungus prie myBidfood",
    "limit": 255,
    "context": "New User Welcome HTML Email"
  },
  "18": {
    "translation": "Sveikiname prisijungus prie myBidfood",
    "limit": 255,
    "context": "New User Welcome Email"
  },
  "19": {
    "translation": "Nauja <shop_name> v5 registracija buvo patvirtinta",
    "limit": 255,
    "context": "Sales Rep HTML Email"
  },
  "20": {
    "translation": "Nauja <shop_name> v5 registracija buvo patvirtinta",
    "limit": 255,
    "context": "Sales Rep Email"
  },
  "21": {
    "translation": "Slaptažodžio keitimas",
    "limit": 255,
    "context": "Update Password HTML Email"
  },
  "22": {
    "translation": "Slaptažodžio keitimas",
    "limit": 255,
    "context": "Update Password Email"
  },
  "23": {
    "translation": "Slaptažodžio keitimas",
    "limit": 255,
    "context": "Reset Password HTML Email"
  },
  "24": {
    "translation": "Slaptažodžio keitimas",
    "limit": 255,
    "context": "Reset Password Email"
  },
  "25": {
    "translation": "Jūsų duomenų eksportas - <reportname>",
    "limit": 255,
    "context": "Export Report HTML Email"
  },
  "26": {
    "translation": "Jūsų duomenų eksportas - <reportname>",
    "limit": 255,
    "context": "Export Report Email"
  },
  "27": {
    "translation": "Payment pre-authorisation failure to finalise",
    "limit": 255,
    "context": "Failed Payment Fulfilment Email"
  },
  "28": {
    "translation": "<shop_name> užsakymas vis dar laukia patvirtinimo",
    "limit": 255,
    "context": "Order Approval Reminder HTML"
  },
  "29": {
    "translation": "<shop_name> order approval escalation notification",
    "limit": 255,
    "context": "Order Approval Escalation HTML"
  },
  "30": {
    "translation": "<shop_name> užsakymas laukia patvirtinimo",
    "limit": 255,
    "context": "Order Approval Approver Notification HTML"
  },
  "31": {
    "translation": "Užsakymas buvo sukurtas be patvirtinimo",
    "limit": 255,
    "context": "Order Approval Submission Alert HTML"
  },
  "32": {
    "translation": "<shop_name> patvirtinimo užklausa buvo atmestas",
    "limit": 255,
    "context": "Order Approval Decline Notification HTML"
  },
  "33": {
    "translation": "<shop_name> patvirtinimo laikas neužilgo baigsis",
    "limit": 255,
    "context": "Order Approval Timeout HTML"
  },
  "34": {
    "translation": "<shop_name> payment still awaiting approval",
    "limit": 255,
    "context": "Payment Approval Reminder HTML"
  },
  "35": {
    "translation": "<shop_name> payment approval escalation notification",
    "limit": 255,
    "context": "Payment Approval Escalation HTML"
  },
  "36": {
    "translation": "<shop_name> payment awaiting approval notification",
    "limit": 255,
    "context": "Payment Approval Approver Notification HTML"
  },
  "37": {
    "translation": "Alert administrators that payment was created without approval",
    "limit": 255,
    "context": "Payment Approval Submission Alert HTML"
  },
  "38": {
    "translation": "<shop_name> payment approval request declined",
    "limit": 255,
    "context": "Payment Approval Decline Notification HTML"
  },
  "39": {
    "translation": "<shop_name> payment approval timeout notification",
    "limit": 255,
    "context": "Payment Approval Timeout HTML"
  },
  "40": {
    "translation": "<shop_name> payment approval request approved",
    "limit": 255,
    "context": "Payment Approval Approve Notification HTML"
  },
  "41": {
    "translation": "Jūsų registracija<shop_name> buvo atmesta",
    "limit": 255,
    "context": "Decline User Registration HTML"
  },
  "42": {
    "translation": "Jūsų teisė būti pamirštam (-ai) buvo priimta",
    "limit": 255,
    "context": "Accept Right To Be Forgotten HTML"
  },
  "43": {
    "translation": "Jūsų teisė būti pamirštam (-ai) buvo atmesta",
    "limit": 255,
    "context": "Cancel Right To Be Forgotten HTML"
  },
  "44": {
    "translation": "Request to be forgotten request needs your approval",
    "limit": 255,
    "context": "Right To Be Forgotten Request HTML"
  },
  "45": {
    "translation": "Naujas tiekėjas <shop_name>",
    "limit": 255,
    "context": "New Supplier User HTML"
  },
  "46": {
    "translation": "Naujas tiekėjas <shop_name>",
    "limit": 255,
    "context": "New Supplier User"
  },
  "47": {
    "translation": "Sąskaita apmokėjimui <shop_name>",
    "limit": 255,
    "context": "Payment Invoice HTML"
  },
  "48": {
    "translation": "Sąskaita apmokėjimui <shop_name>",
    "limit": 255,
    "context": "Payment Invoice"
  },
  "49": {
    "translation": "Vartotojų duomenis",
    "limit": 255,
    "context": "User Records"
  },
  "50": {
    "translation": "Vartotojų duomenis HTML",
    "limit": 255,
    "context": "User Records HTML"
  },
  "51": {
    "translation": "Automatinė ataskaita - <schedule_name>",
    "limit": 255,
    "context": "Admin Scheduled Report"
  },
  "52": {
    "translation": "Automatinė ataskaita - <schedule_name>",
    "limit": 255,
    "context": "Admin Scheduled Report HTML"
  }
}