{
  "1": {
    "translation": "Revisión de solicitud de modificación de promoción para proveedor <Supplier Name & Code>",
    "limit": 255,
    "context": "PAR Review (Accept/Decline)"
  },
  "2": {
    "translation": "Paquete enviado <Promotion Name> por el proveedor <Supplier Name & Code>",
    "limit": 255,
    "context": "PAR Submission"
  },
  "3": {
    "translation": "Promoción en proceso de revisión Confirmación final para el proveedor:<Supplier Name & Code>",
    "limit": 255,
    "context": "Catalogue PAR Confirmation"
  },
  "4": {
    "translation": "Promoción bajo confirmación final del proveedor: <Supplier Name & Code>",
    "limit": 255,
    "context": "Loyalty PAR Confirmation"
  },
  "5": {
    "translation": "Promoción en proceso de revisión final del proveedor:<Supplier Name & Code>",
    "limit": 255,
    "context": "Specials PAR Confirmation"
  },
  "6": {
    "translation": "<Promotion Name> - <Supplier Name & Code>, los valores han cambiado",
    "limit": 255,
    "context": "Loyalty Co-op Values"
  },
  "7": {
    "translation": "Pedido MyBidfood aún pendiente de aprobación",
    "limit": 255,
    "context": "Order Approval Reminder"
  },
  "8": {
    "translation": "Notificación de escalada de aprobación de Pedido Mybidfood",
    "limit": 255,
    "context": "Order Approval Escalation"
  },
  "9": {
    "translation": "Notificación de aprobación de pedido MyBidfood pendiente",
    "limit": 255,
    "context": "Order Approval Approver Notification"
  },
  "10": {
    "translation": "Alerta de aprobación de pedido MyBidfood",
    "limit": 255,
    "context": "Order Approval Submission Alert"
  },
  "11": {
    "translation": "Solicitud de aprobación de pedido Mybidfood rechazada",
    "limit": 255,
    "context": "Order Approval Decline Notification"
  },
  "12": {
    "translation": "Notificación de finalización tiempo de espera aprobación de pedido",
    "limit": 255,
    "context": "Order Approval Timeout"
  },
  "13": {
    "translation": "<shop name> Notificación de pedido contra reembolso",
    "limit": 255,
    "context": "Cash On Delivery Order Notification"
  },
  "16": {
    "translation": "<shop name>Notificación de comentarios de pedidos web",
    "limit": 255,
    "context": "Web Order Comments Notification"
  },
  "17": {
    "translation": "Bienvenido a <shop_name>",
    "limit": 255,
    "context": "New User Welcome HTML Email"
  },
  "18": {
    "translation": "Bienvenido a <shop_name>",
    "limit": 255,
    "context": "New User Welcome Email"
  },
  "19": {
    "translation": "Nueva Alerta <shop_name> El registro v5 ha sido aprobado para su cliente.",
    "limit": 255,
    "context": "Sales Rep HTML Email"
  },
  "20": {
    "translation": "Nueva Alerta <shop_name> El registro v5 ha sido aprobado para su cliente.",
    "limit": 255,
    "context": "Sales Rep Email"
  },
  "21": {
    "translation": " Cambio de contraseña",
    "limit": 255,
    "context": "Update Password HTML Email"
  },
  "22": {
    "translation": " Cambio de contraseña",
    "limit": 255,
    "context": "Update Password Email"
  },
  "23": {
    "translation": "Solicitud de cambio de contraseña",
    "limit": 255,
    "context": "Reset Password HTML Email"
  },
  "24": {
    "translation": "Solicitud de cambio de contraseña",
    "limit": 255,
    "context": "Reset Password Email"
  },
  "25": {
    "translation": "Tu informe - <reportname>",
    "limit": 255,
    "context": "Export Report HTML Email"
  },
  "26": {
    "translation": "Exportación de datos - <reportname>",
    "limit": 255,
    "context": "Export Report Email"
  },
  "27": {
    "translation": "Error de preautorización de pago para finalizar",
    "limit": 255,
    "context": "Failed Payment Fulfilment Email"
  },
  "28": {
    "translation": "<shop_name>Pedidos aún pendiente de aprobación",
    "limit": 255,
    "context": "Order Approval Reminder HTML"
  },
  "29": {
    "translation": "<shop_name> Notificación de escalada de aprobación de pedido",
    "limit": 255,
    "context": "Order Approval Escalation HTML"
  },
  "30": {
    "translation": "<shop_name> Pedido pendiente de notificación de aprobación",
    "limit": 255,
    "context": "Order Approval Approver Notification HTML"
  },
  "31": {
    "translation": "Avisar a los administradores que el pedido se creó sin aprobación",
    "limit": 255,
    "context": "Order Approval Submission Alert HTML"
  },
  "32": {
    "translation": "<shop_name> Solicitud de aprobación de pedido rechazada",
    "limit": 255,
    "context": "Order Approval Decline Notification HTML"
  },
  "33": {
    "translation": "<shop_name> notificación del pedido  en espera para su  aprobación ",
    "limit": 255,
    "context": "Order Approval Timeout HTML"
  },
  "34": {
    "translation": "<shop_name> Pago pendiente de aprobar",
    "limit": 255,
    "context": "Payment Approval Reminder HTML"
  },
  "35": {
    "translation": "<shop_name> Notificación de escalada de aprobación de pedido",
    "limit": 255,
    "context": "Payment Approval Escalation HTML"
  },
  "36": {
    "translation": "<shop_name> Notificación de pago pendiente de aprobar",
    "limit": 255,
    "context": "Payment Approval Approver Notification HTML"
  },
  "37": {
    "translation": "Avisar a los administradores que el pago se creó sin aprobación",
    "limit": 255,
    "context": "Payment Approval Submission Alert HTML"
  },
  "38": {
    "translation": "<shop_name> Solicitud de aprobación de pago rechazada",
    "limit": 255,
    "context": "Payment Approval Decline Notification HTML"
  },
  "39": {
    "translation": "<shop_name> Notificación de aprobacion de pago",
    "limit": 255,
    "context": "Payment Approval Timeout HTML"
  },
  "40": {
    "translation": "<shop_name> Solicitud de aprobación de pago aprobada",
    "limit": 255,
    "context": "Payment Approval Approve Notification HTML"
  },
  "41": {
    "translation": "Tu registro para <shop_name> fue rechazado",
    "limit": 255,
    "context": "Decline User Registration HTML"
  },
  "42": {
    "translation": "Su derecho a ser olvidado ha sido aceptado.",
    "limit": 255,
    "context": "Accept Right To Be Forgotten HTML"
  },
  "43": {
    "translation": "Su derecho a ser olvidado ha sido cancelado.",
    "limit": 255,
    "context": "Cancel Right To Be Forgotten HTML"
  },
  "44": {
    "translation": "Necesita su apobación para solicitar ser olvidado",
    "limit": 255,
    "context": "Right To Be Forgotten Request HTML"
  },
  "45": {
    "translation": "Nuevo usuario Proveedor <shop_name>",
    "limit": 255,
    "context": "New Supplier User HTML"
  },
  "46": {
    "translation": "Nuevo usuario Proveedor <shop_name>",
    "limit": 255,
    "context": "New Supplier User"
  },
  "47": {
    "translation": "Factura de Pago <shop_name>",
    "limit": 255,
    "context": "Payment Invoice HTML"
  },
  "48": {
    "translation": "Factura de Pago <shop_name>",
    "limit": 255,
    "context": "Payment Invoice"
  },
  "49": {
    "translation": "Registro de Usuarios",
    "limit": 255,
    "context": "User Records"
  },
  "50": {
    "translation": "Registro de Usuarios HTML",
    "limit": 255,
    "context": "User Records HTML"
  },
  "51": {
    "translation": "Informe de Programados <schedule_name>",
    "limit": 255,
    "context": "Admin Scheduled Report"
  },
  "52": {
    "translation": "Informe de Programados <schedule_name>",
    "limit": 255,
    "context": "Admin Scheduled Report HTML"
  }
}