{
  "1": {
    "CustomerDescription": {
      "translation": "",
      "limit": 255
    },
    "ErrorDescription": {
      "translation": "تم اكتشاف رؤوس طلبات مكررة",
      "limit": 255
    }
  },
  "2": {
    "CustomerDescription": {
      "translation": "",
      "limit": 255
    },
    "ErrorDescription": {
      "translation": "مستخدم العميل غير موجود",
      "limit": 255
    }
  },
  "3": {
    "CustomerDescription": {
      "translation": "",
      "limit": 255
    },
    "ErrorDescription": {
      "translation": "مستخدم EDI غير موجود",
      "limit": 255
    }
  },
  "4": {
    "CustomerDescription": {
      "translation": "",
      "limit": 255
    },
    "ErrorDescription": {
      "translation": "تم تحميل طلب EDI بالفعل",
      "limit": 255
    }
  },
  "5": {
    "CustomerDescription": {
      "translation": "",
      "limit": 255
    },
    "ErrorDescription": {
      "translation": "فشل تحميل رأس طلب EDI",
      "limit": 255
    }
  },
  "6": {
    "CustomerDescription": {
      "translation": "",
      "limit": 255
    },
    "ErrorDescription": {
      "translation": "لا توجد طلبات صالحة لتحميلها",
      "limit": 255
    }
  },
  "7": {
    "CustomerDescription": {
      "translation": "",
      "limit": 255
    },
    "ErrorDescription": {
      "translation": "فشل تحميل أسطر طلبات EDI",
      "limit": 255
    }
  },
  "8": {
    "CustomerDescription": {
      "translation": "",
      "limit": 255
    },
    "ErrorDescription": {
      "translation": "كميات غير صالحة",
      "limit": 255
    }
  },
  "9": {
    "CustomerDescription": {
      "translation": "",
      "limit": 255
    },
    "ErrorDescription": {
      "translation": "كود (أكواد) صنف منتج غير صالح",
      "limit": 255
    }
  },
  "10": {
    "CustomerDescription": {
      "translation": "",
      "limit": 255
    },
    "ErrorDescription": {
      "translation": "كود (أكواد) صنف منتج متجاوز",
      "limit": 255
    }
  },
  "11": {
    "CustomerDescription": {
      "translation": "",
      "limit": 255
    },
    "ErrorDescription": {
      "translation": "كود (أكواد) صنف منتج غير رقمي",
      "limit": 255
    }
  },
  "12": {
    "CustomerDescription": {
      "translation": "",
      "limit": 255
    },
    "ErrorDescription": {
      "translation": "كود (أكواد) وحدة قياس مفقود أو غير صالح",
      "limit": 255
    }
  },
  "13": {
    "CustomerDescription": {
      "translation": "",
      "limit": 255
    },
    "ErrorDescription": {
      "translation": "أصناف مكررة",
      "limit": 255
    }
  },
  "14": {
    "CustomerDescription": {
      "translation": "",
      "limit": 255
    },
    "ErrorDescription": {
      "translation": "تسعير مفقود أو غير صالح",
      "limit": 255
    }
  },
  "15": {
    "CustomerDescription": {
      "translation": "",
      "limit": 255
    },
    "ErrorDescription": {
      "translation": "تاريخ (تواريخ) غير صالحة",
      "limit": 255
    }
  },
  "16": {
    "CustomerDescription": {
      "translation": "",
      "limit": 255
    },
    "ErrorDescription": {
      "translation": "تم تجاوز تفاوت السعر",
      "limit": 255
    }
  },
  "17": {
    "CustomerDescription": {
      "translation": "المنتج غير متوفر",
      "limit": 255
    },
    "ErrorDescription": {
      "translation": "سجل مخزون مفقود",
      "limit": 255
    }
  },
  "18": {
    "CustomerDescription": {
      "translation": "المنتج غير متوفر",
      "limit": 255
    },
    "ErrorDescription": {
      "translation": "تم حذف المنتج الرئيسي",
      "limit": 255
    }
  },
  "19": {
    "CustomerDescription": {
      "translation": "المنتج غير متوفر",
      "limit": 255
    },
    "ErrorDescription": {
      "translation": "المخزون غير متوفر",
      "limit": 255
    }
  },
  "21": {
    "CustomerDescription": {
      "translation": "المنتج غير متوفر",
      "limit": 255
    },
    "ErrorDescription": {
      "translation": "غير مسموح بالمتأخرات",
      "limit": 255
    }
  },
  "22": {
    "CustomerDescription": {
      "translation": "المنتج غير متوفر",
      "limit": 255
    },
    "ErrorDescription": {
      "translation": "غير مسموح بالاستبدال",
      "limit": 255
    }
  },
  "23": {
    "CustomerDescription": {
      "translation": "",
      "limit": 255
    },
    "ErrorDescription": {
      "translation": "مخزون متوفر غير كافٍ",
      "limit": 255
    }
  },
  "24": {
    "CustomerDescription": {
      "translation": "",
      "limit": 255
    },
    "ErrorDescription": {
      "translation": "لا يوجد مخزون متوفر",
      "limit": 255
    }
  },
  "25": {
    "CustomerDescription": {
      "translation": "",
      "limit": 255
    },
    "ErrorDescription": {
      "translation": "تاريخ (تواريخ) تسليم مستقبلي بعيد",
      "limit": 255
    }
  },
  "26": {
    "CustomerDescription": {
      "translation": "",
      "limit": 255
    },
    "ErrorDescription": {
      "translation": "لا يتوفر تاريخ تسليم",
      "limit": 255
    }
  },
  "27": {
    "CustomerDescription": {
      "translation": "",
      "limit": 255
    },
    "ErrorDescription": {
      "translation": "معلومات فقط: الصنف قيد الطلب بالفعل",
      "limit": 255
    }
  },
  "28": {
    "CustomerDescription": {
      "translation": "المنتج غير متوفر",
      "limit": 255
    },
    "ErrorDescription": {
      "translation": "تم استبعاد هذا المنتج",
      "limit": 255
    }
  }
}