{
  "1": {
    "CustomerDescription": {
      "translation": "Leer",
      "limit": 255
    },
    "ErrorDescription": {
      "translation": "Doppelte Bestellkopfdaten erkannt, nicht erlaubt",
      "limit": 255
    }
  },
  "2": {
    "CustomerDescription": {
      "translation": "Leer",
      "limit": 255
    },
    "ErrorDescription": {
      "translation": "Kundenkonto existiert nicht",
      "limit": 255
    }
  },
  "3": {
    "CustomerDescription": {
      "translation": "Leer",
      "limit": 255
    },
    "ErrorDescription": {
      "translation": "EDI-Benutzer existiert nicht",
      "limit": 255
    }
  },
  "4": {
    "CustomerDescription": {
      "translation": "Leer",
      "limit": 255
    },
    "ErrorDescription": {
      "translation": "EDI-Bestellung bereits geladen",
      "limit": 255
    }
  },
  "5": {
    "CustomerDescription": {
      "translation": "Leer",
      "limit": 255
    },
    "ErrorDescription": {
      "translation": "EDI-Auftragskopf konnte nicht geladen werden",
      "limit": 255
    }
  },
  "6": {
    "CustomerDescription": {
      "translation": "Leer",
      "limit": 255
    },
    "ErrorDescription": {
      "translation": "Keine gültigen Auftragspositionen zum Laden",
      "limit": 255
    }
  },
  "7": {
    "CustomerDescription": {
      "translation": "Leer",
      "limit": 255
    },
    "ErrorDescription": {
      "translation": "EDI-Bestellzeilen konnten nicht geladen werden",
      "limit": 255
    }
  },
  "8": {
    "CustomerDescription": {
      "translation": "Leer",
      "limit": 255
    },
    "ErrorDescription": {
      "translation": "Ungültige Mengen",
      "limit": 255
    }
  },
  "9": {
    "CustomerDescription": {
      "translation": "Leer",
      "limit": 255
    },
    "ErrorDescription": {
      "translation": "Ungültige(r) Produktartikelcode(s)",
      "limit": 255
    }
  },
  "10": {
    "CustomerDescription": {
      "translation": "Leer",
      "limit": 255
    },
    "ErrorDescription": {
      "translation": "Überholte Produktartikelnummer(n) nicht erlaubt",
      "limit": 255
    }
  },
  "11": {
    "CustomerDescription": {
      "translation": "Leer",
      "limit": 255
    },
    "ErrorDescription": {
      "translation": "Nicht-numerische(r) Produktartikelcode(s)",
      "limit": 255
    }
  },
  "12": {
    "CustomerDescription": {
      "translation": "Leer",
      "limit": 255
    },
    "ErrorDescription": {
      "translation": "Fehlende oder ungültige Maßeinheiten-Code(s)",
      "limit": 255
    }
  },
  "13": {
    "CustomerDescription": {
      "translation": "Leer",
      "limit": 255
    },
    "ErrorDescription": {
      "translation": "Doppelte Einträge",
      "limit": 255
    }
  },
  "14": {
    "CustomerDescription": {
      "translation": "Leer",
      "limit": 255
    },
    "ErrorDescription": {
      "translation": "Fehlende oder ungültige Preise",
      "limit": 255
    }
  },
  "15": {
    "CustomerDescription": {
      "translation": "Leer",
      "limit": 255
    },
    "ErrorDescription": {
      "translation": "Ungültige(s) Datum(e)",
      "limit": 255
    }
  },
  "16": {
    "CustomerDescription": {
      "translation": "Leer",
      "limit": 255
    },
    "ErrorDescription": {
      "translation": "Preistoleranz überschritten",
      "limit": 255
    }
  },
  "17": {
    "CustomerDescription": {
      "translation": "Produkt nicht verfügbar",
      "limit": 255
    },
    "ErrorDescription": {
      "translation": "Fehlender Bestandssatz",
      "limit": 255
    }
  },
  "18": {
    "CustomerDescription": {
      "translation": "Produkt nicht verfügbar",
      "limit": 255
    },
    "ErrorDescription": {
      "translation": "Hauptprodukt Gelöscht",
      "limit": 255
    }
  },
  "19": {
    "CustomerDescription": {
      "translation": "Produkt nicht verfügbar",
      "limit": 255
    },
    "ErrorDescription": {
      "translation": "Lagerbestand nicht verfügbar",
      "limit": 255
    }
  },
  "21": {
    "CustomerDescription": {
      "translation": "Produkt nicht verfügbar",
      "limit": 255
    },
    "ErrorDescription": {
      "translation": "Nachbestellung nicht erlaubt",
      "limit": 255
    }
  },
  "22": {
    "CustomerDescription": {
      "translation": "Produkt nicht verfügbar",
      "limit": 255
    },
    "ErrorDescription": {
      "translation": "Substitution nicht erlaubt",
      "limit": 255
    }
  },
  "23": {
    "CustomerDescription": {
      "translation": "Leer",
      "limit": 255
    },
    "ErrorDescription": {
      "translation": "Nicht ausreichender Lagerbestand vorhanden",
      "limit": 255
    }
  },
  "24": {
    "CustomerDescription": {
      "translation": "Leer",
      "limit": 255
    },
    "ErrorDescription": {
      "translation": "Kein Lagerbestand vorhanden",
      "limit": 255
    }
  },
  "25": {
    "CustomerDescription": {
      "translation": "Leer",
      "limit": 255
    },
    "ErrorDescription": {
      "translation": "Liefertermin(e) in ferner Zukunft",
      "limit": 255
    }
  },
  "26": {
    "CustomerDescription": {
      "translation": "Leer",
      "limit": 255
    },
    "ErrorDescription": {
      "translation": "Kein Liefertermin verfügbar",
      "limit": 255
    }
  },
  "27": {
    "CustomerDescription": {
      "translation": "Leer",
      "limit": 255
    },
    "ErrorDescription": {
      "translation": "Nur zur Information; der Artikel ist bereits bestellt",
      "limit": 255
    }
  },
  "28": {
    "CustomerDescription": {
      "translation": "Produkt nicht verfügbar",
      "limit": 255
    },
    "ErrorDescription": {
      "translation": "Dieses Produkt wurde ausgeschlossen",
      "limit": 255
    }
  }
}