{
  "1": {
    "CustomerDescription": {
      "translation": "",
      "limit": 255
    },
    "ErrorDescription": {
      "translation": "Duplicate order headers detected",
      "limit": 255
    }
  },
  "2": {
    "CustomerDescription": {
      "translation": "",
      "limit": 255
    },
    "ErrorDescription": {
      "translation": "Customer account does not exist",
      "limit": 255
    }
  },
  "3": {
    "CustomerDescription": {
      "translation": "",
      "limit": 255
    },
    "ErrorDescription": {
      "translation": "EDI User does not exist",
      "limit": 255
    }
  },
  "4": {
    "CustomerDescription": {
      "translation": "",
      "limit": 255
    },
    "ErrorDescription": {
      "translation": "EDI Order already loaded",
      "limit": 255
    }
  },
  "5": {
    "CustomerDescription": {
      "translation": "",
      "limit": 255
    },
    "ErrorDescription": {
      "translation": "EDI Order header failed to load",
      "limit": 255
    }
  },
  "6": {
    "CustomerDescription": {
      "translation": "",
      "limit": 255
    },
    "ErrorDescription": {
      "translation": "No valid order lines to load",
      "limit": 255
    }
  },
  "7": {
    "CustomerDescription": {
      "translation": "",
      "limit": 255
    },
    "ErrorDescription": {
      "translation": "EDI Order lines failed to load",
      "limit": 255
    }
  },
  "8": {
    "CustomerDescription": {
      "translation": "",
      "limit": 255
    },
    "ErrorDescription": {
      "translation": "Invalid quantities",
      "limit": 255
    }
  },
  "9": {
    "CustomerDescription": {
      "translation": "",
      "limit": 255
    },
    "ErrorDescription": {
      "translation": "Invalid product item code(s)",
      "limit": 255
    }
  },
  "10": {
    "CustomerDescription": {
      "translation": "",
      "limit": 255
    },
    "ErrorDescription": {
      "translation": "Superseded product item code(s)",
      "limit": 255
    }
  },
  "11": {
    "CustomerDescription": {
      "translation": "",
      "limit": 255
    },
    "ErrorDescription": {
      "translation": "Non-numeric product item code(s)",
      "limit": 255
    }
  },
  "12": {
    "CustomerDescription": {
      "translation": "",
      "limit": 255
    },
    "ErrorDescription": {
      "translation": "Missing or Invalid UOM code(s)",
      "limit": 255
    }
  },
  "13": {
    "CustomerDescription": {
      "translation": "",
      "limit": 255
    },
    "ErrorDescription": {
      "translation": "Duplicate items",
      "limit": 255
    }
  },
  "14": {
    "CustomerDescription": {
      "translation": "",
      "limit": 255
    },
    "ErrorDescription": {
      "translation": "Missing or Invalid pricing",
      "limit": 255
    }
  },
  "15": {
    "CustomerDescription": {
      "translation": "",
      "limit": 255
    },
    "ErrorDescription": {
      "translation": "Invalid date(s)",
      "limit": 255
    }
  },
  "16": {
    "CustomerDescription": {
      "translation": "",
      "limit": 255
    },
    "ErrorDescription": {
      "translation": "Price tolerance exceeded",
      "limit": 255
    }
  },
  "17": {
    "CustomerDescription": {
      "translation": "Product not available",
      "limit": 255
    },
    "ErrorDescription": {
      "translation": "Missing Stock Record",
      "limit": 255
    }
  },
  "18": {
    "CustomerDescription": {
      "translation": "Product not available",
      "limit": 255
    },
    "ErrorDescription": {
      "translation": "Master product Deleted",
      "limit": 255
    }
  },
  "19": {
    "CustomerDescription": {
      "translation": "Product not available",
      "limit": 255
    },
    "ErrorDescription": {
      "translation": "Stock unavailable",
      "limit": 255
    }
  },
  "21": {
    "CustomerDescription": {
      "translation": "Product not available",
      "limit": 255
    },
    "ErrorDescription": {
      "translation": "Backorder not allowed",
      "limit": 255
    }
  },
  "22": {
    "CustomerDescription": {
      "translation": "Product not available",
      "limit": 255
    },
    "ErrorDescription": {
      "translation": "Subsitution not allowed",
      "limit": 255
    }
  },
  "23": {
    "CustomerDescription": {
      "translation": "",
      "limit": 255
    },
    "ErrorDescription": {
      "translation": "Insufficient stock available",
      "limit": 255
    }
  },
  "24": {
    "CustomerDescription": {
      "translation": "",
      "limit": 255
    },
    "ErrorDescription": {
      "translation": "No stock available",
      "limit": 255
    }
  },
  "25": {
    "CustomerDescription": {
      "translation": "",
      "limit": 255
    },
    "ErrorDescription": {
      "translation": "Distant future delivery date(s)",
      "limit": 255
    }
  },
  "26": {
    "CustomerDescription": {
      "translation": "",
      "limit": 255
    },
    "ErrorDescription": {
      "translation": "No delivery date available",
      "limit": 255
    }
  },
  "27": {
    "CustomerDescription": {
      "translation": "",
      "limit": 255
    },
    "ErrorDescription": {
      "translation": "Information only; item already on order",
      "limit": 255
    }
  },
  "28": {
    "CustomerDescription": {
      "translation": "Product not available",
      "limit": 255
    },
    "ErrorDescription": {
      "translation": "This Product has been excluded",
      "limit": 255
    }
  }
}