{
  "1": {
    "CustomerDescription": {
      "translation": "",
      "limit": 255
    },
    "ErrorDescription": {
      "translation": "Yinelenen sipariş başlıkları tespit edildi",
      "limit": 255
    }
  },
  "2": {
    "CustomerDescription": {
      "translation": "",
      "limit": 255
    },
    "ErrorDescription": {
      "translation": "Müşteri hesabı mevcut değil",
      "limit": 255
    }
  },
  "3": {
    "CustomerDescription": {
      "translation": "",
      "limit": 255
    },
    "ErrorDescription": {
      "translation": "EDI Kullanıcısı mevcut değil",
      "limit": 255
    }
  },
  "4": {
    "CustomerDescription": {
      "translation": "",
      "limit": 255
    },
    "ErrorDescription": {
      "translation": "EDI Siparişi zaten yüklendi",
      "limit": 255
    }
  },
  "5": {
    "CustomerDescription": {
      "translation": "",
      "limit": 255
    },
    "ErrorDescription": {
      "translation": "EDI Sipariş başlığı yüklenemedi",
      "limit": 255
    }
  },
  "6": {
    "CustomerDescription": {
      "translation": "",
      "limit": 255
    },
    "ErrorDescription": {
      "translation": "Yüklenecek geçerli sipariş satırı yok",
      "limit": 255
    }
  },
  "7": {
    "CustomerDescription": {
      "translation": "",
      "limit": 255
    },
    "ErrorDescription": {
      "translation": "EDI Sipariş satırları yüklenemedi",
      "limit": 255
    }
  },
  "8": {
    "CustomerDescription": {
      "translation": "",
      "limit": 255
    },
    "ErrorDescription": {
      "translation": "Geçersiz miktar",
      "limit": 255
    }
  },
  "9": {
    "CustomerDescription": {
      "translation": "",
      "limit": 255
    },
    "ErrorDescription": {
      "translation": "Geçersiz ürün kodu",
      "limit": 255
    }
  },
  "10": {
    "CustomerDescription": {
      "translation": "",
      "limit": 255
    },
    "ErrorDescription": {
      "translation": "Değiştirilen ürün kodu",
      "limit": 255
    }
  },
  "11": {
    "CustomerDescription": {
      "translation": "",
      "limit": 255
    },
    "ErrorDescription": {
      "translation": "Sayısal olmayan ürün kodu",
      "limit": 255
    }
  },
  "12": {
    "CustomerDescription": {
      "translation": "",
      "limit": 255
    },
    "ErrorDescription": {
      "translation": "Eksik veya Geçersiz Ölçü Birimi kodu",
      "limit": 255
    }
  },
  "13": {
    "CustomerDescription": {
      "translation": "",
      "limit": 255
    },
    "ErrorDescription": {
      "translation": "Yinelenen Ürünler",
      "limit": 255
    }
  },
  "14": {
    "CustomerDescription": {
      "translation": "",
      "limit": 255
    },
    "ErrorDescription": {
      "translation": "Eksik veya Geçersiz fiyatlandırma",
      "limit": 255
    }
  },
  "15": {
    "CustomerDescription": {
      "translation": "",
      "limit": 255
    },
    "ErrorDescription": {
      "translation": "Geçersiz tarih(ler)",
      "limit": 255
    }
  },
  "16": {
    "CustomerDescription": {
      "translation": "",
      "limit": 255
    },
    "ErrorDescription": {
      "translation": "Fiyat toleransı aşıldı",
      "limit": 255
    }
  },
  "17": {
    "CustomerDescription": {
      "translation": "Ürün mevcut değil",
      "limit": 255
    },
    "ErrorDescription": {
      "translation": "Eksik Stok Kaydı",
      "limit": 255
    }
  },
  "18": {
    "CustomerDescription": {
      "translation": "Ürün mevcut değil",
      "limit": 255
    },
    "ErrorDescription": {
      "translation": "Ana ürün Silindi",
      "limit": 255
    }
  },
  "19": {
    "CustomerDescription": {
      "translation": "Ürün mevcut değil",
      "limit": 255
    },
    "ErrorDescription": {
      "translation": "stok mevcut değil",
      "limit": 255
    }
  },
  "21": {
    "CustomerDescription": {
      "translation": "Ürün mevcut değil",
      "limit": 255
    },
    "ErrorDescription": {
      "translation": "Ön siparişe uygun değil",
      "limit": 255
    }
  },
  "22": {
    "CustomerDescription": {
      "translation": "Ürün mevcut değil",
      "limit": 255
    },
    "ErrorDescription": {
      "translation": "İkameye uygun değil",
      "limit": 255
    }
  },
  "23": {
    "CustomerDescription": {
      "translation": "",
      "limit": 255
    },
    "ErrorDescription": {
      "translation": "Yetersiz stok",
      "limit": 255
    }
  },
  "24": {
    "CustomerDescription": {
      "translation": "",
      "limit": 255
    },
    "ErrorDescription": {
      "translation": "Stok Yok",
      "limit": 255
    }
  },
  "25": {
    "CustomerDescription": {
      "translation": "",
      "limit": 255
    },
    "ErrorDescription": {
      "translation": "Uzak dönem teslim tarihleri",
      "limit": 255
    }
  },
  "26": {
    "CustomerDescription": {
      "translation": "",
      "limit": 255
    },
    "ErrorDescription": {
      "translation": "Teslimat tarihi yok",
      "limit": 255
    }
  },
  "27": {
    "CustomerDescription": {
      "translation": "",
      "limit": 255
    },
    "ErrorDescription": {
      "translation": "Uyarı; ürün zaten siparişte bulunmaktadır",
      "limit": 255
    }
  },
  "28": {
    "CustomerDescription": {
      "translation": "Ürün mevcut değil",
      "limit": 255
    },
    "ErrorDescription": {
      "translation": "Bu Ürün hariç tutulmuştur",
      "limit": 255
    }
  }
}