{
  "25": {
    "translation": "nl_BE All technical and product information and data is maintained by or on behalf of the manufacturer or agent of the product. Whilst every care has been taken to ensure that the information and data is accurate, Bidfood Limited and the manufacturer/agent accept no liability for any change without notice, errors or omissions.<br>For manual ingredients, it is your responsibility to provide accurate information, including allergen and nutritional information.<br>Product packaging MUST be consulted prior to usage or consumption of food products, as the packaging carries the most up to date and accurate information from the manufacturer/agent.",
    "limit": 4000,
    "context": "All technical and product information and data is maintained by or on behalf of the manufacturer or agent of the product. Whilst every care has been taken to ensure that the information and data is accurate, Bidfood Limited and the manufacturer/agent accept no liability for any change without notice, errors or omissions.<br>For manual ingredients, it is your responsibility to provide accurate information, including allergen and nutritional information.<br>Product packaging MUST be consulted prior to usage or consumption of food products, as the packaging carries the most up to date and accurate information from the manufacturer/agent."
  },
  "45": {
    "translation": "<p>Een label is een samenvatting van de belangrijke punten van een recept.  <br>De voedingsinformatie (ingrediënten, allergenen, ...) die u ter beschikking wordt gesteld, wordt met de grootste zorg opgesteld aan de hand van gegevens uit onze databank. Die informatie kan echter intussen zijn gewijzigd en/of aangevuld door de leverancier zonder dat wij hiervan in kennis werden gesteld. Vandaar dat het aangewezen is om ook de informatie op de etiketten van de producten te lezen. Die informatie is immers de enige die gegarandeerd juist is. <br> Bidfood kan onder geen enkel beding verantwoordelijk worden gesteld voor de juistheid van deze gegevens. Het merendeel van onze gegevens wordt aangeleverd via My Product Manager, dat eigendom is van GS1. <br>Allergene gegevens die door de fabrikant als 'Niet op de verpakking vermeld' in Mijn Product Manager zijn vermeld, worden beschouwd als 'Bevat niet' om duidelijkheid te verschaffen bij het zoeken naar allergenen. De fabrikant is verantwoordelijk voor het aangeven van de aanwezige of mogelijk aanwezige allergenen in zijn producten in My Product Manager.</p>",
    "limit": 4000,
    "context": "Food labelling service is provided based on technical product data provided to Bidfood by the manufacturer/ supplier. Bidfood will accurately transmit technical product data (ingredient and allergen) for the purposes of creating food labels for recipes. By creating food labels based on this technical product data, you agree to check for updates and refer to the packaging at all times, because product data changes regularly. You must not alter the product data. If despite this, you choose to do so, then Bidfood will not be responsible. The supply of the products by Bidfood is subject to Bidfood’s trading terms and conditions."
  },
  "45_urb": {
    "translation": "Food labelling service is provided based on technical product data provided to Urban Foodservice by the manufacturer/ supplier. Urban Foodservice will accurately transmit technical product data (ingredient and allergen) for the purposes of creating food labels for recipes. By creating food labels based on this technical product data, you agree to check for updates and refer to the packaging at all times, because product data changes regularly. You must not alter the product data. If despite this, you choose to do so, then Urban Foodservice will not be responsible. The supply of the products by Urban Foodservice is subject to Urban Foodservice’s trading terms and conditions.",
    "limit": 4000,
    "context": "Food labelling service is provided based on technical product data provided to Urban Foodservice by the manufacturer/ supplier. Urban Foodservice will accurately transmit technical product data (ingredient and allergen) for the purposes of creating food labels for recipes. By creating food labels based on this technical product data, you agree to check for updates and refer to the packaging at all times, because product data changes regularly. You must not alter the product data. If despite this, you choose to do so, then Urban Foodservice will not be responsible. The supply of the products by Urban Foodservice is subject to Urban Foodservice’s trading terms and conditions."
  }
}