{
  "25": {
    "translation": "LT_All technical and product information and data is maintained by or on behalf of the manufacturer or agent of the product. Whilst every care has been taken to ensure that the information and data is accurate, Bidfood Limited and the manufacturer/agent accept no liability for any change without notice, errors or omissions.<br>For manual ingredients, it is your responsibility to provide accurate information, including allergen and nutritional information.<br>Product packaging MUST be consulted prior to usage or consumption of food products, as the packaging carries the most up to date and accurate information from the manufacturer/agent.",
    "limit": 4000,
    "context": "All technical and product information and data is maintained by or on behalf of the manufacturer or agent of the product. Whilst every care has been taken to ensure that the information and data is accurate, Bidfood Limited and the manufacturer/agent accept no liability for any change without notice, errors or omissions.<br>For manual ingredients, it is your responsibility to provide accurate information, including allergen and nutritional information.<br>Product packaging MUST be consulted prior to usage or consumption of food products, as the packaging carries the most up to date and accurate information from the manufacturer/agent."
  },
  "45": {
    "translation": "LTA_Food labelling service is provided based on technical product data provided to Bidfood by the manufacturer/ supplier. Bidfood will accurately transmit technical product data (ingredient and allergen) for the purposes of creating food labels for recipes. By creating food labels based on this technical product data, you agree to check for updates and refer to the packaging at all times, because product data changes regularly. You must not alter the product data. If despite this, you choose to do so, then Bidfood will not be responsible. The supply of the products by Bidfood is subject to Bidfood’s trading terms and conditions.",
    "limit": 4000,
    "context": "Food labelling service is provided based on technical product data provided to Bidfood by the manufacturer/ supplier. Bidfood will accurately transmit technical product data (ingredient and allergen) for the purposes of creating food labels for recipes. By creating food labels based on this technical product data, you agree to check for updates and refer to the packaging at all times, because product data changes regularly. You must not alter the product data. If despite this, you choose to do so, then Bidfood will not be responsible. The supply of the products by Bidfood is subject to Bidfood’s trading terms and conditions."
  },
  "45_urb": {
    "translation": "Food labelling service is provided based on technical product data provided to Urban Foodservice by the manufacturer/ supplier. Urban Foodservice will accurately transmit technical product data (ingredient and allergen) for the purposes of creating food labels for recipes. By creating food labels based on this technical product data, you agree to check for updates and refer to the packaging at all times, because product data changes regularly. You must not alter the product data. If despite this, you choose to do so, then Urban Foodservice will not be responsible. The supply of the products by Urban Foodservice is subject to Urban Foodservice’s trading terms and conditions.",
    "limit": 4000,
    "context": "Food labelling service is provided based on technical product data provided to Urban Foodservice by the manufacturer/ supplier. Urban Foodservice will accurately transmit technical product data (ingredient and allergen) for the purposes of creating food labels for recipes. By creating food labels based on this technical product data, you agree to check for updates and refer to the packaging at all times, because product data changes regularly. You must not alter the product data. If despite this, you choose to do so, then Urban Foodservice will not be responsible. The supply of the products by Urban Foodservice is subject to Urban Foodservice’s trading terms and conditions."
  }
}