{
  "1": {
    "SearchLabel": {
      "translation": " - Search for products that are FREE FROM the selected allergens <br /><u>IMPORTANT NOTICE - Allergen information may be incorrect, product packaging MUST be consulted prior to consumption</u>",
      "limit": 255
    },
    "SectionName": {
      "translation": "Allergens",
      "limit": 50
    }
  },
  "2": {
    "SearchLabel": {
      "translation": " - Search for products that are SUITABLE FOR the selected groups",
      "limit": 255
    },
    "SectionName": {
      "translation": "Dietary Requirements",
      "limit": 50
    }
  },
  "3": {
    "SearchLabel": {
      "translation": " - Search for products that are SUITABLE FOR the selected uses",
      "limit": 255
    },
    "SectionName": {
      "translation": "Food Usage",
      "limit": 50
    }
  },
  "4": {
    "SearchLabel": {
      "translation": " - Search for products that are SUITABLE FOR the selected uses",
      "limit": 255
    },
    "SectionName": {
      "translation": "Usage and Application",
      "limit": 50
    }
  },
  "5": {
    "SearchLabel": {
      "translation": "*",
      "limit": 255
    },
    "SectionName": {
      "translation": "Packaging",
      "limit": 50
    }
  },
  "6": {
    "SearchLabel": {
      "translation": "*",
      "limit": 255
    },
    "SectionName": {
      "translation": "Certifications",
      "limit": 50
    }
  }
}