{
  "1": {
    "SearchLabel": {
      "translation": "- Pesquise produtos LIVRES DOS alérgenos selecionados<br /><u> AVISO IMPORTANTE - As informações sobre alérgenos podem estar incorretas, a embalagem do produto DEVE ser consultada antes do consumo</u>",
      "limit": 255
    },
    "SectionName": {
      "translation": "Alérgenos",
      "limit": 50
    }
  },
  "2": {
    "SearchLabel": {
      "translation": "- Pesquise produtos ADEQUADOS PARA os grupos selecionados",
      "limit": 255
    },
    "SectionName": {
      "translation": "Requisitos dietéticos",
      "limit": 50
    }
  },
  "3": {
    "SearchLabel": {
      "translation": "- Pesquise produtos que sejam ADEQUADOS PARA os usos selecionados",
      "limit": 255
    },
    "SectionName": {
      "translation": "Uso alimentar",
      "limit": 50
    }
  },
  "4": {
    "SearchLabel": {
      "translation": "- Pesquise produtos que sejam ADEQUADOS PARA os usos selecionados",
      "limit": 255
    },
    "SectionName": {
      "translation": "Uso e Aplicação",
      "limit": 50
    }
  },
  "5": {
    "SearchLabel": {
      "translation": "*",
      "limit": 255
    },
    "SectionName": {
      "translation": "Embalagem",
      "limit": 50
    }
  },
  "6": {
    "SearchLabel": {
      "translation": "*",
      "limit": 255
    },
    "SectionName": {
      "translation": "Certificados",
      "limit": 50
    }
  }
}