{
  "A": {
    "translation": "Aprovado",
    "limit": 50,
    "context": "Approved"
  },
  "D": {
    "translation": "Recusado",
    "limit": 50,
    "context": "Declined"
  },
  "P": {
    "translation": "Pendente",
    "limit": 50,
    "context": "Pending"
  },
  "R": {
    "translation": "Parcialmente aprovado",
    "limit": 50,
    "context": "Partially Approved"
  }
}