{
  "A": {
    "translation": "Patvirtintas",
    "limit": 50,
    "context": "Approved"
  },
  "D": {
    "translation": "Atmesta",
    "limit": 50,
    "context": "Declined"
  },
  "P": {
    "translation": "Laukia patvirtinimo",
    "limit": 50,
    "context": "Pending"
  },
  "R": {
    "translation": "Iš dalies patvirtinta",
    "limit": 50,
    "context": "Partially Approved"
  }
}