{
  "A": {
    "translation": "Approved",
    "limit": 50,
    "context": "Approved"
  },
  "D": {
    "translation": "Declined",
    "limit": 50,
    "context": "Declined"
  },
  "P": {
    "translation": "Pending",
    "limit": 50,
    "context": "Pending"
  },
  "R": {
    "translation": "Partially Approved",
    "limit": 50,
    "context": "Partially Approved"
  }
}