{
  "1": {
    "translation": "Planning & Costing",
    "limit": 100,
    "context": "Planning & Costing"
  },
  "2": {
    "translation": "OrderForm",
    "limit": 100,
    "context": "OrderForm"
  },
  "3": {
    "translation": "Basket",
    "limit": 100,
    "context": "Basket"
  },
  "4": {
    "translation": "Order Submission",
    "limit": 100,
    "context": "Order Submission"
  }
}