{
  "1": {
    "translation": "Receptai",
    "limit": 100,
    "context": "Planning & Costing"
  },
  "2": {
    "translation": "Užsakymo formos",
    "limit": 100,
    "context": "OrderForm"
  },
  "3": {
    "translation": "Krepšelis",
    "limit": 100,
    "context": "Basket"
  },
  "4": {
    "translation": "Užsakymo pateikimas",
    "limit": 100,
    "context": "Order Submission"
  }
}