{
  "3P": {
    "translation": "Delivered by Partner Supplier",
    "limit": 100,
    "context": "Delivered by Partner Supplier"
  },
  "EB": {
    "translation": "Status personalizado",
    "limit": 100,
    "context": "Exclusive to Bidfood"
  },
  "EB_AU": {
    "translation": "Exclusive to Bidfood",
    "limit": 100,
    "context": "Exclusive to Bidfood"
  },
  "EB_BME": {
    "translation": "Delivered by Partner Supplier",
    "limit": 100,
    "context": "Exclusive to Bidfood"
  },
  "EB_FSUK": {
    "translation": "Exclusive to Bidfood",
    "limit": 100,
    "context": "Exclusive to Bidfood"
  },
  "EB_NZ": {
    "translation": "Exclusive to Bidfood",
    "limit": 100,
    "context": "Exclusive to Bidfood"
  },
  "EB_URB": {
    "translation": "Age Restricted",
    "limit": 100,
    "context": "Age Restricted"
  },
  "ET": {
    "translation": "Excise Tax",
    "limit": 100,
    "context": "Excise Tax"
  },
  "H_SG": {
    "translation": "Halal",
    "limit": 100,
    "context": "Halal"
  },
  "M1_FFH": {
    "translation": "Responsibly sourced",
    "limit": 100,
    "context": "MCS RATED 1-2"
  },
  "M3_FFH": {
    "translation": "MCS RATED 3-4",
    "limit": 100,
    "context": "MCS RATED 3-4"
  }
}